(module PADs (layer F.Cu) (tedit 6159D7F9)
  (fp_text reference REF** (at 4.826 -3.81) (layer F.SilkS) hide
    (effects (font (size 1 1) (thickness 0.15)))
  )
  (fp_text value PADs (at -2.032 -3.937) (layer F.Fab)
    (effects (font (size 1 1) (thickness 0.15)))
  )
  (pad 4 smd oval (at 3.81 0) (size 1.27 2.54) (layers F.Cu F.Paste F.Mask))
  (pad 3 smd oval (at 1.27 0) (size 1.27 2.54) (layers F.Cu F.Paste F.Mask))
  (pad 2 smd oval (at -1.27 0) (size 1.27 2.54) (layers F.Cu F.Paste F.Mask))
  (pad 1 smd oval (at -3.81 0) (size 1.27 2.54) (layers F.Cu F.Paste F.Mask))
)
