M48
; DRILL file {KiCad 5.99.0+really5.1.10+dfsg1-1} date Fri Sep 10 22:43:06 2021
; FORMAT={-:-/ absolute / inch / decimal}
; #@! TF.CreationDate,2021-09-10T22:43:06+03:00
; #@! TF.GenerationSoftware,Kicad,Pcbnew,5.99.0+really5.1.10+dfsg1-1
FMAT,2
INCH
T1C0.0120
T2C0.0157
T3C0.0197
T4C0.0250
T5C0.0335
T6C0.0394
T7C0.0512
T8C0.1063
T9C0.0400
T10C0.0700
%
G90
G05
T1
X1.51Y1.2825
X1.521Y1.194
X1.6425Y1.195
X1.6525Y1.0975
X1.7425Y1.0925
X1.7735Y1.439
X1.776Y1.394
X1.8225Y1.075
X1.8575Y1.0725
X1.8725Y1.435
X1.9685Y1.169
X2.056Y1.259
T2
X0.066Y0.544
X0.081Y1.879
X0.1135Y1.299
X0.256Y0.2765
X0.3275Y1.82
X0.3275Y1.7715
X0.3275Y1.7225
X0.381Y0.934
X0.4325Y1.8725
X0.481Y0.769
X0.53Y1.87
X0.5835Y2.0715
X0.591Y0.614
X0.636Y1.109
X0.6481Y1.6811
X0.656Y0.3215
X0.6981Y1.6811
X0.7085Y1.8165
X0.7481Y1.6811
X0.796Y0.3215
X0.8685Y1.8215
X0.8685Y1.619
X0.877Y2.07
X0.9316Y0.6284
X0.9335Y0.889
X1.096Y1.614
X1.1351Y1.4906
X1.181Y2.0715
X1.261Y1.4015
X1.3325Y1.8625
X1.341Y1.164
X1.395Y1.5675
X1.4325Y1.865
X1.4885Y0.9415
X1.556Y1.316
X1.581Y1.4115
X1.6625Y0.9275
X1.671Y1.411
X1.746Y1.7965
X1.7625Y1.29
X1.7637Y1.2037
X1.85Y1.29
X1.85Y1.2037
X1.906Y1.581
X2.016Y1.581
X2.096Y0.864
X2.096Y0.7515
X2.231Y1.884
X2.2335Y1.3865
X2.3185Y1.7965
X2.3585Y1.599
T3
X0.0573Y0.138
X0.0578Y2.068
X0.0806Y0.1944
X0.0806Y0.0816
X0.0811Y2.1244
X0.0811Y2.0116
X0.137Y0.2177
X0.137Y0.0583
X0.1375Y2.1477
X0.1375Y1.9883
X0.1934Y0.1944
X0.1934Y0.0816
X0.1939Y2.1244
X0.1939Y2.0116
X0.2167Y0.138
X0.2172Y2.068
X2.3408Y2.0865
X2.3408Y0.137
X2.3641Y2.1429
X2.3641Y2.0301
X2.3641Y0.1934
X2.3641Y0.0806
X2.4205Y2.1662
X2.4205Y2.0068
X2.4205Y0.2167
X2.4205Y0.0573
X2.4769Y2.1429
X2.4769Y2.0301
X2.4769Y0.1934
X2.4769Y0.0806
X2.5002Y2.0865
X2.5002Y0.137
T4
X1.8062Y1.2475
T5
X0.2131Y1.3972
X0.2131Y1.2972
X0.2131Y1.1972
T6
X1.6885Y0.649
X1.7885Y0.649
X1.8885Y0.649
X1.9885Y0.649
X2.3585Y1.2365
X2.3585Y1.1365
X2.3585Y1.0365
X2.3585Y0.9365
X2.3585Y0.8365
X2.3585Y0.7365
X2.3585Y0.6365
T7
X0.5182Y0.4722
X0.5182Y0.1493
X0.656Y0.4722
X0.656Y0.1493
X0.7938Y0.4722
X0.7938Y0.1493
X0.9316Y0.4722
X0.9316Y0.1493
X1.0682Y0.4722
X1.0682Y0.1493
X1.206Y0.4722
X1.206Y0.1493
X1.3438Y0.4722
X1.3438Y0.1493
X1.4816Y0.4722
X1.4816Y0.1493
X1.6194Y0.4722
X1.6194Y0.1493
X1.7572Y0.4722
X1.7572Y0.1493
X1.895Y0.4722
X1.895Y0.1493
X2.0328Y0.4722
X2.0328Y0.1493
T8
X0.137Y0.138
X0.1375Y2.068
X2.4205Y2.0865
X2.4205Y0.137
T9
X0.3325Y2.118
X0.3325Y2.018
X0.4325Y2.118
X0.4325Y2.018
X0.5325Y2.118
X0.5325Y2.018
X0.6325Y2.118
X0.6325Y2.018
X0.7325Y2.118
X0.7325Y2.018
X0.8325Y2.118
X0.8325Y2.018
X0.9325Y2.118
X0.9325Y2.018
X1.0325Y2.118
X1.0325Y2.018
X1.1325Y2.118
X1.1325Y2.018
X1.2325Y2.118
X1.2325Y2.018
X1.3325Y2.118
X1.3325Y2.018
X1.4325Y2.118
X1.4325Y2.018
X1.5325Y2.118
X1.5325Y2.018
X1.6325Y2.118
X1.6325Y2.018
X1.7325Y2.118
X1.7325Y2.018
X1.8325Y2.118
X1.8325Y2.018
X1.9325Y2.118
X1.9325Y2.018
X2.0325Y2.118
X2.0325Y2.018
X2.1325Y2.118
X2.1325Y2.018
X2.2325Y2.118
X2.2325Y2.018
T10
X0.3825Y2.068
X2.1825Y2.068
T0
M30
