(kicad_sch (version 20230121) (generator eeschema)

  (uuid e3433533-3c75-4c09-9fd7-b400a02b8643)

  (paper "USLetter")

  (title_block
    (title "DP Module")
    (date "2021-09-07")
    (rev "1.0")
    (company "Designed by Sam Harry Tzavaras")
    (comment 1 "Licenced under: TAPR Open Hardware")
  )

  (lib_symbols
    (symbol "Connector:Conn_01x06_Female" (pin_names (offset 1.016) hide) (in_bom yes) (on_board yes)
      (property "Reference" "J" (at 0 7.62 0)
        (effects (font (size 1.27 1.27)))
      )
      (property "Value" "Conn_01x06_Female" (at 0 -10.16 0)
        (effects (font (size 1.27 1.27)))
      )
      (property "Footprint" "" (at 0 0 0)
        (effects (font (size 1.27 1.27)) hide)
      )
      (property "Datasheet" "~" (at 0 0 0)
        (effects (font (size 1.27 1.27)) hide)
      )
      (property "ki_keywords" "connector" (at 0 0 0)
        (effects (font (size 1.27 1.27)) hide)
      )
      (property "ki_description" "Generic connector, single row, 01x06, script generated (kicad-library-utils/schlib/autogen/connector/)" (at 0 0 0)
        (effects (font (size 1.27 1.27)) hide)
      )
      (property "ki_fp_filters" "Connector*:*_1x??_*" (at 0 0 0)
        (effects (font (size 1.27 1.27)) hide)
      )
      (symbol "Conn_01x06_Female_1_1"
        (arc (start 0 -7.112) (mid -0.5058 -7.62) (end 0 -8.128)
          (stroke (width 0.1524) (type default))
          (fill (type none))
        )
        (arc (start 0 -4.572) (mid -0.5058 -5.08) (end 0 -5.588)
          (stroke (width 0.1524) (type default))
          (fill (type none))
        )
        (arc (start 0 -2.032) (mid -0.5058 -2.54) (end 0 -3.048)
          (stroke (width 0.1524) (type default))
          (fill (type none))
        )
        (polyline
          (pts
            (xy -1.27 -7.62)
            (xy -0.508 -7.62)
          )
          (stroke (width 0.1524) (type default))
          (fill (type none))
        )
        (polyline
          (pts
            (xy -1.27 -5.08)
            (xy -0.508 -5.08)
          )
          (stroke (width 0.1524) (type default))
          (fill (type none))
        )
        (polyline
          (pts
            (xy -1.27 -2.54)
            (xy -0.508 -2.54)
          )
          (stroke (width 0.1524) (type default))
          (fill (type none))
        )
        (polyline
          (pts
            (xy -1.27 0)
            (xy -0.508 0)
          )
          (stroke (width 0.1524) (type default))
          (fill (type none))
        )
        (polyline
          (pts
            (xy -1.27 2.54)
            (xy -0.508 2.54)
          )
          (stroke (width 0.1524) (type default))
          (fill (type none))
        )
        (polyline
          (pts
            (xy -1.27 5.08)
            (xy -0.508 5.08)
          )
          (stroke (width 0.1524) (type default))
          (fill (type none))
        )
        (arc (start 0 0.508) (mid -0.5058 0) (end 0 -0.508)
          (stroke (width 0.1524) (type default))
          (fill (type none))
        )
        (arc (start 0 3.048) (mid -0.5058 2.54) (end 0 2.032)
          (stroke (width 0.1524) (type default))
          (fill (type none))
        )
        (arc (start 0 5.588) (mid -0.5058 5.08) (end 0 4.572)
          (stroke (width 0.1524) (type default))
          (fill (type none))
        )
        (pin passive line (at -5.08 5.08 0) (length 3.81)
          (name "Pin_1" (effects (font (size 1.27 1.27))))
          (number "1" (effects (font (size 1.27 1.27))))
        )
        (pin passive line (at -5.08 2.54 0) (length 3.81)
          (name "Pin_2" (effects (font (size 1.27 1.27))))
          (number "2" (effects (font (size 1.27 1.27))))
        )
        (pin passive line (at -5.08 0 0) (length 3.81)
          (name "Pin_3" (effects (font (size 1.27 1.27))))
          (number "3" (effects (font (size 1.27 1.27))))
        )
        (pin passive line (at -5.08 -2.54 0) (length 3.81)
          (name "Pin_4" (effects (font (size 1.27 1.27))))
          (number "4" (effects (font (size 1.27 1.27))))
        )
        (pin passive line (at -5.08 -5.08 0) (length 3.81)
          (name "Pin_5" (effects (font (size 1.27 1.27))))
          (number "5" (effects (font (size 1.27 1.27))))
        )
        (pin passive line (at -5.08 -7.62 0) (length 3.81)
          (name "Pin_6" (effects (font (size 1.27 1.27))))
          (number "6" (effects (font (size 1.27 1.27))))
        )
      )
    )
    (symbol "DP_module:DLHR" (pin_names (offset 1.016)) (in_bom yes) (on_board yes)
      (property "Reference" "U" (at -5.08 7.62 0)
        (effects (font (size 1.27 1.27)))
      )
      (property "Value" "DLHR" (at 0 -7.62 0)
        (effects (font (size 1.27 1.27)))
      )
      (property "Footprint" "" (at 0 0 0)
        (effects (font (size 1.27 1.27)) hide)
      )
      (property "Datasheet" "" (at 0 0 0)
        (effects (font (size 1.27 1.27)) hide)
      )
      (symbol "DLHR_0_1"
        (rectangle (start -6.35 6.35) (end 6.35 -6.35)
          (stroke (width 0) (type default))
          (fill (type background))
        )
      )
      (symbol "DLHR_1_1"
        (pin power_in line (at -8.89 -5.08 0) (length 2.54)
          (name "GND" (effects (font (size 1.27 1.27))))
          (number "1" (effects (font (size 1.27 1.27))))
        )
        (pin power_in line (at -8.89 5.08 0) (length 2.54)
          (name "Vs" (effects (font (size 1.27 1.27))))
          (number "2" (effects (font (size 1.27 1.27))))
        )
        (pin passive line (at 8.89 0 180) (length 2.54)
          (name "MOSI/SDA" (effects (font (size 1.27 1.27))))
          (number "3" (effects (font (size 1.27 1.27))))
        )
        (pin input clock (at 8.89 -2.54 180) (length 2.54)
          (name "SCLK/SCL" (effects (font (size 1.27 1.27))))
          (number "4" (effects (font (size 1.27 1.27))))
        )
        (pin output line (at 8.89 -5.08 180) (length 2.54)
          (name "EOC" (effects (font (size 1.27 1.27))))
          (number "5" (effects (font (size 1.27 1.27))))
        )
        (pin output line (at 8.89 2.54 180) (length 2.54)
          (name "MISO" (effects (font (size 1.27 1.27))))
          (number "6" (effects (font (size 1.27 1.27))))
        )
        (pin input inverted (at 8.89 5.08 180) (length 2.54)
          (name "CS" (effects (font (size 1.27 1.27))))
          (number "8" (effects (font (size 1.27 1.27))))
        )
      )
    )
    (symbol "Device:C_Small" (pin_numbers hide) (pin_names (offset 0.254) hide) (in_bom yes) (on_board yes)
      (property "Reference" "C" (at 0.254 1.778 0)
        (effects (font (size 1.27 1.27)) (justify left))
      )
      (property "Value" "C_Small" (at 0.254 -2.032 0)
        (effects (font (size 1.27 1.27)) (justify left))
      )
      (property "Footprint" "" (at 0 0 0)
        (effects (font (size 1.27 1.27)) hide)
      )
      (property "Datasheet" "~" (at 0 0 0)
        (effects (font (size 1.27 1.27)) hide)
      )
      (property "ki_keywords" "capacitor cap" (at 0 0 0)
        (effects (font (size 1.27 1.27)) hide)
      )
      (property "ki_description" "Unpolarized capacitor, small symbol" (at 0 0 0)
        (effects (font (size 1.27 1.27)) hide)
      )
      (property "ki_fp_filters" "C_*" (at 0 0 0)
        (effects (font (size 1.27 1.27)) hide)
      )
      (symbol "C_Small_0_1"
        (polyline
          (pts
            (xy -1.524 -0.508)
            (xy 1.524 -0.508)
          )
          (stroke (width 0.3302) (type default))
          (fill (type none))
        )
        (polyline
          (pts
            (xy -1.524 0.508)
            (xy 1.524 0.508)
          )
          (stroke (width 0.3048) (type default))
          (fill (type none))
        )
      )
      (symbol "C_Small_1_1"
        (pin passive line (at 0 2.54 270) (length 2.032)
          (name "~" (effects (font (size 1.27 1.27))))
          (number "1" (effects (font (size 1.27 1.27))))
        )
        (pin passive line (at 0 -2.54 90) (length 2.032)
          (name "~" (effects (font (size 1.27 1.27))))
          (number "2" (effects (font (size 1.27 1.27))))
        )
      )
    )
    (symbol "Device:LED_ALT" (pin_numbers hide) (pin_names (offset 1.016) hide) (in_bom yes) (on_board yes)
      (property "Reference" "D" (at 0 2.54 0)
        (effects (font (size 1.27 1.27)))
      )
      (property "Value" "Device_LED_ALT" (at 0 -2.54 0)
        (effects (font (size 1.27 1.27)))
      )
      (property "Footprint" "" (at 0 0 0)
        (effects (font (size 1.27 1.27)) hide)
      )
      (property "Datasheet" "" (at 0 0 0)
        (effects (font (size 1.27 1.27)) hide)
      )
      (property "ki_fp_filters" "LED* LED_SMD:* LED_THT:*" (at 0 0 0)
        (effects (font (size 1.27 1.27)) hide)
      )
      (symbol "LED_ALT_0_1"
        (polyline
          (pts
            (xy -1.27 -1.27)
            (xy -1.27 1.27)
          )
          (stroke (width 0.254) (type default))
          (fill (type none))
        )
        (polyline
          (pts
            (xy -1.27 0)
            (xy 1.27 0)
          )
          (stroke (width 0) (type default))
          (fill (type none))
        )
        (polyline
          (pts
            (xy 1.27 -1.27)
            (xy 1.27 1.27)
            (xy -1.27 0)
            (xy 1.27 -1.27)
          )
          (stroke (width 0.254) (type default))
          (fill (type outline))
        )
        (polyline
          (pts
            (xy -3.048 -0.762)
            (xy -4.572 -2.286)
            (xy -3.81 -2.286)
            (xy -4.572 -2.286)
            (xy -4.572 -1.524)
          )
          (stroke (width 0) (type default))
          (fill (type none))
        )
        (polyline
          (pts
            (xy -1.778 -0.762)
            (xy -3.302 -2.286)
            (xy -2.54 -2.286)
            (xy -3.302 -2.286)
            (xy -3.302 -1.524)
          )
          (stroke (width 0) (type default))
          (fill (type none))
        )
      )
      (symbol "LED_ALT_1_1"
        (pin passive line (at -3.81 0 0) (length 2.54)
          (name "K" (effects (font (size 1.27 1.27))))
          (number "1" (effects (font (size 1.27 1.27))))
        )
        (pin passive line (at 3.81 0 180) (length 2.54)
          (name "A" (effects (font (size 1.27 1.27))))
          (number "2" (effects (font (size 1.27 1.27))))
        )
      )
    )
    (symbol "Device:R_Small_US" (pin_numbers hide) (pin_names (offset 0.254) hide) (in_bom yes) (on_board yes)
      (property "Reference" "R" (at 0.762 0.508 0)
        (effects (font (size 1.27 1.27)) (justify left))
      )
      (property "Value" "R_Small_US" (at 0.762 -1.016 0)
        (effects (font (size 1.27 1.27)) (justify left))
      )
      (property "Footprint" "" (at 0 0 0)
        (effects (font (size 1.27 1.27)) hide)
      )
      (property "Datasheet" "~" (at 0 0 0)
        (effects (font (size 1.27 1.27)) hide)
      )
      (property "ki_keywords" "r resistor" (at 0 0 0)
        (effects (font (size 1.27 1.27)) hide)
      )
      (property "ki_description" "Resistor, small US symbol" (at 0 0 0)
        (effects (font (size 1.27 1.27)) hide)
      )
      (property "ki_fp_filters" "R_*" (at 0 0 0)
        (effects (font (size 1.27 1.27)) hide)
      )
      (symbol "R_Small_US_1_1"
        (polyline
          (pts
            (xy 0 0)
            (xy 1.016 -0.381)
            (xy 0 -0.762)
            (xy -1.016 -1.143)
            (xy 0 -1.524)
          )
          (stroke (width 0) (type default))
          (fill (type none))
        )
        (polyline
          (pts
            (xy 0 1.524)
            (xy 1.016 1.143)
            (xy 0 0.762)
            (xy -1.016 0.381)
            (xy 0 0)
          )
          (stroke (width 0) (type default))
          (fill (type none))
        )
        (pin passive line (at 0 2.54 270) (length 1.016)
          (name "~" (effects (font (size 1.27 1.27))))
          (number "1" (effects (font (size 1.27 1.27))))
        )
        (pin passive line (at 0 -2.54 90) (length 1.016)
          (name "~" (effects (font (size 1.27 1.27))))
          (number "2" (effects (font (size 1.27 1.27))))
        )
      )
    )
    (symbol "Graphic:Logo_Open_Hardware_Small" (pin_names (offset 1.016)) (in_bom yes) (on_board yes)
      (property "Reference" "#LOGO" (at 0 6.985 0)
        (effects (font (size 1.27 1.27)) hide)
      )
      (property "Value" "Logo_Open_Hardware_Small" (at 0 -5.715 0)
        (effects (font (size 1.27 1.27)) hide)
      )
      (property "Footprint" "" (at 0 0 0)
        (effects (font (size 1.27 1.27)) hide)
      )
      (property "Datasheet" "~" (at 0 0 0)
        (effects (font (size 1.27 1.27)) hide)
      )
      (property "ki_keywords" "Logo" (at 0 0 0)
        (effects (font (size 1.27 1.27)) hide)
      )
      (property "ki_description" "Open Hardware logo, small" (at 0 0 0)
        (effects (font (size 1.27 1.27)) hide)
      )
      (symbol "Logo_Open_Hardware_Small_0_1"
        (polyline
          (pts
            (xy 3.3528 -4.3434)
            (xy 3.302 -4.318)
            (xy 3.175 -4.2418)
            (xy 2.9972 -4.1148)
            (xy 2.7686 -3.9624)
            (xy 2.54 -3.81)
            (xy 2.3622 -3.7084)
            (xy 2.2352 -3.6068)
            (xy 2.1844 -3.5814)
            (xy 2.159 -3.6068)
            (xy 2.0574 -3.6576)
            (xy 1.905 -3.7338)
            (xy 1.8034 -3.7846)
            (xy 1.6764 -3.8354)
            (xy 1.6002 -3.8354)
            (xy 1.6002 -3.8354)
            (xy 1.5494 -3.7338)
            (xy 1.4732 -3.5306)
            (xy 1.3462 -3.302)
            (xy 1.2446 -3.0226)
            (xy 1.1176 -2.7178)
            (xy 0.9652 -2.413)
            (xy 0.8636 -2.1082)
            (xy 0.7366 -1.8288)
            (xy 0.6604 -1.6256)
            (xy 0.6096 -1.4732)
            (xy 0.5842 -1.397)
            (xy 0.5842 -1.397)
            (xy 0.6604 -1.3208)
            (xy 0.7874 -1.2446)
            (xy 1.0414 -1.016)
            (xy 1.2954 -0.6858)
            (xy 1.4478 -0.3302)
            (xy 1.524 0.0762)
            (xy 1.4732 0.4572)
            (xy 1.3208 0.8128)
            (xy 1.0668 1.143)
            (xy 0.762 1.3716)
            (xy 0.4064 1.524)
            (xy 0 1.5748)
            (xy -0.381 1.5494)
            (xy -0.7366 1.397)
            (xy -1.0668 1.143)
            (xy -1.2192 0.9906)
            (xy -1.397 0.6604)
            (xy -1.524 0.3048)
            (xy -1.524 0.2286)
            (xy -1.4986 -0.1778)
            (xy -1.397 -0.5334)
            (xy -1.1938 -0.8636)
            (xy -0.9144 -1.143)
            (xy -0.8636 -1.1684)
            (xy -0.7366 -1.27)
            (xy -0.635 -1.3462)
            (xy -0.5842 -1.397)
            (xy -1.0668 -2.5908)
            (xy -1.143 -2.794)
            (xy -1.2954 -3.1242)
            (xy -1.397 -3.4036)
            (xy -1.4986 -3.6322)
            (xy -1.5748 -3.7846)
            (xy -1.6002 -3.8354)
            (xy -1.6002 -3.8354)
            (xy -1.651 -3.8354)
            (xy -1.7272 -3.81)
            (xy -1.905 -3.7338)
            (xy -2.0066 -3.683)
            (xy -2.1336 -3.6068)
            (xy -2.2098 -3.5814)
            (xy -2.2606 -3.6068)
            (xy -2.3622 -3.683)
            (xy -2.54 -3.81)
            (xy -2.7686 -3.9624)
            (xy -2.9718 -4.0894)
            (xy -3.1496 -4.2164)
            (xy -3.302 -4.318)
            (xy -3.3528 -4.3434)
            (xy -3.3782 -4.3434)
            (xy -3.429 -4.318)
            (xy -3.5306 -4.2164)
            (xy -3.7084 -4.064)
            (xy -3.937 -3.8354)
            (xy -3.9624 -3.81)
            (xy -4.1656 -3.6068)
            (xy -4.318 -3.4544)
            (xy -4.4196 -3.3274)
            (xy -4.445 -3.2766)
            (xy -4.445 -3.2766)
            (xy -4.4196 -3.2258)
            (xy -4.318 -3.0734)
            (xy -4.2164 -2.8956)
            (xy -4.064 -2.667)
            (xy -3.6576 -2.0828)
            (xy -3.8862 -1.5494)
            (xy -3.937 -1.3716)
            (xy -4.0386 -1.1684)
            (xy -4.0894 -1.0414)
            (xy -4.1148 -0.9652)
            (xy -4.191 -0.9398)
            (xy -4.318 -0.9144)
            (xy -4.5466 -0.8636)
            (xy -4.8006 -0.8128)
            (xy -5.0546 -0.7874)
            (xy -5.2578 -0.7366)
            (xy -5.4356 -0.7112)
            (xy -5.5118 -0.6858)
            (xy -5.5118 -0.6858)
            (xy -5.5372 -0.635)
            (xy -5.5372 -0.5588)
            (xy -5.5372 -0.4318)
            (xy -5.5626 -0.2286)
            (xy -5.5626 0.0762)
            (xy -5.5626 0.127)
            (xy -5.5372 0.4064)
            (xy -5.5372 0.635)
            (xy -5.5372 0.762)
            (xy -5.5372 0.8382)
            (xy -5.5372 0.8382)
            (xy -5.461 0.8382)
            (xy -5.3086 0.889)
            (xy -5.08 0.9144)
            (xy -4.826 0.9652)
            (xy -4.8006 0.9906)
            (xy -4.5466 1.0414)
            (xy -4.318 1.0668)
            (xy -4.1656 1.1176)
            (xy -4.0894 1.143)
            (xy -4.0894 1.143)
            (xy -4.0386 1.2446)
            (xy -3.9624 1.4224)
            (xy -3.8608 1.6256)
            (xy -3.7846 1.8288)
            (xy -3.7084 2.0066)
            (xy -3.6576 2.159)
            (xy -3.6322 2.2098)
            (xy -3.6322 2.2098)
            (xy -3.683 2.286)
            (xy -3.7592 2.413)
            (xy -3.8862 2.5908)
            (xy -4.064 2.8194)
            (xy -4.064 2.8448)
            (xy -4.2164 3.0734)
            (xy -4.3434 3.2512)
            (xy -4.4196 3.3782)
            (xy -4.445 3.4544)
            (xy -4.445 3.4544)
            (xy -4.3942 3.5052)
            (xy -4.2926 3.6322)
            (xy -4.1148 3.81)
            (xy -3.937 4.0132)
            (xy -3.8608 4.064)
            (xy -3.6576 4.2926)
            (xy -3.5052 4.4196)
            (xy -3.4036 4.4958)
            (xy -3.3528 4.5212)
            (xy -3.3528 4.5212)
            (xy -3.302 4.4704)
            (xy -3.1496 4.3688)
            (xy -2.9718 4.2418)
            (xy -2.7432 4.0894)
            (xy -2.7178 4.0894)
            (xy -2.4892 3.937)
            (xy -2.3114 3.81)
            (xy -2.1844 3.7084)
            (xy -2.1336 3.683)
            (xy -2.1082 3.683)
            (xy -2.032 3.7084)
            (xy -1.8542 3.7592)
            (xy -1.6764 3.8354)
            (xy -1.4732 3.937)
            (xy -1.27 4.0132)
            (xy -1.143 4.064)
            (xy -1.0668 4.1148)
            (xy -1.0668 4.1148)
            (xy -1.0414 4.191)
            (xy -1.016 4.3434)
            (xy -0.9652 4.572)
            (xy -0.9144 4.8514)
            (xy -0.889 4.9022)
            (xy -0.8382 5.1562)
            (xy -0.8128 5.3848)
            (xy -0.7874 5.5372)
            (xy -0.762 5.588)
            (xy -0.7112 5.6134)
            (xy -0.5842 5.6134)
            (xy -0.4064 5.6134)
            (xy -0.1524 5.6134)
            (xy 0.0762 5.6134)
            (xy 0.3302 5.6134)
            (xy 0.5334 5.6134)
            (xy 0.6858 5.588)
            (xy 0.7366 5.588)
            (xy 0.7366 5.588)
            (xy 0.762 5.5118)
            (xy 0.8128 5.334)
            (xy 0.8382 5.1054)
            (xy 0.9144 4.826)
            (xy 0.9144 4.7752)
            (xy 0.9652 4.5212)
            (xy 1.016 4.2926)
            (xy 1.0414 4.1402)
            (xy 1.0668 4.0894)
            (xy 1.0668 4.0894)
            (xy 1.1938 4.0386)
            (xy 1.3716 3.9624)
            (xy 1.5748 3.8608)
            (xy 2.0828 3.6576)
            (xy 2.7178 4.0894)
            (xy 2.7686 4.1402)
            (xy 2.9972 4.2926)
            (xy 3.175 4.4196)
            (xy 3.302 4.4958)
            (xy 3.3782 4.5212)
            (xy 3.3782 4.5212)
            (xy 3.429 4.4704)
            (xy 3.556 4.3434)
            (xy 3.7338 4.191)
            (xy 3.9116 3.9878)
            (xy 4.064 3.8354)
            (xy 4.2418 3.6576)
            (xy 4.3434 3.556)
            (xy 4.4196 3.4798)
            (xy 4.4196 3.429)
            (xy 4.4196 3.4036)
            (xy 4.3942 3.3274)
            (xy 4.2926 3.2004)
            (xy 4.1656 2.9972)
            (xy 4.0132 2.794)
            (xy 3.8862 2.5908)
            (xy 3.7592 2.3876)
            (xy 3.6576 2.2352)
            (xy 3.6322 2.159)
            (xy 3.6322 2.1336)
            (xy 3.683 2.0066)
            (xy 3.7592 1.8288)
            (xy 3.8608 1.6002)
            (xy 4.064 1.1176)
            (xy 4.3942 1.0414)
            (xy 4.5974 1.016)
            (xy 4.8768 0.9652)
            (xy 5.1308 0.9144)
            (xy 5.5372 0.8382)
            (xy 5.5626 -0.6604)
            (xy 5.4864 -0.6858)
            (xy 5.4356 -0.6858)
            (xy 5.2832 -0.7366)
            (xy 5.0546 -0.762)
            (xy 4.8006 -0.8128)
            (xy 4.5974 -0.8636)
            (xy 4.3688 -0.9144)
            (xy 4.2164 -0.9398)
            (xy 4.1402 -0.9398)
            (xy 4.1148 -0.9652)
            (xy 4.064 -1.0668)
            (xy 3.9878 -1.2446)
            (xy 3.9116 -1.4478)
            (xy 3.81 -1.651)
            (xy 3.7338 -1.8542)
            (xy 3.683 -2.0066)
            (xy 3.6576 -2.0828)
            (xy 3.683 -2.1336)
            (xy 3.7846 -2.2606)
            (xy 3.8862 -2.4638)
            (xy 4.0386 -2.667)
            (xy 4.191 -2.8956)
            (xy 4.318 -3.0734)
            (xy 4.3942 -3.2004)
            (xy 4.445 -3.2766)
            (xy 4.4196 -3.3274)
            (xy 4.3434 -3.429)
            (xy 4.1656 -3.5814)
            (xy 3.937 -3.8354)
            (xy 3.8862 -3.8608)
            (xy 3.683 -4.064)
            (xy 3.5306 -4.2164)
            (xy 3.4036 -4.318)
            (xy 3.3528 -4.3434)
          )
          (stroke (width 0) (type default))
          (fill (type outline))
        )
      )
    )
    (symbol "Mechanical:MountingHole_Pad" (pin_numbers hide) (pin_names (offset 1.016) hide) (in_bom yes) (on_board yes)
      (property "Reference" "H" (at 0 6.35 0)
        (effects (font (size 1.27 1.27)))
      )
      (property "Value" "MountingHole_Pad" (at 0 4.445 0)
        (effects (font (size 1.27 1.27)))
      )
      (property "Footprint" "" (at 0 0 0)
        (effects (font (size 1.27 1.27)) hide)
      )
      (property "Datasheet" "~" (at 0 0 0)
        (effects (font (size 1.27 1.27)) hide)
      )
      (property "ki_keywords" "mounting hole" (at 0 0 0)
        (effects (font (size 1.27 1.27)) hide)
      )
      (property "ki_description" "Mounting Hole with connection" (at 0 0 0)
        (effects (font (size 1.27 1.27)) hide)
      )
      (property "ki_fp_filters" "MountingHole*Pad*" (at 0 0 0)
        (effects (font (size 1.27 1.27)) hide)
      )
      (symbol "MountingHole_Pad_0_1"
        (circle (center 0 1.27) (radius 1.27)
          (stroke (width 1.27) (type default))
          (fill (type none))
        )
      )
      (symbol "MountingHole_Pad_1_1"
        (pin input line (at 0 -2.54 90) (length 2.54)
          (name "1" (effects (font (size 1.27 1.27))))
          (number "1" (effects (font (size 1.27 1.27))))
        )
      )
    )
    (symbol "Ultrasonic_HAT:AP7315DQ-33W5-7" (pin_names (offset 1.016)) (in_bom yes) (on_board yes)
      (property "Reference" "U" (at -5.08 5.08 0)
        (effects (font (size 1.27 1.27)))
      )
      (property "Value" "AP7315DQ-33W5-7" (at 13.97 -6.35 0)
        (effects (font (size 1.27 1.27)))
      )
      (property "Footprint" "TO_SOT_Packages_SMD:SOT-23-5" (at 20.32 -8.89 0)
        (effects (font (size 1.27 1.27)) hide)
      )
      (property "Datasheet" "" (at 0 0 0)
        (effects (font (size 1.27 1.27)) hide)
      )
      (symbol "AP7315DQ-33W5-7_0_0"
        (pin power_in line (at -8.89 1.27 0) (length 2.54)
          (name "IN" (effects (font (size 1.27 1.27))))
          (number "1" (effects (font (size 1.27 1.27))))
        )
        (pin bidirectional line (at 1.27 -10.16 90) (length 5.08)
          (name "GND" (effects (font (size 1.27 1.27))))
          (number "2" (effects (font (size 1.27 1.27))))
        )
        (pin input line (at -8.89 -2.54 0) (length 2.54)
          (name "EN" (effects (font (size 1.27 1.27))))
          (number "3" (effects (font (size 1.27 1.27))))
        )
        (pin bidirectional line (at -1.27 -10.16 90) (length 5.08)
          (name "NC" (effects (font (size 1.27 1.27))))
          (number "4" (effects (font (size 1.27 1.27))))
        )
        (pin power_out line (at 8.89 1.27 180) (length 2.54)
          (name "OUT" (effects (font (size 1.27 1.27))))
          (number "5" (effects (font (size 1.27 1.27))))
        )
      )
      (symbol "AP7315DQ-33W5-7_0_1"
        (rectangle (start -6.35 3.81) (end 6.35 -5.08)
          (stroke (width 0.1524) (type default))
          (fill (type background))
        )
      )
    )
    (symbol "Ultrasonic_HAT:PCA9614DP,118" (pin_names (offset 0.762)) (in_bom yes) (on_board yes)
      (property "Reference" "IC1" (at -9.525 8.89 0)
        (effects (font (size 1.27 1.27)))
      )
      (property "Value" "PCA9614DP,118" (at -2.54 -9.525 0)
        (effects (font (size 1.27 1.27)))
      )
      (property "Footprint" "Ultrasonic_Hat:SOP50P490X110-10N" (at 13.97 7.62 0)
        (effects (font (size 1.27 1.27)) (justify left) hide)
      )
      (property "Datasheet" "http://www.nxp.com/docs/en/data-sheet/PCA9614.pdf" (at 13.97 5.08 0)
        (effects (font (size 1.27 1.27)) (justify left) hide)
      )
      (property "ki_description" "Interface - Signal Buffers, Repeaters 2-channel multipoint Differential I2C-bus" (at 0 0 0)
        (effects (font (size 1.27 1.27)) hide)
      )
      (symbol "PCA9614DP,118_0_0"
        (pin passive line (at -15.24 5.08 0) (length 5.08)
          (name "VDD(A)" (effects (font (size 1.27 1.27))))
          (number "1" (effects (font (size 1.27 1.27))))
        )
        (pin passive line (at 17.78 5.08 180) (length 5.08)
          (name "VDD(B)" (effects (font (size 1.27 1.27))))
          (number "10" (effects (font (size 1.27 1.27))))
        )
        (pin passive line (at -15.24 -1.27 0) (length 5.08)
          (name "SDA" (effects (font (size 1.27 1.27))))
          (number "2" (effects (font (size 1.27 1.27))))
        )
        (pin passive line (at -15.24 2.54 0) (length 5.08)
          (name "EN" (effects (font (size 1.27 1.27))))
          (number "3" (effects (font (size 1.27 1.27))))
        )
        (pin passive line (at -15.24 -3.81 0) (length 5.08)
          (name "SCL" (effects (font (size 1.27 1.27))))
          (number "4" (effects (font (size 1.27 1.27))))
        )
        (pin passive line (at -15.24 -6.35 0) (length 5.08)
          (name "VSS" (effects (font (size 1.27 1.27))))
          (number "5" (effects (font (size 1.27 1.27))))
        )
        (pin passive line (at 17.78 -5.08 180) (length 5.08)
          (name "DSCLM" (effects (font (size 1.27 1.27))))
          (number "6" (effects (font (size 1.27 1.27))))
        )
        (pin passive line (at 17.78 -2.54 180) (length 5.08)
          (name "DSCLP" (effects (font (size 1.27 1.27))))
          (number "7" (effects (font (size 1.27 1.27))))
        )
        (pin passive line (at 17.78 0 180) (length 5.08)
          (name "DSDAP" (effects (font (size 1.27 1.27))))
          (number "8" (effects (font (size 1.27 1.27))))
        )
        (pin passive line (at 17.78 2.54 180) (length 5.08)
          (name "DSDAM" (effects (font (size 1.27 1.27))))
          (number "9" (effects (font (size 1.27 1.27))))
        )
      )
      (symbol "PCA9614DP,118_0_1"
        (polyline
          (pts
            (xy -10.16 7.62)
            (xy 12.7 7.62)
            (xy 12.7 -7.62)
            (xy -10.16 -7.62)
            (xy -10.16 7.62)
          )
          (stroke (width 0.1524) (type default))
          (fill (type background))
        )
      )
    )
    (symbol "power:+3V3" (power) (pin_names (offset 0)) (in_bom yes) (on_board yes)
      (property "Reference" "#PWR" (at 0 -3.81 0)
        (effects (font (size 1.27 1.27)) hide)
      )
      (property "Value" "+3V3" (at 0 3.556 0)
        (effects (font (size 1.27 1.27)))
      )
      (property "Footprint" "" (at 0 0 0)
        (effects (font (size 1.27 1.27)) hide)
      )
      (property "Datasheet" "" (at 0 0 0)
        (effects (font (size 1.27 1.27)) hide)
      )
      (property "ki_keywords" "power-flag" (at 0 0 0)
        (effects (font (size 1.27 1.27)) hide)
      )
      (property "ki_description" "Power symbol creates a global label with name \"+3V3\"" (at 0 0 0)
        (effects (font (size 1.27 1.27)) hide)
      )
      (symbol "+3V3_0_1"
        (polyline
          (pts
            (xy -0.762 1.27)
            (xy 0 2.54)
          )
          (stroke (width 0) (type default))
          (fill (type none))
        )
        (polyline
          (pts
            (xy 0 0)
            (xy 0 2.54)
          )
          (stroke (width 0) (type default))
          (fill (type none))
        )
        (polyline
          (pts
            (xy 0 2.54)
            (xy 0.762 1.27)
          )
          (stroke (width 0) (type default))
          (fill (type none))
        )
      )
      (symbol "+3V3_1_1"
        (pin power_in line (at 0 0 90) (length 0) hide
          (name "+3V3" (effects (font (size 1.27 1.27))))
          (number "1" (effects (font (size 1.27 1.27))))
        )
      )
    )
    (symbol "power:+5V" (power) (pin_names (offset 0)) (in_bom yes) (on_board yes)
      (property "Reference" "#PWR" (at 0 -3.81 0)
        (effects (font (size 1.27 1.27)) hide)
      )
      (property "Value" "+5V" (at 0 3.556 0)
        (effects (font (size 1.27 1.27)))
      )
      (property "Footprint" "" (at 0 0 0)
        (effects (font (size 1.27 1.27)) hide)
      )
      (property "Datasheet" "" (at 0 0 0)
        (effects (font (size 1.27 1.27)) hide)
      )
      (property "ki_keywords" "power-flag" (at 0 0 0)
        (effects (font (size 1.27 1.27)) hide)
      )
      (property "ki_description" "Power symbol creates a global label with name \"+5V\"" (at 0 0 0)
        (effects (font (size 1.27 1.27)) hide)
      )
      (symbol "+5V_0_1"
        (polyline
          (pts
            (xy -0.762 1.27)
            (xy 0 2.54)
          )
          (stroke (width 0) (type default))
          (fill (type none))
        )
        (polyline
          (pts
            (xy 0 0)
            (xy 0 2.54)
          )
          (stroke (width 0) (type default))
          (fill (type none))
        )
        (polyline
          (pts
            (xy 0 2.54)
            (xy 0.762 1.27)
          )
          (stroke (width 0) (type default))
          (fill (type none))
        )
      )
      (symbol "+5V_1_1"
        (pin power_in line (at 0 0 90) (length 0) hide
          (name "+5V" (effects (font (size 1.27 1.27))))
          (number "1" (effects (font (size 1.27 1.27))))
        )
      )
    )
    (symbol "power:Earth" (power) (pin_names (offset 0)) (in_bom yes) (on_board yes)
      (property "Reference" "#PWR" (at 0 -6.35 0)
        (effects (font (size 1.27 1.27)) hide)
      )
      (property "Value" "Earth" (at 0 -3.81 0)
        (effects (font (size 1.27 1.27)) hide)
      )
      (property "Footprint" "" (at 0 0 0)
        (effects (font (size 1.27 1.27)) hide)
      )
      (property "Datasheet" "~" (at 0 0 0)
        (effects (font (size 1.27 1.27)) hide)
      )
      (property "ki_keywords" "power-flag ground gnd" (at 0 0 0)
        (effects (font (size 1.27 1.27)) hide)
      )
      (property "ki_description" "Power symbol creates a global label with name \"Earth\"" (at 0 0 0)
        (effects (font (size 1.27 1.27)) hide)
      )
      (symbol "Earth_0_1"
        (polyline
          (pts
            (xy -0.635 -1.905)
            (xy 0.635 -1.905)
          )
          (stroke (width 0) (type default))
          (fill (type none))
        )
        (polyline
          (pts
            (xy -0.127 -2.54)
            (xy 0.127 -2.54)
          )
          (stroke (width 0) (type default))
          (fill (type none))
        )
        (polyline
          (pts
            (xy 0 -1.27)
            (xy 0 0)
          )
          (stroke (width 0) (type default))
          (fill (type none))
        )
        (polyline
          (pts
            (xy 1.27 -1.27)
            (xy -1.27 -1.27)
          )
          (stroke (width 0) (type default))
          (fill (type none))
        )
      )
      (symbol "Earth_1_1"
        (pin power_in line (at 0 0 270) (length 0) hide
          (name "Earth" (effects (font (size 1.27 1.27))))
          (number "1" (effects (font (size 1.27 1.27))))
        )
      )
    )
  )

  (junction (at 78.105 87.63) (diameter 0) (color 0 0 0 0)
    (uuid 11e5ad7c-b3cd-4d0a-b629-21b4d9115b6f)
  )
  (junction (at 151.13 66.04) (diameter 0) (color 0 0 0 0)
    (uuid 3b85451a-6e12-45fc-96a1-77360bc18215)
  )
  (junction (at 151.13 62.23) (diameter 0) (color 0 0 0 0)
    (uuid 5662e5d6-bc2a-4462-87fe-107c6d9ab49d)
  )
  (junction (at 139.7 73.66) (diameter 0) (color 0 0 0 0)
    (uuid 76004765-6e34-42e5-bef2-e8d5daedc3a7)
  )
  (junction (at 127.635 62.23) (diameter 0) (color 0 0 0 0)
    (uuid 81918f47-d111-4fbd-b94f-dab2f828be4c)
  )
  (junction (at 173.355 76.2) (diameter 0) (color 0 0 0 0)
    (uuid 89e7c424-2927-41ed-9462-887c20f01298)
  )
  (junction (at 121.92 86.36) (diameter 0) (color 0 0 0 0)
    (uuid 9fb77340-8959-4e08-80d3-d396d0f40578)
  )
  (junction (at 78.105 97.79) (diameter 0) (color 0 0 0 0)
    (uuid b8413942-d6c5-419c-abde-ad0808ce4040)
  )
  (junction (at 106.68 92.71) (diameter 0) (color 0 0 0 0)
    (uuid ba546f3f-9f91-45b7-b7e2-ee37445d0461)
  )
  (junction (at 182.245 77.47) (diameter 0) (color 0 0 0 0)
    (uuid c4d5ae6d-ad32-41a7-bb77-33891f4910d2)
  )
  (junction (at 112.395 95.25) (diameter 0) (color 0 0 0 0)
    (uuid cb529731-ad89-4f50-9cb5-385f3e06ad96)
  )
  (junction (at 102.87 66.04) (diameter 0) (color 0 0 0 0)
    (uuid cb848295-591b-4fc5-a51a-bce8a59b5c70)
  )
  (junction (at 173.355 83.82) (diameter 0) (color 0 0 0 0)
    (uuid e2bca42a-ec74-4cf4-ad33-e5df024b4233)
  )
  (junction (at 182.245 85.09) (diameter 0) (color 0 0 0 0)
    (uuid efbb107e-c155-45b9-a022-6056017c473f)
  )
  (junction (at 105.41 66.04) (diameter 0) (color 0 0 0 0)
    (uuid fade96c7-0c0f-4c4d-a287-8f5d4debf57d)
  )
  (junction (at 100.33 66.04) (diameter 0) (color 0 0 0 0)
    (uuid fd0bfc2c-c242-4c45-a2ce-a3cfcb0ffc5b)
  )

  (wire (pts (xy 106.68 92.71) (xy 123.19 92.71))
    (stroke (width 0) (type default))
    (uuid 005f7bba-a8a9-4e07-ad6d-de2e5146ff30)
  )
  (wire (pts (xy 127.635 62.23) (xy 130.81 62.23))
    (stroke (width 0) (type default))
    (uuid 064b9ab8-0beb-4dbf-ade3-e5bc4486b94b)
  )
  (wire (pts (xy 100.33 66.04) (xy 95.885 66.04))
    (stroke (width 0) (type default))
    (uuid 07eaf204-1b64-40e2-ac14-6483777f6f08)
  )
  (wire (pts (xy 102.87 66.04) (xy 100.33 66.04))
    (stroke (width 0) (type default))
    (uuid 0a21e7d0-6c69-4634-b2b6-f0d0223d8049)
  )
  (wire (pts (xy 109.855 66.04) (xy 105.41 66.04))
    (stroke (width 0) (type default))
    (uuid 0b47a2df-49cd-4668-b0c4-1fbc36b963fe)
  )
  (wire (pts (xy 95.885 66.04) (xy 95.885 64.77))
    (stroke (width 0) (type default))
    (uuid 1e19bf05-b5da-4f98-a090-ff9ce77e27ae)
  )
  (wire (pts (xy 104.14 97.79) (xy 107.315 97.79))
    (stroke (width 0) (type default))
    (uuid 2902cb0a-8f42-4c95-9ea3-5e179bfad9e8)
  )
  (wire (pts (xy 151.13 62.23) (xy 151.13 66.04))
    (stroke (width 0) (type default))
    (uuid 29e940a4-5585-4ada-9128-8f5117fdfd22)
  )
  (wire (pts (xy 100.33 64.77) (xy 100.33 66.04))
    (stroke (width 0) (type default))
    (uuid 2d645c45-f9f6-4fe6-be8a-3c78754dd9d2)
  )
  (wire (pts (xy 102.87 66.04) (xy 105.41 66.04))
    (stroke (width 0) (type default))
    (uuid 2d804580-45d8-4d5b-af99-e9291a298cf1)
  )
  (wire (pts (xy 201.295 80.01) (xy 200.025 80.01))
    (stroke (width 0) (type default))
    (uuid 3088288d-3cfa-4c14-8168-16550ce6caa8)
  )
  (wire (pts (xy 139.7 73.66) (xy 140.97 73.66))
    (stroke (width 0) (type default))
    (uuid 3167853e-d988-452f-8725-12f67a4c957c)
  )
  (wire (pts (xy 123.19 86.36) (xy 121.92 86.36))
    (stroke (width 0) (type default))
    (uuid 3292aeac-3252-4f8c-bd26-e21f54d3d5b1)
  )
  (wire (pts (xy 182.245 92.075) (xy 182.245 90.805))
    (stroke (width 0) (type default))
    (uuid 39cc8ef5-d8dd-44aa-b9d9-32d81db2ef2a)
  )
  (wire (pts (xy 156.21 91.44) (xy 162.56 91.44))
    (stroke (width 0) (type default))
    (uuid 3a0155a8-2358-4768-b398-e7751d6c5ecc)
  )
  (wire (pts (xy 121.92 86.36) (xy 121.92 88.9))
    (stroke (width 0) (type default))
    (uuid 3d91e159-b28f-4016-b781-d485dbd0a7a5)
  )
  (wire (pts (xy 156.21 93.98) (xy 166.37 93.98))
    (stroke (width 0) (type default))
    (uuid 41b33326-48eb-4de1-92a9-8af053ffde51)
  )
  (wire (pts (xy 160.655 88.9) (xy 160.655 76.2))
    (stroke (width 0) (type default))
    (uuid 463ef955-df04-4e3f-a3b0-531d202b4f5e)
  )
  (wire (pts (xy 127.635 62.23) (xy 127.635 59.69))
    (stroke (width 0) (type default))
    (uuid 49cb8972-6f22-4d13-a568-a1f0fbf7c0c8)
  )
  (wire (pts (xy 148.59 62.23) (xy 151.13 62.23))
    (stroke (width 0) (type default))
    (uuid 53279ea3-2f0b-40ec-b25e-0a09cafac841)
  )
  (wire (pts (xy 173.355 83.185) (xy 173.355 83.82))
    (stroke (width 0) (type default))
    (uuid 55278d41-f42d-4e48-a850-2204c21d0135)
  )
  (wire (pts (xy 162.56 83.82) (xy 173.355 83.82))
    (stroke (width 0) (type default))
    (uuid 57213f4c-92e3-4d08-8a8c-4b0179c0d87e)
  )
  (wire (pts (xy 156.21 88.9) (xy 160.655 88.9))
    (stroke (width 0) (type default))
    (uuid 57d2206c-a4ba-4c98-97c6-a583fecd3e2d)
  )
  (wire (pts (xy 201.295 87.63) (xy 200.025 87.63))
    (stroke (width 0) (type default))
    (uuid 5f285648-9d61-4112-a5f7-49852771fb7f)
  )
  (wire (pts (xy 173.355 90.805) (xy 173.355 92.075))
    (stroke (width 0) (type default))
    (uuid 63f8faf9-ce7a-4843-8f70-16e6659d5142)
  )
  (wire (pts (xy 102.87 67.31) (xy 102.87 66.04))
    (stroke (width 0) (type default))
    (uuid 6ab74b71-198a-4d67-b9ed-53d2613a5b5e)
  )
  (wire (pts (xy 173.355 83.82) (xy 173.355 85.725))
    (stroke (width 0) (type default))
    (uuid 6d012fbc-a5e9-4e1f-84d4-e411fd28d128)
  )
  (wire (pts (xy 173.355 76.2) (xy 173.355 78.105))
    (stroke (width 0) (type default))
    (uuid 6f252de8-4e33-4d64-8d6f-88700c27788c)
  )
  (wire (pts (xy 106.68 88.9) (xy 106.68 92.71))
    (stroke (width 0) (type default))
    (uuid 6ffa4a0b-131d-4bfe-aa83-11979c841713)
  )
  (wire (pts (xy 160.655 76.2) (xy 173.355 76.2))
    (stroke (width 0) (type default))
    (uuid 74d268c9-25be-4958-a09c-af7914daec91)
  )
  (wire (pts (xy 78.105 86.36) (xy 78.105 87.63))
    (stroke (width 0) (type default))
    (uuid 764e9b26-4057-4449-8217-56505e0f3401)
  )
  (wire (pts (xy 121.92 88.9) (xy 123.19 88.9))
    (stroke (width 0) (type default))
    (uuid 7ad70d78-f911-4e78-bfa3-eb4384fdc5b5)
  )
  (wire (pts (xy 100.33 87.63) (xy 100.33 85.725))
    (stroke (width 0) (type default))
    (uuid 85ad4ffc-0ea1-43e4-92d8-353fb427e768)
  )
  (wire (pts (xy 78.105 90.17) (xy 78.105 87.63))
    (stroke (width 0) (type default))
    (uuid 9036254a-4409-4c3b-aa32-ac5ac201e1cc)
  )
  (wire (pts (xy 121.92 85.09) (xy 121.92 86.36))
    (stroke (width 0) (type default))
    (uuid 985bbd29-6d41-4ae3-9f3e-e089452a70cf)
  )
  (wire (pts (xy 182.245 77.47) (xy 182.245 75.565))
    (stroke (width 0) (type default))
    (uuid 99cb45f3-8712-48c5-a89d-7f7ff790252c)
  )
  (wire (pts (xy 182.245 83.185) (xy 182.245 85.09))
    (stroke (width 0) (type default))
    (uuid 9ff08661-8e9f-4ada-a725-f016115e7a02)
  )
  (wire (pts (xy 112.395 95.25) (xy 123.19 95.25))
    (stroke (width 0) (type default))
    (uuid abee0a2f-9fba-43ed-bd4f-03e3c80e7647)
  )
  (wire (pts (xy 107.315 102.235) (xy 109.22 102.235))
    (stroke (width 0) (type default))
    (uuid ad88d1c1-a355-41d5-9f44-f354b8bdcfb9)
  )
  (wire (pts (xy 156.21 96.52) (xy 167.64 96.52))
    (stroke (width 0) (type default))
    (uuid ae4b48d1-169e-45bb-b19f-58bcb008b5b3)
  )
  (wire (pts (xy 78.105 87.63) (xy 79.375 87.63))
    (stroke (width 0) (type default))
    (uuid aed52a1c-d78d-4328-9a5b-0dae9cca9894)
  )
  (wire (pts (xy 166.37 93.98) (xy 166.37 77.47))
    (stroke (width 0) (type default))
    (uuid afeb84e1-d938-4e56-83bd-1d5356935b97)
  )
  (wire (pts (xy 166.37 77.47) (xy 182.245 77.47))
    (stroke (width 0) (type default))
    (uuid b01f9676-1c70-4d30-9cab-c3b74551b840)
  )
  (wire (pts (xy 167.64 85.09) (xy 182.245 85.09))
    (stroke (width 0) (type default))
    (uuid b4c08003-7d1e-480f-b89a-36b9dac27931)
  )
  (wire (pts (xy 97.155 95.25) (xy 112.395 95.25))
    (stroke (width 0) (type default))
    (uuid b5084c89-9ef9-4fc9-83c8-88e6bc8e892b)
  )
  (wire (pts (xy 201.295 82.55) (xy 200.025 82.55))
    (stroke (width 0) (type default))
    (uuid b54d57a7-95c9-46b9-bf84-99ca3de4bc2a)
  )
  (wire (pts (xy 173.355 70.485) (xy 173.355 69.215))
    (stroke (width 0) (type default))
    (uuid b7ec94eb-e377-4843-a9d4-6c4661f41afb)
  )
  (wire (pts (xy 182.245 85.09) (xy 182.245 85.725))
    (stroke (width 0) (type default))
    (uuid b8af3bc1-3a02-4fd1-af9a-dcb440758d52)
  )
  (wire (pts (xy 109.855 64.77) (xy 109.855 66.04))
    (stroke (width 0) (type default))
    (uuid bd5b91f6-b8ff-4dfe-8838-df5a4239b202)
  )
  (wire (pts (xy 105.41 64.77) (xy 105.41 66.04))
    (stroke (width 0) (type default))
    (uuid be61f1ea-ef51-46ab-8e39-8bbf9dc2cda7)
  )
  (wire (pts (xy 151.13 66.04) (xy 148.59 66.04))
    (stroke (width 0) (type default))
    (uuid c1cde119-1828-42e3-ba3f-bb14b24a1fe9)
  )
  (wire (pts (xy 138.43 73.66) (xy 139.7 73.66))
    (stroke (width 0) (type default))
    (uuid c343f10f-7158-458c-9d27-44b39b47bd87)
  )
  (wire (pts (xy 107.315 97.79) (xy 107.315 102.235))
    (stroke (width 0) (type default))
    (uuid c36f8251-808c-4f72-8a4b-d0fe3ef6d78f)
  )
  (wire (pts (xy 97.155 87.63) (xy 100.33 87.63))
    (stroke (width 0) (type default))
    (uuid c901e045-695f-4c29-83cc-8cb0a4bb27cf)
  )
  (wire (pts (xy 97.155 97.79) (xy 99.06 97.79))
    (stroke (width 0) (type default))
    (uuid ca75c077-f24e-4105-bb17-e07a86a020b8)
  )
  (wire (pts (xy 79.375 97.79) (xy 78.105 97.79))
    (stroke (width 0) (type default))
    (uuid cb71c3f8-0ed5-4b40-9de3-746f0ee4a205)
  )
  (wire (pts (xy 127.635 62.23) (xy 127.635 63.5))
    (stroke (width 0) (type default))
    (uuid cf2ca2b8-c110-4ac7-9be4-383392984644)
  )
  (wire (pts (xy 182.245 69.215) (xy 182.245 70.485))
    (stroke (width 0) (type default))
    (uuid d063ba46-22f6-4e50-9d5e-95f13fbaf268)
  )
  (wire (pts (xy 78.105 97.79) (xy 78.105 99.06))
    (stroke (width 0) (type default))
    (uuid d326ebbf-79b6-48d2-a6a7-ad8abb56bf3d)
  )
  (wire (pts (xy 167.64 96.52) (xy 167.64 85.09))
    (stroke (width 0) (type default))
    (uuid d3bd7f28-045a-433f-9bed-a7cad9dd77cd)
  )
  (wire (pts (xy 173.355 75.565) (xy 173.355 76.2))
    (stroke (width 0) (type default))
    (uuid d8249d3a-6081-432d-aa74-a584290619e8)
  )
  (wire (pts (xy 182.245 78.105) (xy 182.245 77.47))
    (stroke (width 0) (type default))
    (uuid d9ad94bb-34f0-4f1a-8524-bdaeaee863fb)
  )
  (wire (pts (xy 97.155 92.71) (xy 106.68 92.71))
    (stroke (width 0) (type default))
    (uuid dc672fc4-349f-4386-9438-aaaac984aa5b)
  )
  (wire (pts (xy 201.295 85.09) (xy 200.025 85.09))
    (stroke (width 0) (type default))
    (uuid dd1797cf-5eb4-4a7a-9963-d4ae1d89ae98)
  )
  (wire (pts (xy 112.395 88.9) (xy 112.395 95.25))
    (stroke (width 0) (type default))
    (uuid e443601b-4cd7-4597-8edb-fe734fe053c8)
  )
  (wire (pts (xy 151.13 67.31) (xy 151.13 66.04))
    (stroke (width 0) (type default))
    (uuid e8954351-c94d-4870-9463-71cfee4378c5)
  )
  (wire (pts (xy 162.56 91.44) (xy 162.56 83.82))
    (stroke (width 0) (type default))
    (uuid ed6eac1d-cbe2-4fed-8bae-5f5999b4509d)
  )
  (wire (pts (xy 78.105 97.79) (xy 78.105 95.25))
    (stroke (width 0) (type default))
    (uuid f241e0ee-d3d0-4acb-927b-10754037fbc9)
  )

  (label "DSDA-" (at 162.56 76.2 0) (fields_autoplaced)
    (effects (font (size 1.27 1.27)) (justify left bottom))
    (uuid 0c100e24-d6e9-4165-9e6a-35608d735eda)
  )
  (label "DSDA+" (at 163.83 83.82 0) (fields_autoplaced)
    (effects (font (size 1.27 1.27)) (justify left bottom))
    (uuid 4dadde73-8e76-4cfe-b75e-df86e70b9bf2)
  )
  (label "SCL" (at 115.57 95.25 0) (fields_autoplaced)
    (effects (font (size 1.27 1.27)) (justify left bottom))
    (uuid 5776c7b2-505a-4422-8b44-5d47c379972c)
  )
  (label "DSCL-" (at 174.625 85.09 0) (fields_autoplaced)
    (effects (font (size 1.27 1.27)) (justify left bottom))
    (uuid 71f8263d-ecbe-4680-9fab-3e7606b7c02c)
  )
  (label "SDA" (at 115.57 92.71 0) (fields_autoplaced)
    (effects (font (size 1.27 1.27)) (justify left bottom))
    (uuid 7b4f6d54-7ed6-4901-bb69-20ba0e1e7347)
  )
  (label "DSCL+" (at 174.625 77.47 0) (fields_autoplaced)
    (effects (font (size 1.27 1.27)) (justify left bottom))
    (uuid c9789b4c-cc81-459b-b9d0-f302a21ecbc2)
  )

  (global_label "DSDA-" (shape input) (at 200.025 80.01 180) (fields_autoplaced)
    (effects (font (size 1.27 1.27)) (justify right))
    (uuid 87af81b5-cad9-406d-8283-65af2b602860)
    (property "Intersheetrefs" "${INTERSHEET_REFS}" (at 191.2835 80.01 0)
      (effects (font (size 1.27 1.27)) (justify right) hide)
    )
  )
  (global_label "DSDA+" (shape input) (at 200.025 82.55 180) (fields_autoplaced)
    (effects (font (size 1.27 1.27)) (justify right))
    (uuid ce5a0737-4574-43c4-8820-2d26c3912c9e)
    (property "Intersheetrefs" "${INTERSHEET_REFS}" (at 191.2835 82.55 0)
      (effects (font (size 1.27 1.27)) (justify right) hide)
    )
  )
  (global_label "DSCL-" (shape input) (at 200.025 87.63 180) (fields_autoplaced)
    (effects (font (size 1.27 1.27)) (justify right))
    (uuid f1edfb03-e4be-48d6-8c11-f9cfbb2135de)
    (property "Intersheetrefs" "${INTERSHEET_REFS}" (at 191.344 87.63 0)
      (effects (font (size 1.27 1.27)) (justify right) hide)
    )
  )
  (global_label "DSCL+" (shape input) (at 200.025 85.09 180) (fields_autoplaced)
    (effects (font (size 1.27 1.27)) (justify right))
    (uuid f6f1d552-75bb-4b55-b8a4-e2bf105fbebb)
    (property "Intersheetrefs" "${INTERSHEET_REFS}" (at 191.344 85.09 0)
      (effects (font (size 1.27 1.27)) (justify right) hide)
    )
  )

  (symbol (lib_id "Device:R_Small_US") (at 101.6 97.79 270) (mirror x) (unit 1)
    (in_bom yes) (on_board yes) (dnp no)
    (uuid 00000000-0000-0000-0000-000061389fbc)
    (property "Reference" "R9" (at 100.4316 99.4918 0)
      (effects (font (size 1.27 1.27)) (justify right))
    )
    (property "Value" "330" (at 102.743 99.4918 0)
      (effects (font (size 1.27 1.27)) (justify right))
    )
    (property "Footprint" "Resistor_SMD:R_1206_3216Metric" (at 101.6 97.79 0)
      (effects (font (size 1.27 1.27)) hide)
    )
    (property "Datasheet" "~" (at 101.6 97.79 0)
      (effects (font (size 1.27 1.27)) hide)
    )
    (pin "1" (uuid 735f07ba-61eb-4f07-b6e4-a99cd80fa2aa))
    (pin "2" (uuid 70b9e5ec-29f0-4b00-8cbb-d6417609a139))
    (instances
      (project "DP_Module"
        (path "/e3433533-3c75-4c09-9fd7-b400a02b8643"
          (reference "R9") (unit 1)
        )
      )
    )
  )

  (symbol (lib_id "Device:LED_ALT") (at 113.03 102.235 0) (mirror x) (unit 1)
    (in_bom yes) (on_board yes) (dnp no)
    (uuid 00000000-0000-0000-0000-00006138e8c9)
    (property "Reference" "D1" (at 113.03 99.695 0)
      (effects (font (size 1.27 1.27)))
    )
    (property "Value" "Activity" (at 113.03 104.775 0)
      (effects (font (size 1.27 1.27)))
    )
    (property "Footprint" "LED_THT:LED_D3.0mm" (at 113.03 102.235 0)
      (effects (font (size 1.27 1.27)) hide)
    )
    (property "Datasheet" "~" (at 113.03 102.235 0)
      (effects (font (size 1.27 1.27)) hide)
    )
    (pin "1" (uuid f6e8d3bc-b578-4f5e-a82c-9cddf3ae5f22))
    (pin "2" (uuid fbbb8d7a-bb86-4902-83e0-fe3194503f85))
    (instances
      (project "DP_Module"
        (path "/e3433533-3c75-4c09-9fd7-b400a02b8643"
          (reference "D1") (unit 1)
        )
      )
    )
  )

  (symbol (lib_id "power:+3V3") (at 116.84 102.235 270) (unit 1)
    (in_bom yes) (on_board yes) (dnp no)
    (uuid 00000000-0000-0000-0000-000061391de4)
    (property "Reference" "#PWR019" (at 113.03 102.235 0)
      (effects (font (size 1.27 1.27)) hide)
    )
    (property "Value" "+3V3" (at 121.2342 102.616 0)
      (effects (font (size 1.27 1.27)))
    )
    (property "Footprint" "" (at 116.84 102.235 0)
      (effects (font (size 1.27 1.27)) hide)
    )
    (property "Datasheet" "" (at 116.84 102.235 0)
      (effects (font (size 1.27 1.27)) hide)
    )
    (pin "1" (uuid 42237d9b-11da-49d2-8f27-e3040d881f77))
    (instances
      (project "DP_Module"
        (path "/e3433533-3c75-4c09-9fd7-b400a02b8643"
          (reference "#PWR019") (unit 1)
        )
      )
    )
  )

  (symbol (lib_id "power:Earth") (at 173.355 69.215 180) (unit 1)
    (in_bom yes) (on_board yes) (dnp no)
    (uuid 00000000-0000-0000-0000-000061409e0c)
    (property "Reference" "#PWR0101" (at 173.355 62.865 0)
      (effects (font (size 1.27 1.27)) hide)
    )
    (property "Value" "Earth" (at 173.355 65.405 0)
      (effects (font (size 1.27 1.27)) hide)
    )
    (property "Footprint" "" (at 173.355 69.215 0)
      (effects (font (size 1.27 1.27)) hide)
    )
    (property "Datasheet" "~" (at 173.355 69.215 0)
      (effects (font (size 1.27 1.27)) hide)
    )
    (pin "1" (uuid eeafd089-4721-4e07-b0d2-ef30d1ac6ad4))
    (instances
      (project "DP_Module"
        (path "/e3433533-3c75-4c09-9fd7-b400a02b8643"
          (reference "#PWR0101") (unit 1)
        )
      )
    )
  )

  (symbol (lib_id "power:+5V") (at 173.355 92.075 180) (unit 1)
    (in_bom yes) (on_board yes) (dnp no)
    (uuid 00000000-0000-0000-0000-00006140bc56)
    (property "Reference" "#PWR0102" (at 173.355 88.265 0)
      (effects (font (size 1.27 1.27)) hide)
    )
    (property "Value" "+5V" (at 172.974 96.4692 0)
      (effects (font (size 1.27 1.27)))
    )
    (property "Footprint" "" (at 173.355 92.075 0)
      (effects (font (size 1.27 1.27)) hide)
    )
    (property "Datasheet" "" (at 173.355 92.075 0)
      (effects (font (size 1.27 1.27)) hide)
    )
    (pin "1" (uuid 27b02f3f-f4f6-48a9-a67d-901b8db0fbb1))
    (instances
      (project "DP_Module"
        (path "/e3433533-3c75-4c09-9fd7-b400a02b8643"
          (reference "#PWR0102") (unit 1)
        )
      )
    )
  )

  (symbol (lib_id "Graphic:Logo_Open_Hardware_Small") (at 255.905 179.705 0) (unit 1)
    (in_bom yes) (on_board yes) (dnp no)
    (uuid 00000000-0000-0000-0000-000061463919)
    (property "Reference" "OSH1" (at 255.905 172.72 0)
      (effects (font (size 1.27 1.27)) hide)
    )
    (property "Value" "Open Source Hardware" (at 255.905 185.42 0)
      (effects (font (size 1.27 1.27)))
    )
    (property "Footprint" "Symbol:OSHW-Logo2_9.8x8mm_SilkScreen" (at 255.905 179.705 0)
      (effects (font (size 1.27 1.27)) hide)
    )
    (property "Datasheet" "~" (at 255.905 179.705 0)
      (effects (font (size 1.27 1.27)) hide)
    )
    (instances
      (project "DP_Module"
        (path "/e3433533-3c75-4c09-9fd7-b400a02b8643"
          (reference "OSH1") (unit 1)
        )
      )
    )
  )

  (symbol (lib_id "Connector:Conn_01x06_Female") (at 206.375 82.55 0) (unit 1)
    (in_bom yes) (on_board yes) (dnp no)
    (uuid 00000000-0000-0000-0000-000061465ac0)
    (property "Reference" "J1" (at 205.105 92.075 0)
      (effects (font (size 1.27 1.27)) (justify left))
    )
    (property "Value" "Conn_01x06_Female" (at 207.0862 85.471 0)
      (effects (font (size 1.27 1.27)) (justify left) hide)
    )
    (property "Footprint" "DP_Module:PADs" (at 206.375 82.55 0)
      (effects (font (size 1.27 1.27)) hide)
    )
    (property "Datasheet" "~" (at 206.375 82.55 0)
      (effects (font (size 1.27 1.27)) hide)
    )
    (pin "1" (uuid 4e55112d-6209-478a-b5c6-bcd30752cb5e))
    (pin "2" (uuid f15b2298-e538-452f-b379-b2f3329aae42))
    (pin "3" (uuid b8e35f24-ff22-4284-aa50-5284a26c27ab))
    (pin "4" (uuid 430b9dda-34b1-4119-b6e0-6f0413bcf117))
    (pin "5" (uuid e67990d4-a99a-40f8-a401-0a3eca6cfe96))
    (pin "6" (uuid 74681689-b7a9-42ae-980c-5f12c8a445bb))
    (instances
      (project "DP_Module"
        (path "/e3433533-3c75-4c09-9fd7-b400a02b8643"
          (reference "J1") (unit 1)
        )
      )
    )
  )

  (symbol (lib_id "power:Earth") (at 201.295 90.17 0) (unit 1)
    (in_bom yes) (on_board yes) (dnp no)
    (uuid 00000000-0000-0000-0000-00006146f3e4)
    (property "Reference" "#PWR018" (at 201.295 96.52 0)
      (effects (font (size 1.27 1.27)) hide)
    )
    (property "Value" "Earth" (at 201.295 93.98 0)
      (effects (font (size 1.27 1.27)) hide)
    )
    (property "Footprint" "" (at 201.295 90.17 0)
      (effects (font (size 1.27 1.27)) hide)
    )
    (property "Datasheet" "~" (at 201.295 90.17 0)
      (effects (font (size 1.27 1.27)) hide)
    )
    (pin "1" (uuid d93ddbab-12a1-4cb4-8e58-a6532f9fd541))
    (instances
      (project "DP_Module"
        (path "/e3433533-3c75-4c09-9fd7-b400a02b8643"
          (reference "#PWR018") (unit 1)
        )
      )
    )
  )

  (symbol (lib_id "power:+5V") (at 201.295 77.47 0) (unit 1)
    (in_bom yes) (on_board yes) (dnp no)
    (uuid 00000000-0000-0000-0000-0000614708ed)
    (property "Reference" "#PWR017" (at 201.295 81.28 0)
      (effects (font (size 1.27 1.27)) hide)
    )
    (property "Value" "+5V" (at 201.676 73.0758 0)
      (effects (font (size 1.27 1.27)))
    )
    (property "Footprint" "" (at 201.295 77.47 0)
      (effects (font (size 1.27 1.27)) hide)
    )
    (property "Datasheet" "" (at 201.295 77.47 0)
      (effects (font (size 1.27 1.27)) hide)
    )
    (pin "1" (uuid 839a5a7e-6abb-4108-8f79-d40f50b3ba95))
    (instances
      (project "DP_Module"
        (path "/e3433533-3c75-4c09-9fd7-b400a02b8643"
          (reference "#PWR017") (unit 1)
        )
      )
    )
  )

  (symbol (lib_id "Mechanical:MountingHole_Pad") (at 95.885 62.23 0) (unit 1)
    (in_bom yes) (on_board yes) (dnp no)
    (uuid 00000000-0000-0000-0000-0000616b4259)
    (property "Reference" "H1" (at 95.885 57.15 0)
      (effects (font (size 1.27 1.27)))
    )
    (property "Value" "MountingHole_Pad" (at 95.885 49.53 90)
      (effects (font (size 1.27 1.27)) hide)
    )
    (property "Footprint" "Mounting_Holes:MountingHole_3.2mm_M3_Pad_Via" (at 95.885 62.23 0)
      (effects (font (size 1.27 1.27)) hide)
    )
    (property "Datasheet" "~" (at 95.885 62.23 0)
      (effects (font (size 1.27 1.27)) hide)
    )
    (pin "1" (uuid b8ba0208-17e8-4fe3-a644-416ba6fee04e))
    (instances
      (project "DP_Module"
        (path "/e3433533-3c75-4c09-9fd7-b400a02b8643"
          (reference "H1") (unit 1)
        )
      )
    )
  )

  (symbol (lib_id "Ultrasonic_HAT:AP7315DQ-33W5-7") (at 139.7 63.5 0) (mirror y) (unit 1)
    (in_bom yes) (on_board yes) (dnp no)
    (uuid 00000000-0000-0000-0000-0000616b64fa)
    (property "Reference" "U1" (at 133.985 69.85 0)
      (effects (font (size 1.27 1.27)))
    )
    (property "Value" "AP7315DQ-33W5-7" (at 139.7 58.42 0)
      (effects (font (size 1.27 1.27)))
    )
    (property "Footprint" "Package_TO_SOT_SMD:SOT-23-5" (at 123.19 72.39 0)
      (effects (font (size 1.27 1.27)) hide)
    )
    (property "Datasheet" "" (at 139.7 63.5 0)
      (effects (font (size 1.27 1.27)) hide)
    )
    (pin "1" (uuid d9461d13-f8bc-497b-b540-f733f84103d7))
    (pin "2" (uuid d6c8824a-1f5a-440f-898b-9a097538a296))
    (pin "3" (uuid b0ec9bcd-3391-4955-a5f1-3fb31fe2d37e))
    (pin "4" (uuid 79437dcc-c06e-435f-9854-22188424432c))
    (pin "5" (uuid 52325ad2-3aa0-4ed2-b3b8-7ce56eeab912))
    (instances
      (project "DP_Module"
        (path "/e3433533-3c75-4c09-9fd7-b400a02b8643"
          (reference "U1") (unit 1)
        )
      )
    )
  )

  (symbol (lib_id "Device:C_Small") (at 151.13 69.85 0) (unit 1)
    (in_bom yes) (on_board yes) (dnp no)
    (uuid 00000000-0000-0000-0000-0000616b6a1e)
    (property "Reference" "C2" (at 153.4668 68.6816 0)
      (effects (font (size 1.27 1.27)) (justify left))
    )
    (property "Value" "10uF" (at 153.4668 70.993 0)
      (effects (font (size 1.27 1.27)) (justify left))
    )
    (property "Footprint" "Capacitor_SMD:C_0805_2012Metric" (at 151.13 69.85 0)
      (effects (font (size 1.27 1.27)) hide)
    )
    (property "Datasheet" "~" (at 151.13 69.85 0)
      (effects (font (size 1.27 1.27)) hide)
    )
    (pin "1" (uuid d2f523c6-1be8-4b3d-aa66-8d726a031aa5))
    (pin "2" (uuid b784b098-266b-407f-ac37-a80f300a92bf))
    (instances
      (project "DP_Module"
        (path "/e3433533-3c75-4c09-9fd7-b400a02b8643"
          (reference "C2") (unit 1)
        )
      )
    )
  )

  (symbol (lib_id "Device:R_Small_US") (at 106.68 86.36 0) (mirror x) (unit 1)
    (in_bom yes) (on_board yes) (dnp no)
    (uuid 00000000-0000-0000-0000-0000616b6f13)
    (property "Reference" "R5" (at 104.9528 85.1916 0)
      (effects (font (size 1.27 1.27)) (justify right))
    )
    (property "Value" "1K" (at 104.9528 87.503 0)
      (effects (font (size 1.27 1.27)) (justify right))
    )
    (property "Footprint" "Resistor_SMD:R_1206_3216Metric" (at 106.68 86.36 0)
      (effects (font (size 1.27 1.27)) hide)
    )
    (property "Datasheet" "~" (at 106.68 86.36 0)
      (effects (font (size 1.27 1.27)) hide)
    )
    (pin "1" (uuid ec7b23f8-c58a-4f71-898c-57c8f4b08c18))
    (pin "2" (uuid 83c57f6c-cffa-4878-b6c0-5258044747ea))
    (instances
      (project "DP_Module"
        (path "/e3433533-3c75-4c09-9fd7-b400a02b8643"
          (reference "R5") (unit 1)
        )
      )
    )
  )

  (symbol (lib_id "DP_module:DLHR") (at 88.265 92.71 0) (unit 1)
    (in_bom yes) (on_board yes) (dnp no)
    (uuid 00000000-0000-0000-0000-0000616b7577)
    (property "Reference" "U2" (at 83.82 85.09 0)
      (effects (font (size 1.27 1.27)))
    )
    (property "Value" "DLHR" (at 84.455 100.33 0)
      (effects (font (size 1.27 1.27)))
    )
    (property "Footprint" "DP_Module:DLHR-L02D-E1BD-C-NAV8" (at 88.265 92.71 0)
      (effects (font (size 1.27 1.27)) hide)
    )
    (property "Datasheet" "" (at 88.265 92.71 0)
      (effects (font (size 1.27 1.27)) hide)
    )
    (pin "1" (uuid 0715ee23-130e-42b5-86bc-9283665d1350))
    (pin "2" (uuid fb69d18f-5d2e-4646-b1f9-444e5c1e6888))
    (pin "3" (uuid f704b487-2291-47fe-bdba-4d275833bcdb))
    (pin "4" (uuid 2f7e0016-8ef9-44a8-b4ce-24c46355aa1e))
    (pin "5" (uuid f36375ea-302e-4afc-a81d-9a26475a879f))
    (pin "6" (uuid bc09f5b8-bc0c-4159-a6f9-b40027ff6da2))
    (pin "8" (uuid 8771a447-768a-4da7-90fd-4b0718e47d74))
    (instances
      (project "DP_Module"
        (path "/e3433533-3c75-4c09-9fd7-b400a02b8643"
          (reference "U2") (unit 1)
        )
      )
    )
  )

  (symbol (lib_id "Ultrasonic_HAT:PCA9614DP,118") (at 138.43 91.44 0) (unit 1)
    (in_bom yes) (on_board yes) (dnp no)
    (uuid 00000000-0000-0000-0000-0000616b91ac)
    (property "Reference" "IC1" (at 128.905 82.55 0)
      (effects (font (size 1.27 1.27)))
    )
    (property "Value" "PCA9614DP,118" (at 135.89 100.965 0)
      (effects (font (size 1.27 1.27)))
    )
    (property "Footprint" "Ultrasonic_Hat:SOP50P490X110-10N" (at 152.4 83.82 0)
      (effects (font (size 1.27 1.27)) (justify left) hide)
    )
    (property "Datasheet" "http://www.nxp.com/docs/en/data-sheet/PCA9614.pdf" (at 152.4 86.36 0)
      (effects (font (size 1.27 1.27)) (justify left) hide)
    )
    (pin "1" (uuid bb11bebf-1ed7-49e8-bb84-5808301e55d8))
    (pin "10" (uuid 8221a068-d570-4b73-8b10-e554bf3437d5))
    (pin "2" (uuid 92ca492e-14ea-402a-9467-9bff40b150a2))
    (pin "3" (uuid 27161a9a-d010-4a0c-96cc-8eb16b966fac))
    (pin "4" (uuid ea8fedb0-c871-4a21-bbc3-44883221c9c1))
    (pin "5" (uuid 45d461b7-5ee0-40fe-a577-74fc923f3beb))
    (pin "6" (uuid 0e2e9aae-aee6-45c4-8ebb-cf862991b335))
    (pin "7" (uuid c4da6f29-9df1-4250-bd6a-eaf30d6a0c29))
    (pin "8" (uuid c29452ab-a8a6-4c91-ab12-480d334cda80))
    (pin "9" (uuid 5314dd9a-85b2-4f80-9787-15b7c12739ee))
    (instances
      (project "DP_Module"
        (path "/e3433533-3c75-4c09-9fd7-b400a02b8643"
          (reference "IC1") (unit 1)
        )
      )
    )
  )

  (symbol (lib_id "power:Earth") (at 139.7 73.66 0) (unit 1)
    (in_bom yes) (on_board yes) (dnp no)
    (uuid 00000000-0000-0000-0000-0000616bd057)
    (property "Reference" "#PWR07" (at 139.7 80.01 0)
      (effects (font (size 1.27 1.27)) hide)
    )
    (property "Value" "Earth" (at 139.7 77.47 0)
      (effects (font (size 1.27 1.27)) hide)
    )
    (property "Footprint" "" (at 139.7 73.66 0)
      (effects (font (size 1.27 1.27)) hide)
    )
    (property "Datasheet" "~" (at 139.7 73.66 0)
      (effects (font (size 1.27 1.27)) hide)
    )
    (pin "1" (uuid c1c0faec-45ef-4cd7-af59-f984145d1eda))
    (instances
      (project "DP_Module"
        (path "/e3433533-3c75-4c09-9fd7-b400a02b8643"
          (reference "#PWR07") (unit 1)
        )
      )
    )
  )

  (symbol (lib_id "power:Earth") (at 123.19 97.79 0) (unit 1)
    (in_bom yes) (on_board yes) (dnp no)
    (uuid 00000000-0000-0000-0000-0000616bd9a5)
    (property "Reference" "#PWR015" (at 123.19 104.14 0)
      (effects (font (size 1.27 1.27)) hide)
    )
    (property "Value" "Earth" (at 123.19 101.6 0)
      (effects (font (size 1.27 1.27)) hide)
    )
    (property "Footprint" "" (at 123.19 97.79 0)
      (effects (font (size 1.27 1.27)) hide)
    )
    (property "Datasheet" "~" (at 123.19 97.79 0)
      (effects (font (size 1.27 1.27)) hide)
    )
    (pin "1" (uuid c71b49c7-13c0-4ce4-8cce-da3dec6f6d05))
    (instances
      (project "DP_Module"
        (path "/e3433533-3c75-4c09-9fd7-b400a02b8643"
          (reference "#PWR015") (unit 1)
        )
      )
    )
  )

  (symbol (lib_id "power:+3V3") (at 121.92 85.09 0) (unit 1)
    (in_bom yes) (on_board yes) (dnp no)
    (uuid 00000000-0000-0000-0000-0000616be181)
    (property "Reference" "#PWR011" (at 121.92 88.9 0)
      (effects (font (size 1.27 1.27)) hide)
    )
    (property "Value" "+3V3" (at 122.301 80.6958 0)
      (effects (font (size 1.27 1.27)))
    )
    (property "Footprint" "" (at 121.92 85.09 0)
      (effects (font (size 1.27 1.27)) hide)
    )
    (property "Datasheet" "" (at 121.92 85.09 0)
      (effects (font (size 1.27 1.27)) hide)
    )
    (pin "1" (uuid f6130a08-de36-4d6d-b8cc-dfef4890d083))
    (instances
      (project "DP_Module"
        (path "/e3433533-3c75-4c09-9fd7-b400a02b8643"
          (reference "#PWR011") (unit 1)
        )
      )
    )
  )

  (symbol (lib_id "power:+3V3") (at 127.635 59.69 0) (unit 1)
    (in_bom yes) (on_board yes) (dnp no)
    (uuid 00000000-0000-0000-0000-0000616bef91)
    (property "Reference" "#PWR01" (at 127.635 63.5 0)
      (effects (font (size 1.27 1.27)) hide)
    )
    (property "Value" "+3V3" (at 128.016 55.2958 0)
      (effects (font (size 1.27 1.27)))
    )
    (property "Footprint" "" (at 127.635 59.69 0)
      (effects (font (size 1.27 1.27)) hide)
    )
    (property "Datasheet" "" (at 127.635 59.69 0)
      (effects (font (size 1.27 1.27)) hide)
    )
    (pin "1" (uuid f5039bc4-19b8-4a0a-8b7d-a1f0c32ac6f9))
    (instances
      (project "DP_Module"
        (path "/e3433533-3c75-4c09-9fd7-b400a02b8643"
          (reference "#PWR01") (unit 1)
        )
      )
    )
  )

  (symbol (lib_id "power:+5V") (at 151.13 62.23 0) (unit 1)
    (in_bom yes) (on_board yes) (dnp no)
    (uuid 00000000-0000-0000-0000-0000616bfe37)
    (property "Reference" "#PWR02" (at 151.13 66.04 0)
      (effects (font (size 1.27 1.27)) hide)
    )
    (property "Value" "+5V" (at 151.511 57.8358 0)
      (effects (font (size 1.27 1.27)))
    )
    (property "Footprint" "" (at 151.13 62.23 0)
      (effects (font (size 1.27 1.27)) hide)
    )
    (property "Datasheet" "" (at 151.13 62.23 0)
      (effects (font (size 1.27 1.27)) hide)
    )
    (pin "1" (uuid 85c224be-d524-4a2a-bb2c-726f3dd285d5))
    (instances
      (project "DP_Module"
        (path "/e3433533-3c75-4c09-9fd7-b400a02b8643"
          (reference "#PWR02") (unit 1)
        )
      )
    )
  )

  (symbol (lib_id "power:+5V") (at 156.21 86.36 0) (unit 1)
    (in_bom yes) (on_board yes) (dnp no)
    (uuid 00000000-0000-0000-0000-0000616c11d8)
    (property "Reference" "#PWR013" (at 156.21 90.17 0)
      (effects (font (size 1.27 1.27)) hide)
    )
    (property "Value" "+5V" (at 156.591 81.9658 0)
      (effects (font (size 1.27 1.27)))
    )
    (property "Footprint" "" (at 156.21 86.36 0)
      (effects (font (size 1.27 1.27)) hide)
    )
    (property "Datasheet" "" (at 156.21 86.36 0)
      (effects (font (size 1.27 1.27)) hide)
    )
    (pin "1" (uuid 61405017-aadd-431d-b0d4-c0fe2ccdb5a2))
    (instances
      (project "DP_Module"
        (path "/e3433533-3c75-4c09-9fd7-b400a02b8643"
          (reference "#PWR013") (unit 1)
        )
      )
    )
  )

  (symbol (lib_id "power:Earth") (at 151.13 72.39 0) (unit 1)
    (in_bom yes) (on_board yes) (dnp no)
    (uuid 00000000-0000-0000-0000-0000616c1ff5)
    (property "Reference" "#PWR06" (at 151.13 78.74 0)
      (effects (font (size 1.27 1.27)) hide)
    )
    (property "Value" "Earth" (at 151.13 76.2 0)
      (effects (font (size 1.27 1.27)) hide)
    )
    (property "Footprint" "" (at 151.13 72.39 0)
      (effects (font (size 1.27 1.27)) hide)
    )
    (property "Datasheet" "~" (at 151.13 72.39 0)
      (effects (font (size 1.27 1.27)) hide)
    )
    (pin "1" (uuid 34e17063-8db1-4c18-a4a9-c84c60266193))
    (instances
      (project "DP_Module"
        (path "/e3433533-3c75-4c09-9fd7-b400a02b8643"
          (reference "#PWR06") (unit 1)
        )
      )
    )
  )

  (symbol (lib_id "Device:C_Small") (at 78.105 92.71 0) (mirror x) (unit 1)
    (in_bom yes) (on_board yes) (dnp no)
    (uuid 00000000-0000-0000-0000-0000616c22d3)
    (property "Reference" "C3" (at 75.7682 91.5416 0)
      (effects (font (size 1.27 1.27)) (justify right))
    )
    (property "Value" "100nF" (at 75.7682 93.853 0)
      (effects (font (size 1.27 1.27)) (justify right))
    )
    (property "Footprint" "Capacitor_SMD:C_0805_2012Metric" (at 78.105 92.71 0)
      (effects (font (size 1.27 1.27)) hide)
    )
    (property "Datasheet" "~" (at 78.105 92.71 0)
      (effects (font (size 1.27 1.27)) hide)
    )
    (pin "1" (uuid 7861c557-4919-439e-9949-90874101649b))
    (pin "2" (uuid e5b5dd73-b12b-40e0-af26-495764fc3b27))
    (instances
      (project "DP_Module"
        (path "/e3433533-3c75-4c09-9fd7-b400a02b8643"
          (reference "C3") (unit 1)
        )
      )
    )
  )

  (symbol (lib_id "power:Earth") (at 78.105 99.06 0) (unit 1)
    (in_bom yes) (on_board yes) (dnp no)
    (uuid 00000000-0000-0000-0000-0000616c344f)
    (property "Reference" "#PWR016" (at 78.105 105.41 0)
      (effects (font (size 1.27 1.27)) hide)
    )
    (property "Value" "Earth" (at 78.105 102.87 0)
      (effects (font (size 1.27 1.27)) hide)
    )
    (property "Footprint" "" (at 78.105 99.06 0)
      (effects (font (size 1.27 1.27)) hide)
    )
    (property "Datasheet" "~" (at 78.105 99.06 0)
      (effects (font (size 1.27 1.27)) hide)
    )
    (pin "1" (uuid fdafb118-ea2d-4280-a8eb-1cd596845fa5))
    (instances
      (project "DP_Module"
        (path "/e3433533-3c75-4c09-9fd7-b400a02b8643"
          (reference "#PWR016") (unit 1)
        )
      )
    )
  )

  (symbol (lib_id "power:+3V3") (at 78.105 86.36 0) (unit 1)
    (in_bom yes) (on_board yes) (dnp no)
    (uuid 00000000-0000-0000-0000-0000616c3b1a)
    (property "Reference" "#PWR08" (at 78.105 90.17 0)
      (effects (font (size 1.27 1.27)) hide)
    )
    (property "Value" "+3V3" (at 78.486 81.9658 0)
      (effects (font (size 1.27 1.27)))
    )
    (property "Footprint" "" (at 78.105 86.36 0)
      (effects (font (size 1.27 1.27)) hide)
    )
    (property "Datasheet" "" (at 78.105 86.36 0)
      (effects (font (size 1.27 1.27)) hide)
    )
    (pin "1" (uuid bcffe741-e79d-4c9b-b91c-a2c4852ee081))
    (instances
      (project "DP_Module"
        (path "/e3433533-3c75-4c09-9fd7-b400a02b8643"
          (reference "#PWR08") (unit 1)
        )
      )
    )
  )

  (symbol (lib_id "power:+3V3") (at 100.33 85.725 0) (unit 1)
    (in_bom yes) (on_board yes) (dnp no)
    (uuid 00000000-0000-0000-0000-0000616c4356)
    (property "Reference" "#PWR012" (at 100.33 89.535 0)
      (effects (font (size 1.27 1.27)) hide)
    )
    (property "Value" "+3V3" (at 100.711 81.3308 0)
      (effects (font (size 1.27 1.27)))
    )
    (property "Footprint" "" (at 100.33 85.725 0)
      (effects (font (size 1.27 1.27)) hide)
    )
    (property "Datasheet" "" (at 100.33 85.725 0)
      (effects (font (size 1.27 1.27)) hide)
    )
    (pin "1" (uuid 6cf7a021-6998-424e-8e6e-638d6ece9998))
    (instances
      (project "DP_Module"
        (path "/e3433533-3c75-4c09-9fd7-b400a02b8643"
          (reference "#PWR012") (unit 1)
        )
      )
    )
  )

  (symbol (lib_id "Device:R_Small_US") (at 112.395 86.36 0) (mirror x) (unit 1)
    (in_bom yes) (on_board yes) (dnp no)
    (uuid 00000000-0000-0000-0000-0000616ca0ec)
    (property "Reference" "R6" (at 110.6932 85.1916 0)
      (effects (font (size 1.27 1.27)) (justify right))
    )
    (property "Value" "1k" (at 110.6932 87.503 0)
      (effects (font (size 1.27 1.27)) (justify right))
    )
    (property "Footprint" "Resistor_SMD:R_1206_3216Metric" (at 112.395 86.36 0)
      (effects (font (size 1.27 1.27)) hide)
    )
    (property "Datasheet" "~" (at 112.395 86.36 0)
      (effects (font (size 1.27 1.27)) hide)
    )
    (pin "1" (uuid 648bbfde-4f13-46aa-b46e-8c0e2db5bcdc))
    (pin "2" (uuid 70c07349-a6ed-410a-a0cc-86d43d835779))
    (instances
      (project "DP_Module"
        (path "/e3433533-3c75-4c09-9fd7-b400a02b8643"
          (reference "R6") (unit 1)
        )
      )
    )
  )

  (symbol (lib_id "power:+3V3") (at 112.395 83.82 0) (unit 1)
    (in_bom yes) (on_board yes) (dnp no)
    (uuid 00000000-0000-0000-0000-0000616ca5cb)
    (property "Reference" "#PWR010" (at 112.395 87.63 0)
      (effects (font (size 1.27 1.27)) hide)
    )
    (property "Value" "+3V3" (at 112.776 79.4258 0)
      (effects (font (size 1.27 1.27)))
    )
    (property "Footprint" "" (at 112.395 83.82 0)
      (effects (font (size 1.27 1.27)) hide)
    )
    (property "Datasheet" "" (at 112.395 83.82 0)
      (effects (font (size 1.27 1.27)) hide)
    )
    (pin "1" (uuid 0c05a558-978f-4201-b510-a9b2496d33d5))
    (instances
      (project "DP_Module"
        (path "/e3433533-3c75-4c09-9fd7-b400a02b8643"
          (reference "#PWR010") (unit 1)
        )
      )
    )
  )

  (symbol (lib_id "power:+3V3") (at 106.68 83.82 0) (unit 1)
    (in_bom yes) (on_board yes) (dnp no)
    (uuid 00000000-0000-0000-0000-0000616cb0f0)
    (property "Reference" "#PWR09" (at 106.68 87.63 0)
      (effects (font (size 1.27 1.27)) hide)
    )
    (property "Value" "+3V3" (at 107.061 79.4258 0)
      (effects (font (size 1.27 1.27)))
    )
    (property "Footprint" "" (at 106.68 83.82 0)
      (effects (font (size 1.27 1.27)) hide)
    )
    (property "Datasheet" "" (at 106.68 83.82 0)
      (effects (font (size 1.27 1.27)) hide)
    )
    (pin "1" (uuid 9285293e-f7a3-4e01-ac88-9ebc0c104a54))
    (instances
      (project "DP_Module"
        (path "/e3433533-3c75-4c09-9fd7-b400a02b8643"
          (reference "#PWR09") (unit 1)
        )
      )
    )
  )

  (symbol (lib_id "Device:R_Small_US") (at 173.355 73.025 0) (mirror x) (unit 1)
    (in_bom yes) (on_board yes) (dnp no)
    (uuid 00000000-0000-0000-0000-0000616d09db)
    (property "Reference" "R1" (at 171.6532 71.8566 0)
      (effects (font (size 1.27 1.27)) (justify right))
    )
    (property "Value" "600" (at 171.6532 74.168 0)
      (effects (font (size 1.27 1.27)) (justify right))
    )
    (property "Footprint" "Resistor_SMD:R_1206_3216Metric" (at 173.355 73.025 0)
      (effects (font (size 1.27 1.27)) hide)
    )
    (property "Datasheet" "~" (at 173.355 73.025 0)
      (effects (font (size 1.27 1.27)) hide)
    )
    (pin "1" (uuid def2000c-c902-4365-a4f3-f6cf2f19e89d))
    (pin "2" (uuid c936971a-d18f-430f-b416-5f4c41ba6782))
    (instances
      (project "DP_Module"
        (path "/e3433533-3c75-4c09-9fd7-b400a02b8643"
          (reference "R1") (unit 1)
        )
      )
    )
  )

  (symbol (lib_id "Device:R_Small_US") (at 173.355 80.645 0) (mirror x) (unit 1)
    (in_bom yes) (on_board yes) (dnp no)
    (uuid 00000000-0000-0000-0000-0000616d18c2)
    (property "Reference" "R3" (at 171.6532 79.4766 0)
      (effects (font (size 1.27 1.27)) (justify right))
    )
    (property "Value" "120" (at 171.6532 81.788 0)
      (effects (font (size 1.27 1.27)) (justify right))
    )
    (property "Footprint" "Resistor_SMD:R_1206_3216Metric" (at 173.355 80.645 0)
      (effects (font (size 1.27 1.27)) hide)
    )
    (property "Datasheet" "~" (at 173.355 80.645 0)
      (effects (font (size 1.27 1.27)) hide)
    )
    (pin "1" (uuid fabb5e74-28d5-45d8-b83e-ede4a7ccbac1))
    (pin "2" (uuid 215ca15e-95bd-40ed-a797-c04512629b4b))
    (instances
      (project "DP_Module"
        (path "/e3433533-3c75-4c09-9fd7-b400a02b8643"
          (reference "R3") (unit 1)
        )
      )
    )
  )

  (symbol (lib_id "Device:R_Small_US") (at 173.355 88.265 0) (mirror x) (unit 1)
    (in_bom yes) (on_board yes) (dnp no)
    (uuid 00000000-0000-0000-0000-0000616d1f24)
    (property "Reference" "R7" (at 171.6532 87.0966 0)
      (effects (font (size 1.27 1.27)) (justify right))
    )
    (property "Value" "600" (at 171.6532 89.408 0)
      (effects (font (size 1.27 1.27)) (justify right))
    )
    (property "Footprint" "Resistor_SMD:R_1206_3216Metric" (at 173.355 88.265 0)
      (effects (font (size 1.27 1.27)) hide)
    )
    (property "Datasheet" "~" (at 173.355 88.265 0)
      (effects (font (size 1.27 1.27)) hide)
    )
    (pin "1" (uuid 4e143ebb-0f41-462d-a651-619641ecb449))
    (pin "2" (uuid 6d07a0a0-7113-46ce-acbc-0f81c25d1360))
    (instances
      (project "DP_Module"
        (path "/e3433533-3c75-4c09-9fd7-b400a02b8643"
          (reference "R7") (unit 1)
        )
      )
    )
  )

  (symbol (lib_id "Device:R_Small_US") (at 182.245 73.025 0) (mirror x) (unit 1)
    (in_bom yes) (on_board yes) (dnp no)
    (uuid 00000000-0000-0000-0000-0000616d39c6)
    (property "Reference" "R2" (at 180.5432 71.8566 0)
      (effects (font (size 1.27 1.27)) (justify right))
    )
    (property "Value" "600" (at 180.5432 74.168 0)
      (effects (font (size 1.27 1.27)) (justify right))
    )
    (property "Footprint" "Resistor_SMD:R_1206_3216Metric" (at 182.245 73.025 0)
      (effects (font (size 1.27 1.27)) hide)
    )
    (property "Datasheet" "~" (at 182.245 73.025 0)
      (effects (font (size 1.27 1.27)) hide)
    )
    (pin "1" (uuid 83c165ad-3112-428c-bd1c-66c96dc15a09))
    (pin "2" (uuid 8007f312-2c5f-4179-9d89-d222f4ad4846))
    (instances
      (project "DP_Module"
        (path "/e3433533-3c75-4c09-9fd7-b400a02b8643"
          (reference "R2") (unit 1)
        )
      )
    )
  )

  (symbol (lib_id "Device:R_Small_US") (at 182.245 80.645 0) (mirror x) (unit 1)
    (in_bom yes) (on_board yes) (dnp no)
    (uuid 00000000-0000-0000-0000-0000616d39cc)
    (property "Reference" "R4" (at 180.5432 79.4766 0)
      (effects (font (size 1.27 1.27)) (justify right))
    )
    (property "Value" "120" (at 180.5432 81.788 0)
      (effects (font (size 1.27 1.27)) (justify right))
    )
    (property "Footprint" "Resistor_SMD:R_1206_3216Metric" (at 182.245 80.645 0)
      (effects (font (size 1.27 1.27)) hide)
    )
    (property "Datasheet" "~" (at 182.245 80.645 0)
      (effects (font (size 1.27 1.27)) hide)
    )
    (pin "1" (uuid 88cb291c-e130-4238-8ecf-df58ba47c6ad))
    (pin "2" (uuid 1e624c85-1e9d-4577-a218-3212aed0eda1))
    (instances
      (project "DP_Module"
        (path "/e3433533-3c75-4c09-9fd7-b400a02b8643"
          (reference "R4") (unit 1)
        )
      )
    )
  )

  (symbol (lib_id "Device:R_Small_US") (at 182.245 88.265 0) (mirror x) (unit 1)
    (in_bom yes) (on_board yes) (dnp no)
    (uuid 00000000-0000-0000-0000-0000616d39d2)
    (property "Reference" "R8" (at 180.5432 87.0966 0)
      (effects (font (size 1.27 1.27)) (justify right))
    )
    (property "Value" "600" (at 180.5432 89.408 0)
      (effects (font (size 1.27 1.27)) (justify right))
    )
    (property "Footprint" "Resistor_SMD:R_1206_3216Metric" (at 182.245 88.265 0)
      (effects (font (size 1.27 1.27)) hide)
    )
    (property "Datasheet" "~" (at 182.245 88.265 0)
      (effects (font (size 1.27 1.27)) hide)
    )
    (pin "1" (uuid 147280ac-192e-4d14-9feb-8fc04a2871be))
    (pin "2" (uuid 96712049-77df-4bb7-99e3-3997dad15b18))
    (instances
      (project "DP_Module"
        (path "/e3433533-3c75-4c09-9fd7-b400a02b8643"
          (reference "R8") (unit 1)
        )
      )
    )
  )

  (symbol (lib_id "power:+5V") (at 182.245 69.215 0) (unit 1)
    (in_bom yes) (on_board yes) (dnp no)
    (uuid 00000000-0000-0000-0000-0000616d6550)
    (property "Reference" "#PWR04" (at 182.245 73.025 0)
      (effects (font (size 1.27 1.27)) hide)
    )
    (property "Value" "+5V" (at 182.626 64.8208 0)
      (effects (font (size 1.27 1.27)))
    )
    (property "Footprint" "" (at 182.245 69.215 0)
      (effects (font (size 1.27 1.27)) hide)
    )
    (property "Datasheet" "" (at 182.245 69.215 0)
      (effects (font (size 1.27 1.27)) hide)
    )
    (pin "1" (uuid 132cd136-1759-41c1-8c6c-9d3fe0f460e7))
    (instances
      (project "DP_Module"
        (path "/e3433533-3c75-4c09-9fd7-b400a02b8643"
          (reference "#PWR04") (unit 1)
        )
      )
    )
  )

  (symbol (lib_id "power:Earth") (at 182.245 92.075 0) (unit 1)
    (in_bom yes) (on_board yes) (dnp no)
    (uuid 00000000-0000-0000-0000-0000616d7431)
    (property "Reference" "#PWR014" (at 182.245 98.425 0)
      (effects (font (size 1.27 1.27)) hide)
    )
    (property "Value" "Earth" (at 182.245 95.885 0)
      (effects (font (size 1.27 1.27)) hide)
    )
    (property "Footprint" "" (at 182.245 92.075 0)
      (effects (font (size 1.27 1.27)) hide)
    )
    (property "Datasheet" "~" (at 182.245 92.075 0)
      (effects (font (size 1.27 1.27)) hide)
    )
    (pin "1" (uuid d44f3f12-8657-48e0-a03a-fc5383e739d7))
    (instances
      (project "DP_Module"
        (path "/e3433533-3c75-4c09-9fd7-b400a02b8643"
          (reference "#PWR014") (unit 1)
        )
      )
    )
  )

  (symbol (lib_id "Device:C_Small") (at 127.635 66.04 0) (mirror x) (unit 1)
    (in_bom yes) (on_board yes) (dnp no)
    (uuid 00000000-0000-0000-0000-0000616d834c)
    (property "Reference" "C1" (at 125.2982 64.8716 0)
      (effects (font (size 1.27 1.27)) (justify right))
    )
    (property "Value" "10uF" (at 125.2982 67.183 0)
      (effects (font (size 1.27 1.27)) (justify right))
    )
    (property "Footprint" "Capacitor_SMD:C_0805_2012Metric" (at 127.635 66.04 0)
      (effects (font (size 1.27 1.27)) hide)
    )
    (property "Datasheet" "~" (at 127.635 66.04 0)
      (effects (font (size 1.27 1.27)) hide)
    )
    (pin "1" (uuid 7a78965c-c8ee-4350-8cec-e9c580be0d1e))
    (pin "2" (uuid 0821a91e-fde1-44d5-88cf-a4d34bf8cfc6))
    (instances
      (project "DP_Module"
        (path "/e3433533-3c75-4c09-9fd7-b400a02b8643"
          (reference "C1") (unit 1)
        )
      )
    )
  )

  (symbol (lib_id "power:Earth") (at 127.635 68.58 0) (unit 1)
    (in_bom yes) (on_board yes) (dnp no)
    (uuid 00000000-0000-0000-0000-0000616d9e19)
    (property "Reference" "#PWR05" (at 127.635 74.93 0)
      (effects (font (size 1.27 1.27)) hide)
    )
    (property "Value" "Earth" (at 127.635 72.39 0)
      (effects (font (size 1.27 1.27)) hide)
    )
    (property "Footprint" "" (at 127.635 68.58 0)
      (effects (font (size 1.27 1.27)) hide)
    )
    (property "Datasheet" "~" (at 127.635 68.58 0)
      (effects (font (size 1.27 1.27)) hide)
    )
    (pin "1" (uuid 8b8b239c-fac6-4609-aed2-03f7635b421f))
    (instances
      (project "DP_Module"
        (path "/e3433533-3c75-4c09-9fd7-b400a02b8643"
          (reference "#PWR05") (unit 1)
        )
      )
    )
  )

  (symbol (lib_id "Mechanical:MountingHole_Pad") (at 100.33 62.23 0) (unit 1)
    (in_bom yes) (on_board yes) (dnp no)
    (uuid 00000000-0000-0000-0000-0000616db002)
    (property "Reference" "H2" (at 100.33 57.15 0)
      (effects (font (size 1.27 1.27)))
    )
    (property "Value" "MountingHole_Pad" (at 100.33 49.53 90)
      (effects (font (size 1.27 1.27)) hide)
    )
    (property "Footprint" "Mounting_Holes:MountingHole_3.2mm_M3_Pad_Via" (at 100.33 62.23 0)
      (effects (font (size 1.27 1.27)) hide)
    )
    (property "Datasheet" "~" (at 100.33 62.23 0)
      (effects (font (size 1.27 1.27)) hide)
    )
    (pin "1" (uuid 8cfb6b87-8edf-4d03-883c-9842753852a5))
    (instances
      (project "DP_Module"
        (path "/e3433533-3c75-4c09-9fd7-b400a02b8643"
          (reference "H2") (unit 1)
        )
      )
    )
  )

  (symbol (lib_id "Mechanical:MountingHole_Pad") (at 105.41 62.23 0) (unit 1)
    (in_bom yes) (on_board yes) (dnp no)
    (uuid 00000000-0000-0000-0000-0000616db363)
    (property "Reference" "H3" (at 105.41 57.15 0)
      (effects (font (size 1.27 1.27)))
    )
    (property "Value" "MountingHole_Pad" (at 105.41 49.53 90)
      (effects (font (size 1.27 1.27)) hide)
    )
    (property "Footprint" "Mounting_Holes:MountingHole_3.2mm_M3_Pad_Via" (at 105.41 62.23 0)
      (effects (font (size 1.27 1.27)) hide)
    )
    (property "Datasheet" "~" (at 105.41 62.23 0)
      (effects (font (size 1.27 1.27)) hide)
    )
    (pin "1" (uuid 7881968f-541b-4d5a-b192-62651eca8e81))
    (instances
      (project "DP_Module"
        (path "/e3433533-3c75-4c09-9fd7-b400a02b8643"
          (reference "H3") (unit 1)
        )
      )
    )
  )

  (symbol (lib_id "Mechanical:MountingHole_Pad") (at 109.855 62.23 0) (unit 1)
    (in_bom yes) (on_board yes) (dnp no)
    (uuid 00000000-0000-0000-0000-0000616db70e)
    (property "Reference" "H4" (at 109.855 57.15 0)
      (effects (font (size 1.27 1.27)))
    )
    (property "Value" "MountingHole_Pad" (at 109.855 49.53 90)
      (effects (font (size 1.27 1.27)) hide)
    )
    (property "Footprint" "Mounting_Holes:MountingHole_3.2mm_M3_Pad_Via" (at 109.855 62.23 0)
      (effects (font (size 1.27 1.27)) hide)
    )
    (property "Datasheet" "~" (at 109.855 62.23 0)
      (effects (font (size 1.27 1.27)) hide)
    )
    (pin "1" (uuid 548aa307-f7ac-48fd-84d4-f8ba373d91a5))
    (instances
      (project "DP_Module"
        (path "/e3433533-3c75-4c09-9fd7-b400a02b8643"
          (reference "H4") (unit 1)
        )
      )
    )
  )

  (symbol (lib_id "power:Earth") (at 102.87 67.31 0) (unit 1)
    (in_bom yes) (on_board yes) (dnp no)
    (uuid 00000000-0000-0000-0000-0000616dbf51)
    (property "Reference" "#PWR03" (at 102.87 73.66 0)
      (effects (font (size 1.27 1.27)) hide)
    )
    (property "Value" "Earth" (at 102.87 71.12 0)
      (effects (font (size 1.27 1.27)) hide)
    )
    (property "Footprint" "" (at 102.87 67.31 0)
      (effects (font (size 1.27 1.27)) hide)
    )
    (property "Datasheet" "~" (at 102.87 67.31 0)
      (effects (font (size 1.27 1.27)) hide)
    )
    (pin "1" (uuid 6daea88f-7f96-43bd-b858-e2b3ad81d21a))
    (instances
      (project "DP_Module"
        (path "/e3433533-3c75-4c09-9fd7-b400a02b8643"
          (reference "#PWR03") (unit 1)
        )
      )
    )
  )

  (sheet_instances
    (path "/" (page "1"))
  )
)
