G04 #@! TF.GenerationSoftware,KiCad,Pcbnew,(5.1.10)-1*
G04 #@! TF.CreationDate,2021-10-21T13:01:05+03:00*
G04 #@! TF.ProjectId,HF_Module,48465f4d-6f64-4756-9c65-2e6b69636164,1.0*
G04 #@! TF.SameCoordinates,PX6239c08PY7e531c8*
G04 #@! TF.FileFunction,Profile,NP*
%FSLAX46Y46*%
G04 Gerber Fmt 4.6, Leading zero omitted, Abs format (unit mm)*
G04 Created by KiCad (PCBNEW (5.1.10)-1) date 2021-10-21 13:01:05*
%MOMM*%
%LPD*%
G01*
G04 APERTURE LIST*
G04 #@! TA.AperFunction,Profile*
%ADD10C,0.050800*%
G04 #@! TD*
G04 #@! TA.AperFunction,Profile*
%ADD11C,0.050000*%
G04 #@! TD*
G04 APERTURE END LIST*
D10*
X47625000Y25400000D02*
G75*
G02*
X50800000Y22225000I0J-3175000D01*
G01*
X50800000Y3175000D02*
G75*
G02*
X47625000Y0I-3175000J0D01*
G01*
X3175000Y0D02*
G75*
G02*
X0Y3175000I0J3175000D01*
G01*
X0Y22225000D02*
G75*
G02*
X3175000Y25400000I3175000J0D01*
G01*
D11*
X0Y3175000D02*
X0Y22225000D01*
X47625000Y0D02*
X3175000Y0D01*
X50800000Y22225000D02*
X50800000Y3175000D01*
X3175000Y25400000D02*
X47625000Y25400000D01*
M02*
