(module INDPM5552X200N (layer F.Cu) (tedit 6135B46D)
  (descr IHLP)
  (tags Inductor)
  (attr smd)
  (fp_text reference L** (at 0 0) (layer F.SilkS)
    (effects (font (size 1.27 1.27) (thickness 0.254)))
  )
  (fp_text value INDPM5552X200N (at 0 0) (layer F.SilkS) hide
    (effects (font (size 1.27 1.27) (thickness 0.254)))
  )
  (fp_line (start -2.745 2.59) (end 2.745 2.59) (layer F.SilkS) (width 0.2))
  (fp_line (start 2.745 -2.59) (end -2.745 -2.59) (layer F.SilkS) (width 0.2))
  (fp_line (start -2.745 2.59) (end -2.745 -2.59) (layer F.Fab) (width 0.1))
  (fp_line (start 2.745 2.59) (end -2.745 2.59) (layer F.Fab) (width 0.1))
  (fp_line (start 2.745 -2.59) (end 2.745 2.59) (layer F.Fab) (width 0.1))
  (fp_line (start -2.745 -2.59) (end 2.745 -2.59) (layer F.Fab) (width 0.1))
  (fp_line (start -3.625 2.967) (end -3.625 -2.967) (layer F.CrtYd) (width 0.05))
  (fp_line (start 3.625 2.967) (end -3.625 2.967) (layer F.CrtYd) (width 0.05))
  (fp_line (start 3.625 -2.967) (end 3.625 2.967) (layer F.CrtYd) (width 0.05))
  (fp_line (start -3.625 -2.967) (end 3.625 -2.967) (layer F.CrtYd) (width 0.05))
  (fp_text user %R (at 0 0) (layer F.Fab)
    (effects (font (size 1.27 1.27) (thickness 0.254)))
  )
  (pad 2 smd rect (at 2.35 0) (size 2.05 2.7) (layers F.Cu F.Paste F.Mask))
  (pad 1 smd rect (at -2.35 0) (size 2.05 2.7) (layers F.Cu F.Paste F.Mask))
  (model ${KIPRJMOD}/Libs/STEPs/IHLP2020BZER5R6M11.stp
    (offset (xyz -0.7200000177969045 6.090000061125358 -2.430000030262263))
    (scale (xyz 1 1 1))
    (rotate (xyz -90 0 0))
  )
)
