PCBNEW-LibModule-V1  2021-09-06 05:46:34
# encoding utf-8
Units mm
$INDEX
QFN40P500X500X80-41N
$EndINDEX
$MODULE QFN40P500X500X80-41N
Po 0 0 0 15 61359d2a 00000000 ~~
Li QFN40P500X500X80-41N
Cd TQFN-40
Kw Integrated Circuit
Sc 0
At SMD
AR 
Op 0 0 0
T0 0 0 1.27 1.27 0 0.254 N V 21 N "IC**"
T1 0 0 1.27 1.27 0 0.254 N I 21 N "QFN40P500X500X80-41N"
DS -3.125 -3.125 3.125 -3.125 0.05 24
DS 3.125 -3.125 3.125 3.125 0.05 24
DS 3.125 3.125 -3.125 3.125 0.05 24
DS -3.125 3.125 -3.125 -3.125 0.05 24
DS -2.5 -2.5 2.5 -2.5 0.1 24
DS 2.5 -2.5 2.5 2.5 0.1 24
DS 2.5 2.5 -2.5 2.5 0.1 24
DS -2.5 2.5 -2.5 -2.5 0.1 24
DS -2.5 -2.1 -2.1 -2.5 0.1 24
DC -2.875 -2.4 -2.775 -2.4 0.254 21
$PAD
Po -2.45 -1.8
Sh "1" R 0.2 0.85 0 0 900
At SMD N 00888000
Ne 0 ""
$EndPAD
$PAD
Po -2.45 -1.4
Sh "2" R 0.2 0.85 0 0 900
At SMD N 00888000
Ne 0 ""
$EndPAD
$PAD
Po -2.45 -1
Sh "3" R 0.2 0.85 0 0 900
At SMD N 00888000
Ne 0 ""
$EndPAD
$PAD
Po -2.45 -0.6
Sh "4" R 0.2 0.85 0 0 900
At SMD N 00888000
Ne 0 ""
$EndPAD
$PAD
Po -2.45 -0.2
Sh "5" R 0.2 0.85 0 0 900
At SMD N 00888000
Ne 0 ""
$EndPAD
$PAD
Po -2.45 0.2
Sh "6" R 0.2 0.85 0 0 900
At SMD N 00888000
Ne 0 ""
$EndPAD
$PAD
Po -2.45 0.6
Sh "7" R 0.2 0.85 0 0 900
At SMD N 00888000
Ne 0 ""
$EndPAD
$PAD
Po -2.45 1
Sh "8" R 0.2 0.85 0 0 900
At SMD N 00888000
Ne 0 ""
$EndPAD
$PAD
Po -2.45 1.4
Sh "9" R 0.2 0.85 0 0 900
At SMD N 00888000
Ne 0 ""
$EndPAD
$PAD
Po -2.45 1.8
Sh "10" R 0.2 0.85 0 0 900
At SMD N 00888000
Ne 0 ""
$EndPAD
$PAD
Po -1.8 2.45
Sh "11" R 0.2 0.85 0 0 0
At SMD N 00888000
Ne 0 ""
$EndPAD
$PAD
Po -1.4 2.45
Sh "12" R 0.2 0.85 0 0 0
At SMD N 00888000
Ne 0 ""
$EndPAD
$PAD
Po -1 2.45
Sh "13" R 0.2 0.85 0 0 0
At SMD N 00888000
Ne 0 ""
$EndPAD
$PAD
Po -0.6 2.45
Sh "14" R 0.2 0.85 0 0 0
At SMD N 00888000
Ne 0 ""
$EndPAD
$PAD
Po -0.2 2.45
Sh "15" R 0.2 0.85 0 0 0
At SMD N 00888000
Ne 0 ""
$EndPAD
$PAD
Po 0.2 2.45
Sh "16" R 0.2 0.85 0 0 0
At SMD N 00888000
Ne 0 ""
$EndPAD
$PAD
Po 0.6 2.45
Sh "17" R 0.2 0.85 0 0 0
At SMD N 00888000
Ne 0 ""
$EndPAD
$PAD
Po 1 2.45
Sh "18" R 0.2 0.85 0 0 0
At SMD N 00888000
Ne 0 ""
$EndPAD
$PAD
Po 1.4 2.45
Sh "19" R 0.2 0.85 0 0 0
At SMD N 00888000
Ne 0 ""
$EndPAD
$PAD
Po 1.8 2.45
Sh "20" R 0.2 0.85 0 0 0
At SMD N 00888000
Ne 0 ""
$EndPAD
$PAD
Po 2.45 1.8
Sh "21" R 0.2 0.85 0 0 900
At SMD N 00888000
Ne 0 ""
$EndPAD
$PAD
Po 2.45 1.4
Sh "22" R 0.2 0.85 0 0 900
At SMD N 00888000
Ne 0 ""
$EndPAD
$PAD
Po 2.45 1
Sh "23" R 0.2 0.85 0 0 900
At SMD N 00888000
Ne 0 ""
$EndPAD
$PAD
Po 2.45 0.6
Sh "24" R 0.2 0.85 0 0 900
At SMD N 00888000
Ne 0 ""
$EndPAD
$PAD
Po 2.45 0.2
Sh "25" R 0.2 0.85 0 0 900
At SMD N 00888000
Ne 0 ""
$EndPAD
$PAD
Po 2.45 -0.2
Sh "26" R 0.2 0.85 0 0 900
At SMD N 00888000
Ne 0 ""
$EndPAD
$PAD
Po 2.45 -0.6
Sh "27" R 0.2 0.85 0 0 900
At SMD N 00888000
Ne 0 ""
$EndPAD
$PAD
Po 2.45 -1
Sh "28" R 0.2 0.85 0 0 900
At SMD N 00888000
Ne 0 ""
$EndPAD
$PAD
Po 2.45 -1.4
Sh "29" R 0.2 0.85 0 0 900
At SMD N 00888000
Ne 0 ""
$EndPAD
$PAD
Po 2.45 -1.8
Sh "30" R 0.2 0.85 0 0 900
At SMD N 00888000
Ne 0 ""
$EndPAD
$PAD
Po 1.8 -2.45
Sh "31" R 0.2 0.85 0 0 0
At SMD N 00888000
Ne 0 ""
$EndPAD
$PAD
Po 1.4 -2.45
Sh "32" R 0.2 0.85 0 0 0
At SMD N 00888000
Ne 0 ""
$EndPAD
$PAD
Po 1 -2.45
Sh "33" R 0.2 0.85 0 0 0
At SMD N 00888000
Ne 0 ""
$EndPAD
$PAD
Po 0.6 -2.45
Sh "34" R 0.2 0.85 0 0 0
At SMD N 00888000
Ne 0 ""
$EndPAD
$PAD
Po 0.2 -2.45
Sh "35" R 0.2 0.85 0 0 0
At SMD N 00888000
Ne 0 ""
$EndPAD
$PAD
Po -0.2 -2.45
Sh "36" R 0.2 0.85 0 0 0
At SMD N 00888000
Ne 0 ""
$EndPAD
$PAD
Po -0.6 -2.45
Sh "37" R 0.2 0.85 0 0 0
At SMD N 00888000
Ne 0 ""
$EndPAD
$PAD
Po -1 -2.45
Sh "38" R 0.2 0.85 0 0 0
At SMD N 00888000
Ne 0 ""
$EndPAD
$PAD
Po -1.4 -2.45
Sh "39" R 0.2 0.85 0 0 0
At SMD N 00888000
Ne 0 ""
$EndPAD
$PAD
Po -1.8 -2.45
Sh "40" R 0.2 0.85 0 0 0
At SMD N 00888000
Ne 0 ""
$EndPAD
$PAD
Po 0 0
Sh "41" R 3.6 3.6 0 0 0
At SMD N 00888000
Ne 0 ""
$EndPAD
$EndMODULE QFN40P500X500X80-41N
$EndLIBRARY
