PCBNEW-LibModule-V1  2021-09-06 05:57:52
# encoding utf-8
Units mm
$INDEX
SODFL3616X135N
$EndINDEX
$MODULE SODFL3616X135N
Po 0 0 0 15 61359fd0 00000000 ~~
Li SODFL3616X135N
Cd SOD-123FL(1)
Kw Schottky Diode
Sc 0
At SMD
AR 
Op 0 0 0
T0 0 0 1.27 1.27 0 0.254 N V 21 N "D**"
T1 0 0 1.27 1.27 0 0.254 N I 21 N "SODFL3616X135N"
DS -2.295 -1.1 2.295 -1.1 0.05 24
DS 2.295 -1.1 2.295 1.1 0.05 24
DS 2.295 1.1 -2.295 1.1 0.05 24
DS -2.295 1.1 -2.295 -1.1 0.05 24
DS -1.412 -0.825 1.412 -0.825 0.1 24
DS 1.412 -0.825 1.412 0.825 0.1 24
DS 1.412 0.825 -1.412 0.825 0.1 24
DS -1.412 0.825 -1.412 -0.825 0.1 24
DS -1.412 -0.455 -1.042 -0.825 0.1 24
DS -2.145 -0.825 1.412 -0.825 0.2 21
DS -1.412 0.825 1.412 0.825 0.2 21
$PAD
Po -1.775 0
Sh "1" R 0.74 1.07 0 0 0
At SMD N 00888000
Ne 0 ""
$EndPAD
$PAD
Po 1.775 0
Sh "2" R 0.74 1.07 0 0 0
At SMD N 00888000
Ne 0 ""
$EndPAD
$EndMODULE SODFL3616X135N
$EndLIBRARY
