PCBNEW-LibModule-V1  2021-09-06 06:02:24
# encoding utf-8
Units mm
$INDEX
TSR-2
$EndINDEX
$MODULE TSR-2
Po 0 0 0 15 6135a0e0 00000000 ~~
Li TSR-2
Cd TSR-2
Kw Power Supply
Sc 0
At STD
AR 
Op 0 0 0
T0 6.717 4.007 1.27 1.27 0 0.254 N V 21 N "PS**"
T1 6.717 4.007 1.27 1.27 0 0.254 N I 21 N "TSR-2"
DS 0 0 14 0 0.254 24
DS 14 0 14 7.5 0.254 24
DS 14 7.5 0 7.5 0.254 24
DS 0 7.5 0 0 0.254 24
DS 0 7.5 0 0 0.254 21
DS 0 0 14 0 0.254 21
DS 14 0 14 7.5 0.254 21
DS 14 7.5 0 7.5 0.254 21
DC -0.842 3.896 -0.95536 3.896 0.254 21
$PAD
Po 4.5 3.89
Sh "1" C 1.35 1.35 0 0 900
Dr 0.85 0 0
At STD N 00E0FFFF
Ne 0 ""
$EndPAD
$PAD
Po 7.04 3.89
Sh "2" C 1.35 1.35 0 0 900
Dr 0.85 0 0
At STD N 00E0FFFF
Ne 0 ""
$EndPAD
$PAD
Po 9.58 3.89
Sh "3" C 1.35 1.35 0 0 900
Dr 0.85 0 0
At STD N 00E0FFFF
Ne 0 ""
$EndPAD
$EndMODULE TSR-2
$EndLIBRARY
