EESchema Schematic File Version 4
EELAYER 30 0
EELAYER END
$Descr USLetter 11000 8500
encoding utf-8
Sheet 1 1
Title "HF Module"
Date "2021-10-06"
Rev "1.0"
Comp "Designed by Sam Harry Tzavaras"
Comment1 ""
Comment2 ""
Comment3 ""
Comment4 ""
$EndDescr
$Comp
L Mechanical:MountingHole_Pad H1
U 1 1 616B4259
P 5450 7650
F 0 "H1" H 5450 7850 50  0000 C CNN
F 1 "MountingHole_Pad" V 5450 8150 50  0001 C CNN
F 2 "MountingHole:MountingHole_3.2mm_M3_Pad_Via" H 5450 7650 50  0001 C CNN
F 3 "~" H 5450 7650 50  0001 C CNN
	1    5450 7650
	1    0    0    -1  
$EndComp
$Comp
L Device:C_Small C13
U 1 1 616B6A1E
P 9975 5250
F 0 "C13" V 10075 5175 50  0000 L CNN
F 1 "10uF" V 9875 5175 50  0000 L CNN
F 2 "Capacitor_SMD:C_1206_3216Metric" H 9975 5250 50  0001 C CNN
F 3 "~" H 9975 5250 50  0001 C CNN
	1    9975 5250
	0    1    -1   0   
$EndComp
$Comp
L Device:R_Small_US R22
U 1 1 616B6F13
P 6850 5725
F 0 "R22" H 7000 5650 50  0000 R CNN
F 1 "4.7K" H 7025 5825 50  0000 R CNN
F 2 "Resistor_SMD:R_1206_3216Metric" H 6850 5725 50  0001 C CNN
F 3 "~" H 6850 5725 50  0001 C CNN
	1    6850 5725
	1    0    0    1   
$EndComp
$Comp
L Ultrasonic_HAT:PCA9614DP,118 IC4
U 1 1 616B91AC
P 7925 5925
F 0 "IC4" H 7550 6275 50  0000 C CNN
F 1 "PCA9614DP,118" H 7825 5550 50  0000 C CNN
F 2 "Ultrasonic_Hat:SOP50P490X110-10N" H 8475 6225 50  0001 L CNN
F 3 "http://www.nxp.com/docs/en/data-sheet/PCA9614.pdf" H 8475 6125 50  0001 L CNN
	1    7925 5925
	1    0    0    -1  
$EndComp
$Comp
L power:Earth #PWR036
U 1 1 616BD9A5
P 7300 6200
F 0 "#PWR036" H 7300 5950 50  0001 C CNN
F 1 "Earth" H 7300 6050 50  0001 C CNN
F 2 "" H 7300 6200 50  0001 C CNN
F 3 "~" H 7300 6200 50  0001 C CNN
	1    7300 6200
	1    0    0    -1  
$EndComp
Wire Wire Line
	7275 5300 7275 5350
Wire Wire Line
	7275 5825 7325 5825
Wire Wire Line
	7325 5725 7275 5725
Connection ~ 7275 5725
Wire Wire Line
	7275 5725 7275 5825
$Comp
L power:+5V #PWR026
U 1 1 616C11D8
P 8675 5275
F 0 "#PWR026" H 8675 5125 50  0001 C CNN
F 1 "+5V" H 8690 5448 50  0000 C CNN
F 2 "" H 8675 5275 50  0001 C CNN
F 3 "" H 8675 5275 50  0001 C CNN
	1    8675 5275
	1    0    0    -1  
$EndComp
$Comp
L power:Earth #PWR024
U 1 1 616C1FF5
P 9850 5250
F 0 "#PWR024" H 9850 5000 50  0001 C CNN
F 1 "Earth" H 9850 5100 50  0001 C CNN
F 2 "" H 9850 5250 50  0001 C CNN
F 3 "~" H 9850 5250 50  0001 C CNN
	1    9850 5250
	0    1    -1   0   
$EndComp
$Comp
L Device:C_Small C14
U 1 1 616C22D3
P 7500 5350
F 0 "C14" V 7408 5304 50  0000 R CNN
F 1 "100nF" V 7600 5475 50  0000 R CNN
F 2 "Capacitor_SMD:C_0805_2012Metric" H 7500 5350 50  0001 C CNN
F 3 "~" H 7500 5350 50  0001 C CNN
	1    7500 5350
	0    1    1    0   
$EndComp
$Comp
L power:Earth #PWR028
U 1 1 616C344F
P 7650 5350
F 0 "#PWR028" H 7650 5100 50  0001 C CNN
F 1 "Earth" H 7650 5200 50  0001 C CNN
F 2 "" H 7650 5350 50  0001 C CNN
F 3 "~" H 7650 5350 50  0001 C CNN
	1    7650 5350
	0    -1   1    0   
$EndComp
$Comp
L Device:R_Small_US R23
U 1 1 616CA0EC
P 7075 5725
F 0 "R23" H 7225 5650 50  0000 R CNN
F 1 "4.7K" H 7250 5825 50  0000 R CNN
F 2 "Resistor_SMD:R_1206_3216Metric" H 7075 5725 50  0001 C CNN
F 3 "~" H 7075 5725 50  0001 C CNN
	1    7075 5725
	1    0    0    1   
$EndComp
Wire Wire Line
	6850 5825 6850 5975
Wire Wire Line
	6850 5975 7325 5975
Wire Wire Line
	7075 5825 7075 6075
$Comp
L Device:R_Small_US R15
U 1 1 616D09DB
P 9300 5200
F 0 "R15" H 9233 5154 50  0000 R CNN
F 1 "600" H 9233 5245 50  0000 R CNN
F 2 "Resistor_SMD:R_1206_3216Metric" H 9300 5200 50  0001 C CNN
F 3 "~" H 9300 5200 50  0001 C CNN
	1    9300 5200
	1    0    0    1   
$EndComp
$Comp
L Device:R_Small_US R18
U 1 1 616D18C2
P 9300 5500
F 0 "R18" H 9233 5454 50  0000 R CNN
F 1 "120" H 9233 5545 50  0000 R CNN
F 2 "Resistor_SMD:R_1206_3216Metric" H 9300 5500 50  0001 C CNN
F 3 "~" H 9300 5500 50  0001 C CNN
	1    9300 5500
	1    0    0    1   
$EndComp
$Comp
L Device:R_Small_US R24
U 1 1 616D1F24
P 9300 5800
F 0 "R24" H 9233 5754 50  0000 R CNN
F 1 "600" H 9233 5845 50  0000 R CNN
F 2 "Resistor_SMD:R_1206_3216Metric" H 9300 5800 50  0001 C CNN
F 3 "~" H 9300 5800 50  0001 C CNN
	1    9300 5800
	1    0    0    1   
$EndComp
$Comp
L Device:R_Small_US R16
U 1 1 616D39C6
P 9650 5200
F 0 "R16" H 9583 5154 50  0000 R CNN
F 1 "600" H 9583 5245 50  0000 R CNN
F 2 "Resistor_SMD:R_1206_3216Metric" H 9650 5200 50  0001 C CNN
F 3 "~" H 9650 5200 50  0001 C CNN
	1    9650 5200
	1    0    0    1   
$EndComp
$Comp
L Device:R_Small_US R19
U 1 1 616D39CC
P 9650 5500
F 0 "R19" H 9583 5454 50  0000 R CNN
F 1 "120" H 9583 5545 50  0000 R CNN
F 2 "Resistor_SMD:R_1206_3216Metric" H 9650 5500 50  0001 C CNN
F 3 "~" H 9650 5500 50  0001 C CNN
	1    9650 5500
	1    0    0    1   
$EndComp
$Comp
L Device:R_Small_US R25
U 1 1 616D39D2
P 9650 5800
F 0 "R25" H 9583 5754 50  0000 R CNN
F 1 "600" H 9583 5845 50  0000 R CNN
F 2 "Resistor_SMD:R_1206_3216Metric" H 9650 5800 50  0001 C CNN
F 3 "~" H 9650 5800 50  0001 C CNN
	1    9650 5800
	1    0    0    1   
$EndComp
Wire Wire Line
	9300 5100 9300 5050
Wire Wire Line
	9300 5300 9300 5325
Wire Wire Line
	9300 5600 9300 5625
Wire Wire Line
	9300 5900 9300 5950
Wire Wire Line
	9650 5950 9650 5900
Wire Wire Line
	9650 5600 9650 5675
Wire Wire Line
	9650 5400 9650 5375
$Comp
L power:+5V #PWR020
U 1 1 616D6550
P 9650 5050
F 0 "#PWR020" H 9650 4900 50  0001 C CNN
F 1 "+5V" H 9665 5223 50  0000 C CNN
F 2 "" H 9650 5050 50  0001 C CNN
F 3 "" H 9650 5050 50  0001 C CNN
	1    9650 5050
	1    0    0    -1  
$EndComp
$Comp
L power:Earth #PWR034
U 1 1 616D7431
P 9650 5950
F 0 "#PWR034" H 9650 5700 50  0001 C CNN
F 1 "Earth" H 9650 5800 50  0001 C CNN
F 2 "" H 9650 5950 50  0001 C CNN
F 3 "~" H 9650 5950 50  0001 C CNN
	1    9650 5950
	1    0    0    -1  
$EndComp
$Comp
L Device:C_Small C5
U 1 1 616D834C
P 2550 975
F 0 "C5" H 2458 929 50  0000 R CNN
F 1 "10uF" H 2458 1020 50  0000 R CNN
F 2 "Capacitor_SMD:C_1206_3216Metric" H 2550 975 50  0001 C CNN
F 3 "~" H 2550 975 50  0001 C CNN
	1    2550 975 
	0    1    1    0   
$EndComp
$Comp
L power:Earth #PWR05
U 1 1 616D9E19
P 2650 975
F 0 "#PWR05" H 2650 725 50  0001 C CNN
F 1 "Earth" H 2650 825 50  0001 C CNN
F 2 "" H 2650 975 50  0001 C CNN
F 3 "~" H 2650 975 50  0001 C CNN
	1    2650 975 
	0    -1   1    0   
$EndComp
$Comp
L Mechanical:MountingHole_Pad H2
U 1 1 616DB002
P 5625 7650
F 0 "H2" H 5625 7850 50  0000 C CNN
F 1 "MountingHole_Pad" V 5625 8150 50  0001 C CNN
F 2 "MountingHole:MountingHole_3.2mm_M3_Pad_Via" H 5625 7650 50  0001 C CNN
F 3 "~" H 5625 7650 50  0001 C CNN
	1    5625 7650
	1    0    0    -1  
$EndComp
$Comp
L Mechanical:MountingHole_Pad H3
U 1 1 616DB363
P 5825 7650
F 0 "H3" H 5825 7850 50  0000 C CNN
F 1 "MountingHole_Pad" V 5825 8150 50  0001 C CNN
F 2 "MountingHole:MountingHole_3.2mm_M3_Pad_Via" H 5825 7650 50  0001 C CNN
F 3 "" H 5825 7650 50  0001 C CNN
	1    5825 7650
	1    0    0    -1  
$EndComp
$Comp
L Mechanical:MountingHole_Pad H4
U 1 1 616DB70E
P 6000 7650
F 0 "H4" H 6000 7850 50  0000 C CNN
F 1 "MountingHole_Pad" V 6000 8150 50  0001 C CNN
F 2 "MountingHole:MountingHole_3.2mm_M3_Pad_Via" H 6000 7650 50  0001 C CNN
F 3 "~" H 6000 7650 50  0001 C CNN
	1    6000 7650
	1    0    0    -1  
$EndComp
$Comp
L power:Earth #PWR040
U 1 1 616DBF51
P 5725 7850
F 0 "#PWR040" H 5725 7600 50  0001 C CNN
F 1 "Earth" H 5725 7700 50  0001 C CNN
F 2 "" H 5725 7850 50  0001 C CNN
F 3 "~" H 5725 7850 50  0001 C CNN
	1    5725 7850
	1    0    0    -1  
$EndComp
Wire Wire Line
	5450 7800 5450 7750
Wire Wire Line
	5625 7750 5625 7800
Connection ~ 5625 7800
Wire Wire Line
	5625 7800 5450 7800
Wire Wire Line
	5825 7750 5825 7800
Connection ~ 5825 7800
Wire Wire Line
	6000 7750 6000 7800
Wire Wire Line
	6000 7800 5825 7800
Wire Wire Line
	8625 5825 8800 5825
Wire Wire Line
	8800 5825 8800 5325
Wire Wire Line
	8800 5325 9300 5325
Connection ~ 9300 5325
Wire Wire Line
	9300 5325 9300 5400
Wire Wire Line
	8625 5925 8875 5925
Wire Wire Line
	8875 5925 8875 5625
Wire Wire Line
	8875 5625 9300 5625
Connection ~ 9300 5625
Wire Wire Line
	9300 5625 9300 5700
Wire Wire Line
	8625 6025 9025 6025
Wire Wire Line
	9025 6025 9025 5375
Wire Wire Line
	9025 5375 9650 5375
Connection ~ 9650 5375
Wire Wire Line
	9650 5375 9650 5300
Wire Wire Line
	8625 6125 9075 6125
Wire Wire Line
	9075 6125 9075 5675
Wire Wire Line
	9075 5675 9650 5675
Connection ~ 9650 5675
Wire Wire Line
	9650 5675 9650 5700
Wire Wire Line
	5725 7850 5725 7800
Wire Wire Line
	5725 7800 5625 7800
Wire Wire Line
	5725 7800 5825 7800
Connection ~ 5725 7800
$Comp
L Connector:Conn_01x06_Female J5
U 1 1 61465AC0
P 10350 5525
F 0 "J5" V 10400 5425 50  0000 L CNN
F 1 "Conn_01x06_Female" H 10378 5410 50  0001 L CNN
F 2 "DP_Module:PADs" H 10350 5525 50  0001 C CNN
F 3 "~" H 10350 5525 50  0001 C CNN
	1    10350 5525
	1    0    0    -1  
$EndComp
Text Label 9350 5375 0    50   ~ 0
DSCL+
Text Label 9350 5675 0    50   ~ 0
DSCL-
Text Label 8875 5325 0    50   ~ 0
DSDA-
Text Label 8925 5625 0    50   ~ 0
DSDA+
Wire Wire Line
	10150 5425 10100 5425
Text GLabel 10100 5525 0    50   Input ~ 0
DSDA+
Wire Wire Line
	10150 5525 10100 5525
Wire Wire Line
	10150 5625 10100 5625
Wire Wire Line
	10150 5725 10100 5725
$Comp
L power:Earth #PWR032
U 1 1 6146F3E4
P 10150 5825
F 0 "#PWR032" H 10150 5575 50  0001 C CNN
F 1 "Earth" H 10150 5675 50  0001 C CNN
F 2 "" H 10150 5825 50  0001 C CNN
F 3 "~" H 10150 5825 50  0001 C CNN
	1    10150 5825
	1    0    0    -1  
$EndComp
Text GLabel 10100 5425 0    50   Input ~ 0
DSDA-
Text GLabel 10100 5625 0    50   Input ~ 0
DSCL+
Text GLabel 10100 5725 0    50   Input ~ 0
DSCL-
$Comp
L power:+5V #PWR022
U 1 1 614708ED
P 10125 5175
F 0 "#PWR022" H 10125 5025 50  0001 C CNN
F 1 "+5V" H 10140 5348 50  0000 C CNN
F 2 "" H 10125 5175 50  0001 C CNN
F 3 "" H 10125 5175 50  0001 C CNN
	1    10125 5175
	1    0    0    -1  
$EndComp
$Comp
L power:+5V #PWR021
U 1 1 61391DE4
P 2075 5250
F 0 "#PWR021" H 2075 5100 50  0001 C CNN
F 1 "+5V" H 2090 5423 50  0000 C CNN
F 2 "" H 2075 5250 50  0001 C CNN
F 3 "" H 2075 5250 50  0001 C CNN
	1    2075 5250
	0    1    1    0   
$EndComp
Wire Wire Line
	9650 5050 9650 5100
$Comp
L power:Earth #PWR019
U 1 1 61409E0C
P 9300 5050
F 0 "#PWR019" H 9300 4800 50  0001 C CNN
F 1 "Earth" H 9300 4900 50  0001 C CNN
F 2 "" H 9300 5050 50  0001 C CNN
F 3 "~" H 9300 5050 50  0001 C CNN
	1    9300 5050
	-1   0    0    1   
$EndComp
$Comp
L power:+5V #PWR033
U 1 1 6140BC56
P 9300 5950
F 0 "#PWR033" H 9300 5800 50  0001 C CNN
F 1 "+5V" H 9315 6123 50  0000 C CNN
F 2 "" H 9300 5950 50  0001 C CNN
F 3 "" H 9300 5950 50  0001 C CNN
	1    9300 5950
	-1   0    0    1   
$EndComp
$Comp
L Ultrasonic_HAT:MCP3421A2T-E_CH IC1
U 1 1 615A1ECC
P 3675 1750
F 0 "IC1" H 3900 2050 50  0000 C CNN
F 1 "MCP3421A2T" H 3975 1400 50  0000 C CNN
F 2 "Ultrasonic_Hat:SOT95P270X145-6N" H 3675 1250 50  0001 L CNN
F 3 "http://www.microchip.com/mymicrochip/filehandler.aspx?ddocname=en520102" H 3675 1150 50  0001 L CNN
	1    3675 1750
	-1   0    0    -1  
$EndComp
$Comp
L Device:Opamp_Quad_Generic U1
U 1 1 615A2CA5
P 1300 1225
F 0 "U1" H 1375 1075 50  0000 C CNN
F 1 "AD8508" H 1175 1475 50  0000 C CNN
F 2 "Package_SO:TSSOP-14_4.4x5mm_P0.65mm" H 1300 1225 50  0001 C CNN
F 3 "~" H 1300 1225 50  0001 C CNN
	1    1300 1225
	1    0    0    1   
$EndComp
Wire Wire Line
	7600 5350 7650 5350
$Comp
L power:+5V #PWR027
U 1 1 6159D960
P 7275 5300
F 0 "#PWR027" H 7275 5150 50  0001 C CNN
F 1 "+5V" H 7290 5473 50  0000 C CNN
F 2 "" H 7275 5300 50  0001 C CNN
F 3 "" H 7275 5300 50  0001 C CNN
	1    7275 5300
	1    0    0    -1  
$EndComp
$Comp
L power:+5V #PWR031
U 1 1 615A120C
P 7075 5575
F 0 "#PWR031" H 7075 5425 50  0001 C CNN
F 1 "+5V" H 7090 5748 50  0000 C CNN
F 2 "" H 7075 5575 50  0001 C CNN
F 3 "" H 7075 5575 50  0001 C CNN
	1    7075 5575
	1    0    0    -1  
$EndComp
$Comp
L power:+5V #PWR030
U 1 1 615A17AB
P 6850 5575
F 0 "#PWR030" H 6850 5425 50  0001 C CNN
F 1 "+5V" H 6865 5748 50  0000 C CNN
F 2 "" H 6850 5575 50  0001 C CNN
F 3 "" H 6850 5575 50  0001 C CNN
	1    6850 5575
	1    0    0    -1  
$EndComp
Wire Wire Line
	6850 5575 6850 5625
Wire Wire Line
	7075 5575 7075 5625
$Comp
L Device:Q_NPN_Darlington_BEC Q1
U 1 1 615E7D5F
P 2225 1225
F 0 "Q1" H 2416 1271 50  0000 L CNN
F 1 "BCV27" H 2416 1180 50  0000 L CNN
F 2 "Package_TO_SOT_SMD:SOT-23" H 2425 1325 50  0001 C CNN
F 3 "https://assets.nexperia.com/documents/data-sheet/BCV27.pdf" H 2225 1225 50  0001 C CNN
	1    2225 1225
	1    0    0    -1  
$EndComp
Wire Wire Line
	10150 5325 10125 5325
Wire Wire Line
	10125 5325 10125 5250
Wire Wire Line
	10075 5250 10125 5250
Connection ~ 10125 5250
Wire Wire Line
	10125 5250 10125 5175
Wire Wire Line
	8625 5725 8675 5725
Wire Wire Line
	8675 5725 8675 5350
Wire Wire Line
	7400 5350 7275 5350
Connection ~ 7275 5350
Wire Wire Line
	7275 5350 7275 5725
$Comp
L Device:C_Small C15
U 1 1 6160B290
P 8500 5350
F 0 "C15" V 8408 5304 50  0000 R CNN
F 1 "100nF" V 8600 5475 50  0000 R CNN
F 2 "Capacitor_SMD:C_0805_2012Metric" H 8500 5350 50  0001 C CNN
F 3 "~" H 8500 5350 50  0001 C CNN
	1    8500 5350
	0    1    1    0   
$EndComp
$Comp
L power:Earth #PWR029
U 1 1 6160B296
P 8350 5350
F 0 "#PWR029" H 8350 5100 50  0001 C CNN
F 1 "Earth" H 8350 5200 50  0001 C CNN
F 2 "" H 8350 5350 50  0001 C CNN
F 3 "~" H 8350 5350 50  0001 C CNN
	1    8350 5350
	0    1    -1   0   
$EndComp
Wire Wire Line
	8400 5350 8350 5350
Connection ~ 8675 5350
Wire Wire Line
	8675 5350 8675 5275
Wire Wire Line
	8600 5350 8675 5350
Wire Wire Line
	3775 800  3775 850 
$Comp
L Device:C_Small C3
U 1 1 61616C92
P 4000 850
F 0 "C3" V 3908 804 50  0000 R CNN
F 1 "100nF" V 4100 975 50  0000 R CNN
F 2 "Capacitor_SMD:C_0805_2012Metric" H 4000 850 50  0001 C CNN
F 3 "~" H 4000 850 50  0001 C CNN
	1    4000 850 
	0    1    1    0   
$EndComp
$Comp
L power:Earth #PWR03
U 1 1 61616C98
P 4150 850
F 0 "#PWR03" H 4150 600 50  0001 C CNN
F 1 "Earth" H 4150 700 50  0001 C CNN
F 2 "" H 4150 850 50  0001 C CNN
F 3 "~" H 4150 850 50  0001 C CNN
	1    4150 850 
	0    -1   1    0   
$EndComp
Wire Wire Line
	4100 850  4150 850 
$Comp
L power:+5V #PWR01
U 1 1 61616C9F
P 3775 800
F 0 "#PWR01" H 3775 650 50  0001 C CNN
F 1 "+5V" H 3790 973 50  0000 C CNN
F 2 "" H 3775 800 50  0001 C CNN
F 3 "" H 3775 800 50  0001 C CNN
	1    3775 800 
	1    0    0    -1  
$EndComp
Wire Wire Line
	3900 850  3775 850 
Connection ~ 3775 850 
Wire Wire Line
	3775 850  3775 1125
Wire Wire Line
	4025 1650 4075 1650
Wire Wire Line
	4025 1850 4075 1850
Text GLabel 4075 1650 2    50   Input ~ 0
SDA
Text GLabel 4075 1850 2    50   Input ~ 0
SCL
$Comp
L power:Earth #PWR013
U 1 1 6161FA15
P 3775 2400
F 0 "#PWR013" H 3775 2150 50  0001 C CNN
F 1 "Earth" H 3775 2250 50  0001 C CNN
F 2 "" H 3775 2400 50  0001 C CNN
F 3 "~" H 3775 2400 50  0001 C CNN
	1    3775 2400
	-1   0    0    -1  
$EndComp
Wire Wire Line
	3775 2400 3775 2350
$Comp
L power:Earth #PWR039
U 1 1 6162632C
P 2950 6600
F 0 "#PWR039" H 2950 6350 50  0001 C CNN
F 1 "Earth" H 2950 6450 50  0001 C CNN
F 2 "" H 2950 6600 50  0001 C CNN
F 3 "~" H 2950 6600 50  0001 C CNN
	1    2950 6600
	1    0    0    -1  
$EndComp
Wire Wire Line
	2950 6575 2950 6600
$Comp
L Ultrasonic_HAT:MAX7323AEE+ IC3
U 1 1 6159F84A
P 2950 5875
F 0 "IC3" H 3250 6325 50  0000 C CNN
F 1 "MAX7323AEE+" H 2625 5300 50  0000 C CNN
F 2 "Ultrasonic_Hat:SOP64P602X175-16N" H 3350 6275 50  0001 L CNN
F 3 "http://datasheets.maximintegrated.com/en/ds/MAX7323.pdf" H 3350 6175 50  0001 L CNN
	1    2950 5875
	-1   0    0    -1  
$EndComp
Wire Wire Line
	2900 5275 2900 5225
Wire Wire Line
	2900 5225 3000 5225
Wire Wire Line
	3000 5225 3000 5275
Wire Wire Line
	3000 5175 3000 5225
$Comp
L power:+5V #PWR023
U 1 1 616304DB
P 3000 5175
F 0 "#PWR023" H 3000 5025 50  0001 C CNN
F 1 "+5V" H 3015 5348 50  0000 C CNN
F 2 "" H 3000 5175 50  0001 C CNN
F 3 "" H 3000 5175 50  0001 C CNN
	1    3000 5175
	1    0    0    -1  
$EndComp
Connection ~ 3000 5225
Wire Wire Line
	3500 5675 3550 5675
Wire Wire Line
	3500 5775 3550 5775
Text GLabel 3550 5675 2    50   Input ~ 0
SDA
Text GLabel 3550 5775 2    50   Input ~ 0
SCL
$Comp
L Device:Opamp_Quad_Generic U1
U 3 1 6163F06B
P 9675 2875
F 0 "U1" H 9700 3050 50  0000 C CNN
F 1 "AD8508" H 9700 2675 50  0000 C CNN
F 2 "Package_SO:TSSOP-14_4.4x5mm_P0.65mm" H 9675 2875 50  0001 C CNN
F 3 "~" H 9675 2875 50  0001 C CNN
	3    9675 2875
	1    0    0    -1  
$EndComp
$Comp
L Device:Opamp_Quad_Generic U1
U 5 1 61643691
P 5575 1925
F 0 "U1" V 5375 1925 50  0000 C CNN
F 1 "AD8508" V 5550 1900 50  0000 C CNN
F 2 "Package_SO:TSSOP-14_4.4x5mm_P0.65mm" H 5575 1925 50  0001 C CNN
F 3 "~" H 5575 1925 50  0001 C CNN
	5    5575 1925
	1    0    0    -1  
$EndComp
$Comp
L power:Earth #PWR012
U 1 1 61644982
P 5475 2275
F 0 "#PWR012" H 5475 2025 50  0001 C CNN
F 1 "Earth" H 5475 2125 50  0001 C CNN
F 2 "" H 5475 2275 50  0001 C CNN
F 3 "~" H 5475 2275 50  0001 C CNN
	1    5475 2275
	1    0    0    -1  
$EndComp
Wire Wire Line
	5475 2275 5475 2250
Wire Wire Line
	5475 1575 5475 1600
$Comp
L power:+5V #PWR011
U 1 1 61648EFA
P 5475 1575
F 0 "#PWR011" H 5475 1425 50  0001 C CNN
F 1 "+5V" H 5490 1748 50  0000 C CNN
F 2 "" H 5475 1575 50  0001 C CNN
F 3 "" H 5475 1575 50  0001 C CNN
	1    5475 1575
	1    0    0    -1  
$EndComp
$Comp
L Device:C_Small C9
U 1 1 61648EED
P 5200 1950
F 0 "C9" V 5108 1904 50  0000 R CNN
F 1 "100nF" V 5300 2075 50  0000 R CNN
F 2 "Capacitor_SMD:C_0805_2012Metric" H 5200 1950 50  0001 C CNN
F 3 "~" H 5200 1950 50  0001 C CNN
	1    5200 1950
	-1   0    0    1   
$EndComp
$Comp
L Device:R_Small_US R1
U 1 1 6166E17A
P 1800 1225
F 0 "R1" V 1875 1275 50  0000 R CNN
F 1 "12k" V 1700 1300 50  0000 R CNN
F 2 "Resistor_SMD:R_1206_3216Metric" H 1800 1225 50  0001 C CNN
F 3 "~" H 1800 1225 50  0001 C CNN
	1    1800 1225
	0    -1   -1   0   
$EndComp
Wire Wire Line
	1700 1225 1650 1225
Wire Wire Line
	2325 925  2325 975 
$Comp
L Device:R_Small_US R6
U 1 1 61687F7A
P 2675 1475
F 0 "R6" V 2750 1525 50  0000 R CNN
F 1 "10k" V 2575 1550 50  0000 R CNN
F 2 "Resistor_SMD:R_1206_3216Metric" H 2675 1475 50  0001 C CNN
F 3 "~" H 2675 1475 50  0001 C CNN
	1    2675 1475
	0    -1   -1   0   
$EndComp
$Comp
L Device:R_Small_US R9
U 1 1 616889BA
P 2725 1850
F 0 "R9" V 2800 1900 50  0000 R CNN
F 1 "10k" V 2625 1925 50  0000 R CNN
F 2 "Resistor_SMD:R_1206_3216Metric" H 2725 1850 50  0001 C CNN
F 3 "~" H 2725 1850 50  0001 C CNN
	1    2725 1850
	-1   0    0    1   
$EndComp
$Comp
L power:Earth #PWR015
U 1 1 616892D9
P 2725 2600
F 0 "#PWR015" H 2725 2350 50  0001 C CNN
F 1 "Earth" H 2725 2450 50  0001 C CNN
F 2 "" H 2725 2600 50  0001 C CNN
F 3 "~" H 2725 2600 50  0001 C CNN
	1    2725 2600
	-1   0    0    -1  
$EndComp
Wire Wire Line
	3100 1700 3225 1700
Wire Wire Line
	3225 1800 3100 1800
Wire Wire Line
	2325 1425 2325 1475
Wire Wire Line
	2325 1475 2575 1475
$Comp
L Device:R_Small_US R5
U 1 1 616A1095
P 1625 1475
F 0 "R5" V 1700 1525 50  0000 R CNN
F 1 "10K" V 1525 1550 50  0000 R CNN
F 2 "Resistor_SMD:R_1206_3216Metric" H 1625 1475 50  0001 C CNN
F 3 "~" H 1625 1475 50  0001 C CNN
	1    1625 1475
	0    -1   -1   0   
$EndComp
Wire Wire Line
	1900 1225 2025 1225
Wire Wire Line
	2325 1900 2325 1475
Connection ~ 2325 1475
$Comp
L power:+5V #PWR09
U 1 1 616C0C78
P 1450 1475
F 0 "#PWR09" H 1450 1325 50  0001 C CNN
F 1 "+5V" V 1375 1550 50  0000 C CNN
F 2 "" H 1450 1475 50  0001 C CNN
F 3 "" H 1450 1475 50  0001 C CNN
	1    1450 1475
	0    -1   1    0   
$EndComp
$Comp
L Ultrasonic_HAT:Conn_01x01_Female J3
U 1 1 616CE5D0
P 1850 2875
F 0 "J3" H 1878 2901 50  0000 L CNN
F 1 "IN_Flow" H 1878 2810 50  0000 L CNN
F 2 "HF_Module:PADs" H 1900 2625 50  0001 C CNN
F 3 "~" H 1850 2875 50  0001 C CNN
	1    1850 2875
	0    1    1    0   
$EndComp
Wire Wire Line
	2325 975  2450 975 
Connection ~ 2325 975 
Wire Wire Line
	2325 975  2325 1025
Wire Wire Line
	2230 1475 2325 1475
Connection ~ 1850 1475
Wire Wire Line
	1850 1475 1970 1475
$Comp
L HF_Module:Jumber_pads J1
U 1 1 616ED726
P 2100 1475
F 0 "J1" H 2100 1400 50  0000 C CNN
F 1 "Jumber_pads" H 2100 1609 50  0001 C CNN
F 2 "HF_Module:Jumber_pads" H 2100 1475 50  0001 C CNN
F 3 "" H 2100 1475 50  0001 C CNN
	1    2100 1475
	1    0    0    -1  
$EndComp
$Comp
L Device:R_POT_US RV2
U 1 1 615C1CD4
P 1850 1825
F 0 "RV2" H 1782 1871 50  0000 R CNN
F 1 "10k" H 1782 1780 50  0000 R CNN
F 2 "Ultrasonic_Hat:3223W" H 1850 1825 50  0001 C CNN
F 3 "https://eu.mouser.com/datasheet/2/54/3223-776892.pdf" H 1850 1825 50  0001 C CNN
	1    1850 1825
	-1   0    0    -1  
$EndComp
Wire Wire Line
	1850 1675 1850 1650
Wire Wire Line
	1700 1825 1650 1825
Wire Wire Line
	1650 1825 1650 1650
Wire Wire Line
	1650 1650 1850 1650
Connection ~ 1850 1650
$Comp
L Device:R_Small_US R13
U 1 1 615D5913
P 1850 2125
F 0 "R13" V 1925 2175 50  0000 R CNN
F 1 "4.7K" V 1750 2200 50  0000 R CNN
F 2 "Resistor_SMD:R_1206_3216Metric" H 1850 2125 50  0001 C CNN
F 3 "~" H 1850 2125 50  0001 C CNN
	1    1850 2125
	-1   0    0    1   
$EndComp
Wire Wire Line
	1850 2025 1850 1975
$Comp
L Ultrasonic_HAT:Conn_01x01_Female J3
U 3 1 615FAE7B
P 2325 2875
F 0 "J3" H 2353 2901 50  0000 L CNN
F 1 "IN_Flow" H 2353 2810 50  0000 L CNN
F 2 "HF_Module:PADs" H 2375 2625 50  0001 C CNN
F 3 "~" H 2325 2875 50  0001 C CNN
	3    2325 2875
	0    1    1    0   
$EndComp
$Comp
L Device:R_Small_US R11
U 1 1 616A04C6
P 2325 2000
F 0 "R11" V 2400 2050 50  0000 R CNN
F 1 "120" V 2225 2075 50  0000 R CNN
F 2 "Resistor_SMD:R_1206_3216Metric" H 2325 2000 50  0001 C CNN
F 3 "~" H 2325 2000 50  0001 C CNN
	1    2325 2000
	-1   0    0    1   
$EndComp
$Comp
L Ultrasonic_HAT:Conn_01x01_Female J3
U 2 1 6160B6F2
P 2050 2875
F 0 "J3" H 2078 2901 50  0000 L CNN
F 1 "IN_Flow" H 2078 2810 50  0000 L CNN
F 2 "HF_Module:PADs" H 2100 2625 50  0001 C CNN
F 3 "~" H 2050 2875 50  0001 C CNN
	2    2050 2875
	0    1    1    0   
$EndComp
$Comp
L Ultrasonic_HAT:Conn_01x01_Female J3
U 4 1 6160DC79
P 2525 2875
F 0 "J3" H 2553 2901 50  0000 L CNN
F 1 "IN_Flow" H 2553 2810 50  0000 L CNN
F 2 "HF_Module:PADs" H 2575 2625 50  0001 C CNN
F 3 "~" H 2525 2875 50  0001 C CNN
	4    2525 2875
	0    1    1    0   
$EndComp
Wire Wire Line
	2050 2675 2050 2550
Wire Wire Line
	2050 2550 2525 2550
Connection ~ 2725 2550
Wire Wire Line
	2725 2550 2725 2600
Wire Wire Line
	2525 2675 2525 2550
Connection ~ 2525 2550
Wire Wire Line
	2525 2550 2725 2550
Wire Wire Line
	675  1125 1000 1125
Wire Wire Line
	1000 1325 850  1325
Wire Wire Line
	850  1325 850  2450
$Comp
L Device:C_Small C6
U 1 1 6167EE7B
P 8600 975
F 0 "C6" H 8508 929 50  0000 R CNN
F 1 "10uF" H 8508 1020 50  0000 R CNN
F 2 "Capacitor_SMD:C_1206_3216Metric" H 8600 975 50  0001 C CNN
F 3 "~" H 8600 975 50  0001 C CNN
	1    8600 975 
	0    1    1    0   
$EndComp
$Comp
L power:Earth #PWR06
U 1 1 6167EE81
P 8700 975
F 0 "#PWR06" H 8700 725 50  0001 C CNN
F 1 "Earth" H 8700 825 50  0001 C CNN
F 2 "" H 8700 975 50  0001 C CNN
F 3 "~" H 8700 975 50  0001 C CNN
	1    8700 975 
	0    -1   1    0   
$EndComp
$Comp
L Ultrasonic_HAT:MCP3421A2T-E_CH IC2
U 1 1 6167EE87
P 9725 1750
F 0 "IC2" H 9950 2050 50  0000 C CNN
F 1 "MCP3421A3T" H 10025 1400 50  0000 C CNN
F 2 "Ultrasonic_Hat:SOT95P270X145-6N" H 9725 1250 50  0001 L CNN
F 3 "http://www.microchip.com/mymicrochip/filehandler.aspx?ddocname=en520102" H 9725 1150 50  0001 L CNN
	1    9725 1750
	-1   0    0    -1  
$EndComp
$Comp
L Device:Opamp_Quad_Generic U1
U 4 1 6167EE8D
P 7350 1225
F 0 "U1" H 7350 1025 50  0000 C CNN
F 1 "AD8508" H 7175 1500 50  0000 C CNN
F 2 "Package_SO:TSSOP-14_4.4x5mm_P0.65mm" H 7350 1225 50  0001 C CNN
F 3 "~" H 7350 1225 50  0001 C CNN
	4    7350 1225
	1    0    0    1   
$EndComp
$Comp
L Device:Q_NPN_Darlington_BEC Q2
U 1 1 6167EE93
P 8275 1225
F 0 "Q2" H 8466 1271 50  0000 L CNN
F 1 "BCV27" H 8466 1180 50  0000 L CNN
F 2 "Package_TO_SOT_SMD:SOT-23" H 8475 1325 50  0001 C CNN
F 3 "https://assets.nexperia.com/documents/data-sheet/BCV27.pdf" H 8275 1225 50  0001 C CNN
	1    8275 1225
	1    0    0    -1  
$EndComp
Wire Wire Line
	10075 1650 10125 1650
Wire Wire Line
	10075 1850 10125 1850
Text GLabel 10125 1650 2    50   Input ~ 0
SDA
Text GLabel 10125 1850 2    50   Input ~ 0
SCL
$Comp
L power:Earth #PWR014
U 1 1 6167EEB4
P 9825 2400
F 0 "#PWR014" H 9825 2150 50  0001 C CNN
F 1 "Earth" H 9825 2250 50  0001 C CNN
F 2 "" H 9825 2400 50  0001 C CNN
F 3 "~" H 9825 2400 50  0001 C CNN
	1    9825 2400
	-1   0    0    -1  
$EndComp
Wire Wire Line
	9825 2400 9825 2350
$Comp
L Device:R_Small_US R2
U 1 1 6167EEBB
P 7850 1225
F 0 "R2" V 7925 1275 50  0000 R CNN
F 1 "12k" V 7750 1300 50  0000 R CNN
F 2 "Resistor_SMD:R_1206_3216Metric" H 7850 1225 50  0001 C CNN
F 3 "~" H 7850 1225 50  0001 C CNN
	1    7850 1225
	0    -1   -1   0   
$EndComp
Wire Wire Line
	7750 1225 7675 1225
Wire Wire Line
	8375 925  8375 975 
$Comp
L Device:R_Small_US R8
U 1 1 6167EEC9
P 8650 1475
F 0 "R8" V 8725 1525 50  0000 R CNN
F 1 "10k" V 8550 1550 50  0000 R CNN
F 2 "Resistor_SMD:R_1206_3216Metric" H 8650 1475 50  0001 C CNN
F 3 "~" H 8650 1475 50  0001 C CNN
	1    8650 1475
	0    -1   -1   0   
$EndComp
$Comp
L power:Earth #PWR016
U 1 1 6167EEDB
P 8775 2625
F 0 "#PWR016" H 8775 2375 50  0001 C CNN
F 1 "Earth" H 8775 2475 50  0001 C CNN
F 2 "" H 8775 2625 50  0001 C CNN
F 3 "~" H 8775 2625 50  0001 C CNN
	1    8775 2625
	-1   0    0    -1  
$EndComp
Wire Wire Line
	9150 1700 9275 1700
Wire Wire Line
	9275 1800 9150 1800
Wire Wire Line
	8375 1425 8375 1475
Wire Wire Line
	8375 1475 8550 1475
$Comp
L Device:R_Small_US R7
U 1 1 6167EEF0
P 7675 1475
F 0 "R7" V 7750 1525 50  0000 R CNN
F 1 "10K" V 7575 1550 50  0000 R CNN
F 2 "Resistor_SMD:R_1206_3216Metric" H 7675 1475 50  0001 C CNN
F 3 "~" H 7675 1475 50  0001 C CNN
	1    7675 1475
	0    -1   -1   0   
$EndComp
Wire Wire Line
	7950 1225 8075 1225
Wire Wire Line
	8375 1900 8375 1475
Connection ~ 8375 1475
$Comp
L power:+5V #PWR010
U 1 1 6167EEFA
P 7500 1475
F 0 "#PWR010" H 7500 1325 50  0001 C CNN
F 1 "+5V" V 7425 1550 50  0000 C CNN
F 2 "" H 7500 1475 50  0001 C CNN
F 3 "" H 7500 1475 50  0001 C CNN
	1    7500 1475
	0    -1   1    0   
$EndComp
Wire Wire Line
	8375 975  8500 975 
Connection ~ 8375 975 
Wire Wire Line
	8375 975  8375 1025
Wire Wire Line
	8280 1475 8375 1475
Connection ~ 7900 1475
Wire Wire Line
	7900 1475 8020 1475
$Comp
L HF_Module:Jumber_pads J2
U 1 1 6167EF14
P 8150 1475
F 0 "J2" H 8150 1400 50  0000 C CNN
F 1 "Jumber_pads" H 8150 1609 50  0001 C CNN
F 2 "HF_Module:Jumber_pads" H 8150 1475 50  0001 C CNN
F 3 "" H 8150 1475 50  0001 C CNN
	1    8150 1475
	1    0    0    -1  
$EndComp
$Comp
L Device:R_POT_US RV1
U 1 1 6167EF1A
P 7900 1800
F 0 "RV1" H 7832 1846 50  0000 R CNN
F 1 "10k" H 7832 1755 50  0000 R CNN
F 2 "Ultrasonic_Hat:3223W" H 7900 1800 50  0001 C CNN
F 3 "https://eu.mouser.com/datasheet/2/54/3223-776892.pdf" H 7900 1800 50  0001 C CNN
	1    7900 1800
	-1   0    0    -1  
$EndComp
Wire Wire Line
	7750 1800 7700 1800
Wire Wire Line
	7700 1800 7700 1625
Wire Wire Line
	7700 1625 7900 1625
$Comp
L Device:R_Small_US R14
U 1 1 6167EF26
P 7900 2125
F 0 "R14" V 7975 2175 50  0000 R CNN
F 1 "4.7K" V 7800 2200 50  0000 R CNN
F 2 "Resistor_SMD:R_1206_3216Metric" H 7900 2125 50  0001 C CNN
F 3 "~" H 7900 2125 50  0001 C CNN
	1    7900 2125
	-1   0    0    1   
$EndComp
Wire Wire Line
	7900 2025 7900 1950
$Comp
L Device:R_Small_US R12
U 1 1 6167EF33
P 8375 2000
F 0 "R12" V 8450 2050 50  0000 R CNN
F 1 "120" V 8275 2075 50  0000 R CNN
F 2 "Resistor_SMD:R_1206_3216Metric" H 8375 2000 50  0001 C CNN
F 3 "~" H 8375 2000 50  0001 C CNN
	1    8375 2000
	-1   0    0    1   
$EndComp
Wire Wire Line
	7900 2225 7900 2450
Wire Wire Line
	8100 2675 8100 2550
Wire Wire Line
	8100 2550 8575 2550
Wire Wire Line
	8775 2550 8775 2625
Wire Wire Line
	8575 2675 8575 2550
Connection ~ 8575 2550
Wire Wire Line
	8575 2550 8775 2550
Wire Wire Line
	6725 1125 7050 1125
Wire Wire Line
	7050 1325 6900 1325
Wire Wire Line
	6900 1325 6900 2450
$Comp
L Ultrasonic_HAT:Conn_01x01_Female J4
U 1 1 6169C6CF
P 7900 2875
F 0 "J4" H 7928 2901 50  0000 L CNN
F 1 "OUT_Flow" H 7928 2810 50  0000 L CNN
F 2 "HF_Module:PADs" H 7950 2625 50  0001 C CNN
F 3 "~" H 7900 2875 50  0001 C CNN
	1    7900 2875
	0    1    1    0   
$EndComp
$Comp
L Ultrasonic_HAT:Conn_01x01_Female J4
U 3 1 6169C6D5
P 8375 2875
F 0 "J4" H 8403 2901 50  0000 L CNN
F 1 "OUT_Flow" H 8403 2810 50  0000 L CNN
F 2 "HF_Module:PADs" H 8425 2625 50  0001 C CNN
F 3 "~" H 8375 2875 50  0001 C CNN
	3    8375 2875
	0    1    1    0   
$EndComp
$Comp
L Ultrasonic_HAT:Conn_01x01_Female J4
U 2 1 6169C6DB
P 8100 2875
F 0 "J4" H 8128 2901 50  0000 L CNN
F 1 "OUT_Flow" H 8128 2810 50  0000 L CNN
F 2 "HF_Module:PADs" H 8150 2625 50  0001 C CNN
F 3 "~" H 8100 2875 50  0001 C CNN
	2    8100 2875
	0    1    1    0   
$EndComp
$Comp
L Ultrasonic_HAT:Conn_01x01_Female J4
U 4 1 6169C6E1
P 8575 2875
F 0 "J4" H 8603 2901 50  0000 L CNN
F 1 "OUT_Flow" H 8603 2810 50  0000 L CNN
F 2 "HF_Module:PADs" H 8625 2625 50  0001 C CNN
F 3 "~" H 8575 2875 50  0001 C CNN
	4    8575 2875
	0    1    1    0   
$EndComp
Wire Wire Line
	7500 1475 7575 1475
Wire Wire Line
	7775 1475 7900 1475
Wire Wire Line
	7900 1475 7900 1625
Wire Wire Line
	7900 1625 7900 1650
Connection ~ 7900 1625
Wire Wire Line
	1725 1475 1850 1475
Wire Wire Line
	1450 1475 1525 1475
Wire Wire Line
	1850 1475 1850 1650
Text GLabel 6725 5975 0    50   Output ~ 0
SDA
Text GLabel 6725 6075 0    50   Output ~ 0
SCL
Wire Wire Line
	6725 5975 6850 5975
Connection ~ 6850 5975
Wire Wire Line
	6725 6075 7075 6075
Connection ~ 7075 6075
Wire Wire Line
	7075 6075 7325 6075
Wire Wire Line
	7900 2450 6900 2450
Connection ~ 7900 2450
Wire Wire Line
	7900 2450 7900 2675
Wire Wire Line
	5200 1600 5475 1600
Wire Wire Line
	5200 1600 5200 1850
Connection ~ 5475 1600
Wire Wire Line
	5475 1600 5475 1625
Wire Wire Line
	5475 2250 5200 2250
Wire Wire Line
	5200 2050 5200 2250
Connection ~ 5475 2250
Wire Wire Line
	5475 2250 5475 2225
Wire Wire Line
	7300 6200 7300 6175
Wire Wire Line
	7300 6175 7325 6175
$Comp
L Transistor_BJT:BC857 Q3
U 1 1 615E7A1A
P 1850 5350
F 0 "Q3" V 2178 5350 50  0000 C CNN
F 1 "BC857" V 2087 5350 50  0000 C CNN
F 2 "Package_TO_SOT_SMD:SOT-23" H 2050 5275 50  0001 L CIN
F 3 "https://www.onsemi.com/pub/Collateral/BC860-D.pdf" H 1850 5350 50  0001 L CNN
	1    1850 5350
	0    -1   -1   0   
$EndComp
Wire Wire Line
	2050 5250 2075 5250
$Comp
L power:+5V #PWR037
U 1 1 61660410
P 2075 6000
F 0 "#PWR037" H 2075 5850 50  0001 C CNN
F 1 "+5V" H 2090 6173 50  0000 C CNN
F 2 "" H 2075 6000 50  0001 C CNN
F 3 "" H 2075 6000 50  0001 C CNN
	1    2075 6000
	0    1    -1   0   
$EndComp
$Comp
L Transistor_BJT:BC857 Q4
U 1 1 61660417
P 1850 5900
F 0 "Q4" V 2178 5900 50  0000 C CNN
F 1 "BC857" V 2087 5900 50  0000 C CNN
F 2 "Package_TO_SOT_SMD:SOT-23" H 2050 5825 50  0001 L CIN
F 3 "https://www.onsemi.com/pub/Collateral/BC860-D.pdf" H 1850 5900 50  0001 L CNN
	1    1850 5900
	0    -1   1    0   
$EndComp
Wire Wire Line
	2050 6000 2075 6000
$Comp
L Device:R_Small_US R21
U 1 1 61679FB1
P 2025 5675
F 0 "R21" V 2050 5900 50  0000 R CNN
F 1 "4.7K" V 1925 5750 50  0000 R CNN
F 2 "Resistor_SMD:R_1206_3216Metric" H 2025 5675 50  0001 C CNN
F 3 "~" H 2025 5675 50  0001 C CNN
	1    2025 5675
	0    1    -1   0   
$EndComp
Wire Wire Line
	1925 5675 1850 5675
Wire Wire Line
	1850 5675 1850 5700
Wire Wire Line
	1850 5550 1850 5575
Wire Wire Line
	1850 5575 1925 5575
Text GLabel 8375 925  1    50   Input ~ 0
P_Fout
Text GLabel 2325 925  1    50   Input ~ 0
P_Fin
Text GLabel 1425 6000 0    50   Output ~ 0
P_Fout
Text GLabel 1425 5250 0    50   Output ~ 0
P_Fin
Wire Wire Line
	1850 2450 1850 2675
Wire Wire Line
	1850 2225 1850 2450
Connection ~ 1850 2450
Wire Wire Line
	1850 2450 850  2450
Wire Wire Line
	2325 2100 2325 2600
Wire Wire Line
	2325 2600 675  2600
Connection ~ 2325 2600
Wire Wire Line
	2325 2600 2325 2675
Wire Wire Line
	8375 2100 8375 2600
Wire Wire Line
	8375 2600 6725 2600
Connection ~ 8375 2600
Wire Wire Line
	8375 2600 8375 2675
$Comp
L Device:C_Small C1
U 1 1 616434FD
P 1225 750
F 0 "C1" V 1133 704 50  0000 R CNN
F 1 "100pF" V 1325 875 50  0000 R CNN
F 2 "Capacitor_SMD:C_0805_2012Metric" H 1225 750 50  0001 C CNN
F 3 "~" H 1225 750 50  0001 C CNN
	1    1225 750 
	0    1    1    0   
$EndComp
Wire Wire Line
	1125 750  675  750 
Wire Wire Line
	675  750  675  1125
Connection ~ 675  1125
Wire Wire Line
	1325 750  1650 750 
Wire Wire Line
	1650 750  1650 1225
Connection ~ 1650 1225
Wire Wire Line
	1650 1225 1600 1225
$Comp
L Device:C_Small C2
U 1 1 6165F07A
P 7250 750
F 0 "C2" V 7158 704 50  0000 R CNN
F 1 "100pF" V 7350 875 50  0000 R CNN
F 2 "Capacitor_SMD:C_0805_2012Metric" H 7250 750 50  0001 C CNN
F 3 "~" H 7250 750 50  0001 C CNN
	1    7250 750 
	0    1    1    0   
$EndComp
Wire Wire Line
	7150 750  6725 750 
Wire Wire Line
	6725 750  6725 1125
Connection ~ 6725 1125
Wire Wire Line
	7350 750  7675 750 
Wire Wire Line
	7675 750  7675 1225
Connection ~ 7675 1225
Wire Wire Line
	7675 1225 7650 1225
Text Notes 3150 2225 0    50   ~ 0
Addr:0x6A
$Comp
L Device:C_Small C7
U 1 1 616C4E1E
P 4000 1125
F 0 "C7" V 3908 1079 50  0000 R CNN
F 1 "10uF" V 4100 1250 50  0000 R CNN
F 2 "Capacitor_SMD:C_1206_3216Metric" H 4000 1125 50  0001 C CNN
F 3 "~" H 4000 1125 50  0001 C CNN
	1    4000 1125
	0    1    1    0   
$EndComp
$Comp
L power:Earth #PWR07
U 1 1 616C4E24
P 4150 1125
F 0 "#PWR07" H 4150 875 50  0001 C CNN
F 1 "Earth" H 4150 975 50  0001 C CNN
F 2 "" H 4150 1125 50  0001 C CNN
F 3 "~" H 4150 1125 50  0001 C CNN
	1    4150 1125
	0    -1   1    0   
$EndComp
Wire Wire Line
	4100 1125 4150 1125
Connection ~ 3775 1125
Wire Wire Line
	3775 1125 3775 1150
Wire Wire Line
	3775 1125 3900 1125
Wire Wire Line
	9825 800  9825 850 
$Comp
L Device:C_Small C4
U 1 1 616EF6FF
P 10050 850
F 0 "C4" V 9958 804 50  0000 R CNN
F 1 "100nF" V 10150 975 50  0000 R CNN
F 2 "Capacitor_SMD:C_0805_2012Metric" H 10050 850 50  0001 C CNN
F 3 "~" H 10050 850 50  0001 C CNN
	1    10050 850 
	0    1    1    0   
$EndComp
$Comp
L power:Earth #PWR04
U 1 1 616EF705
P 10200 850
F 0 "#PWR04" H 10200 600 50  0001 C CNN
F 1 "Earth" H 10200 700 50  0001 C CNN
F 2 "" H 10200 850 50  0001 C CNN
F 3 "~" H 10200 850 50  0001 C CNN
	1    10200 850 
	0    -1   1    0   
$EndComp
Wire Wire Line
	10150 850  10200 850 
$Comp
L power:+5V #PWR02
U 1 1 616EF70C
P 9825 800
F 0 "#PWR02" H 9825 650 50  0001 C CNN
F 1 "+5V" H 9840 973 50  0000 C CNN
F 2 "" H 9825 800 50  0001 C CNN
F 3 "" H 9825 800 50  0001 C CNN
	1    9825 800 
	1    0    0    -1  
$EndComp
Wire Wire Line
	9950 850  9825 850 
Connection ~ 9825 850 
Wire Wire Line
	9825 850  9825 1125
$Comp
L Device:C_Small C8
U 1 1 616EF715
P 10050 1125
F 0 "C8" V 9958 1079 50  0000 R CNN
F 1 "10uF" V 10150 1250 50  0000 R CNN
F 2 "Capacitor_SMD:C_1206_3216Metric" H 10050 1125 50  0001 C CNN
F 3 "~" H 10050 1125 50  0001 C CNN
	1    10050 1125
	0    1    1    0   
$EndComp
$Comp
L power:Earth #PWR08
U 1 1 616EF71B
P 10200 1125
F 0 "#PWR08" H 10200 875 50  0001 C CNN
F 1 "Earth" H 10200 975 50  0001 C CNN
F 2 "" H 10200 1125 50  0001 C CNN
F 3 "~" H 10200 1125 50  0001 C CNN
	1    10200 1125
	0    -1   1    0   
$EndComp
Wire Wire Line
	10150 1125 10200 1125
Connection ~ 9825 1125
Wire Wire Line
	9825 1125 9825 1150
Wire Wire Line
	9825 1125 9950 1125
Text Notes 9200 2225 0    50   ~ 0
Addr:0x6B
$Comp
L Device:R_Small_US R20
U 1 1 61679554
P 2025 5575
F 0 "R20" V 2050 5800 50  0000 R CNN
F 1 "4.7K" V 2100 5650 50  0000 R CNN
F 2 "Resistor_SMD:R_1206_3216Metric" H 2025 5575 50  0001 C CNN
F 3 "~" H 2025 5575 50  0001 C CNN
	1    2025 5575
	0    1    -1   0   
$EndComp
Wire Wire Line
	2125 5575 2400 5575
Wire Wire Line
	2125 5675 2400 5675
$Comp
L power:+5V #PWR038
U 1 1 617C5082
P 3650 6150
F 0 "#PWR038" H 3650 6000 50  0001 C CNN
F 1 "+5V" H 3665 6323 50  0000 C CNN
F 2 "" H 3650 6150 50  0001 C CNN
F 3 "" H 3650 6150 50  0001 C CNN
	1    3650 6150
	1    0    0    -1  
$EndComp
$Comp
L Device:R_Small_US R17
U 1 1 61852D42
P 1675 6500
F 0 "R17" V 1750 6550 50  0000 R CNN
F 1 "820" V 1575 6575 50  0000 R CNN
F 2 "Resistor_SMD:R_1206_3216Metric" H 1675 6500 50  0001 C CNN
F 3 "~" H 1675 6500 50  0001 C CNN
	1    1675 6500
	0    -1   1    0   
$EndComp
$Comp
L Device:LED_ALT D1
U 1 1 61852D48
P 1975 6500
F 0 "D1" H 1975 6400 50  0000 C CNN
F 1 "Activity" H 1975 6600 50  0000 C CNN
F 2 "LED_THT:LED_D3.0mm" H 1975 6500 50  0001 C CNN
F 3 "~" H 1975 6500 50  0001 C CNN
	1    1975 6500
	-1   0    0    -1  
$EndComp
Wire Wire Line
	1825 6500 1775 6500
$Comp
L power:+5V #PWR025
U 1 1 61873523
P 1550 6500
F 0 "#PWR025" H 1550 6350 50  0001 C CNN
F 1 "+5V" H 1565 6673 50  0000 C CNN
F 2 "" H 1550 6500 50  0001 C CNN
F 3 "" H 1550 6500 50  0001 C CNN
	1    1550 6500
	0    -1   -1   0   
$EndComp
Wire Wire Line
	1550 6500 1575 6500
$Comp
L Device:C_Small C10
U 1 1 6188A220
P 5750 1950
F 0 "C10" H 5658 1904 50  0000 R CNN
F 1 "10uF" H 5658 1995 50  0000 R CNN
F 2 "Capacitor_SMD:C_1206_3216Metric" H 5750 1950 50  0001 C CNN
F 3 "~" H 5750 1950 50  0001 C CNN
	1    5750 1950
	-1   0    0    1   
$EndComp
Wire Wire Line
	5750 2050 5750 2250
Wire Wire Line
	5750 2250 5475 2250
Wire Wire Line
	5475 1600 5750 1600
Wire Wire Line
	5750 1600 5750 1850
$Comp
L Device:Opamp_Quad_Generic U1
U 2 1 6163E9A5
P 3700 2875
F 0 "U1" H 3725 3050 50  0000 C CNN
F 1 "AD8508" H 3725 2675 50  0000 C CNN
F 2 "Package_SO:TSSOP-14_4.4x5mm_P0.65mm" H 3700 2875 50  0001 C CNN
F 3 "~" H 3700 2875 50  0001 C CNN
	2    3700 2875
	1    0    0    -1  
$EndComp
Wire Notes Line width 12 style solid
	6575 550  6575 3550
Wire Notes Line width 12 style solid
	6575 3550 10475 3550
Wire Notes Line width 12 style solid
	10475 3550 10475 550 
Wire Notes Line width 12 style solid
	10475 550  6575 550 
Wire Notes Line width 12 style solid
	6575 3300 10475 3300
Wire Notes Line width 12 style solid
	525  550  4350 550 
Wire Notes Line width 12 style solid
	4350 550  4350 3550
Wire Notes Line width 12 style solid
	4350 3550 525  3550
Wire Notes Line width 12 style solid
	525  3550 525  550 
Wire Notes Line width 12 style solid
	4350 3300 525  3300
Text Notes 575  3500 0    100  ~ 20
HF Module IN_Flow (0)
Text Notes 6650 3500 0    100  ~ 20
HF Module OUT_Flow (1)
Wire Notes Line width 12 style solid
	6350 4775 6350 6700
Wire Notes Line width 12 style solid
	6350 6700 10475 6700
Wire Notes Line width 12 style solid
	10475 6700 10475 4775
Wire Notes Line width 12 style solid
	10475 4775 6350 4775
Wire Notes Line width 12 style solid
	6350 6475 10475 6475
Text Notes 6425 6650 0    100  ~ 20
I2C Level Translator
Text Notes 3025 6575 0    50   ~ 0
Addr:0x6D
Wire Wire Line
	9850 5250 9875 5250
Wire Wire Line
	3100 1475 3100 1700
Wire Wire Line
	2775 1475 3100 1475
Wire Wire Line
	2725 1950 2725 1975
$Comp
L Device:R_POT_US RV3
U 1 1 616584D7
P 2725 2125
F 0 "RV3" H 2657 2171 50  0000 R CNN
F 1 "10k" H 2657 2080 50  0000 R CNN
F 2 "Ultrasonic_Hat:3223W" H 2725 2125 50  0001 C CNN
F 3 "https://eu.mouser.com/datasheet/2/54/3223-776892.pdf" H 2725 2125 50  0001 C CNN
	1    2725 2125
	1    0    0    -1  
$EndComp
Wire Wire Line
	2875 2125 3000 2125
Wire Wire Line
	3100 1800 3100 2125
Text GLabel 2675 1700 0    50   Input ~ 0
P_Fin
$Comp
L Device:R_Small_US R10
U 1 1 61743E6A
P 8775 1850
F 0 "R10" V 8850 1900 50  0000 R CNN
F 1 "10k" V 8675 1925 50  0000 R CNN
F 2 "Resistor_SMD:R_1206_3216Metric" H 8775 1850 50  0001 C CNN
F 3 "~" H 8775 1850 50  0001 C CNN
	1    8775 1850
	-1   0    0    1   
$EndComp
Wire Wire Line
	8775 1950 8775 1975
$Comp
L Device:R_POT_US RV4
U 1 1 61743E71
P 8775 2125
F 0 "RV4" H 8707 2171 50  0000 R CNN
F 1 "10k" H 8707 2080 50  0000 R CNN
F 2 "Ultrasonic_Hat:3223W" H 8775 2125 50  0001 C CNN
F 3 "https://eu.mouser.com/datasheet/2/54/3223-776892.pdf" H 8775 2125 50  0001 C CNN
	1    8775 2125
	1    0    0    -1  
$EndComp
Wire Wire Line
	8775 1700 8775 1750
Wire Wire Line
	8750 1475 9150 1475
Wire Wire Line
	9150 1475 9150 1700
Connection ~ 8775 2550
Wire Wire Line
	8925 2125 9050 2125
Wire Wire Line
	9150 1800 9150 2125
Text GLabel 8725 1700 0    50   Input ~ 0
P_Fout
Wire Wire Line
	8775 1700 8725 1700
Wire Wire Line
	2725 1700 2725 1750
Wire Wire Line
	2675 1700 2725 1700
$Comp
L Device:C_Small C11
U 1 1 615FD49E
P 3000 2350
F 0 "C11" V 2950 2525 50  0000 R CNN
F 1 "100nF" V 3100 2475 50  0000 R CNN
F 2 "Capacitor_SMD:C_0805_2012Metric" H 3000 2350 50  0001 C CNN
F 3 "~" H 3000 2350 50  0001 C CNN
	1    3000 2350
	1    0    0    -1  
$EndComp
Wire Wire Line
	2725 2550 3000 2550
Wire Wire Line
	3000 2550 3000 2450
Wire Wire Line
	3000 2250 3000 2125
Connection ~ 3000 2125
Wire Wire Line
	3000 2125 3100 2125
$Comp
L Device:C_Small C12
U 1 1 61620D4D
P 9050 2350
F 0 "C12" V 9000 2525 50  0000 R CNN
F 1 "100nF" V 9150 2475 50  0000 R CNN
F 2 "Capacitor_SMD:C_0805_2012Metric" H 9050 2350 50  0001 C CNN
F 3 "~" H 9050 2350 50  0001 C CNN
	1    9050 2350
	1    0    0    -1  
$EndComp
Wire Wire Line
	8775 2550 9050 2550
Wire Wire Line
	9050 2550 9050 2450
Wire Wire Line
	9050 2250 9050 2125
Connection ~ 9050 2125
Wire Wire Line
	9050 2125 9150 2125
Wire Wire Line
	8775 2275 8775 2550
Wire Wire Line
	2725 2275 2725 2550
Wire Wire Line
	1425 5250 1650 5250
Wire Wire Line
	1425 6000 1650 6000
Wire Wire Line
	9975 2875 10050 2875
Wire Wire Line
	10050 2875 10050 3200
Wire Wire Line
	10050 3200 9300 3200
Wire Wire Line
	9300 3200 9300 2975
Wire Wire Line
	9300 2975 9375 2975
Wire Wire Line
	4000 2875 4100 2875
Wire Wire Line
	4100 2875 4100 3200
Wire Wire Line
	4100 3200 3275 3200
Wire Wire Line
	3275 3200 3275 2975
Wire Wire Line
	3275 2975 3400 2975
$Comp
L power:Earth #PWR017
U 1 1 61704CA4
P 3350 2775
F 0 "#PWR017" H 3350 2525 50  0001 C CNN
F 1 "Earth" H 3350 2625 50  0001 C CNN
F 2 "" H 3350 2775 50  0001 C CNN
F 3 "~" H 3350 2775 50  0001 C CNN
	1    3350 2775
	0    1    -1   0   
$EndComp
$Comp
L power:Earth #PWR018
U 1 1 617053A9
P 9325 2775
F 0 "#PWR018" H 9325 2525 50  0001 C CNN
F 1 "Earth" H 9325 2625 50  0001 C CNN
F 2 "" H 9325 2775 50  0001 C CNN
F 3 "~" H 9325 2775 50  0001 C CNN
	1    9325 2775
	0    1    -1   0   
$EndComp
Wire Wire Line
	9375 2775 9325 2775
Wire Wire Line
	3350 2775 3400 2775
Wire Wire Line
	675  1125 675  2600
Wire Wire Line
	6725 1125 6725 2600
$Comp
L Graphic:Logo_Open_Hardware_Small OSH1
U 1 1 61463919
P 10000 7050
F 0 "OSH1" H 10000 7325 50  0001 C CNN
F 1 "Open Source Hardware" H 10000 6825 50  0000 C CNN
F 2 "Symbol:OSHW-Logo_5.7x6mm_SilkScreen" H 10000 7050 50  0001 C CNN
F 3 "~" H 10000 7050 50  0001 C CNN
	1    10000 7050
	1    0    0    -1  
$EndComp
$Comp
L Device:C_Small C16
U 1 1 61934629
P 3225 5225
F 0 "C16" V 3133 5179 50  0000 R CNN
F 1 "100nF" V 3325 5350 50  0000 R CNN
F 2 "Capacitor_SMD:C_0805_2012Metric" H 3225 5225 50  0001 C CNN
F 3 "~" H 3225 5225 50  0001 C CNN
	1    3225 5225
	0    1    1    0   
$EndComp
$Comp
L power:Earth #PWR041
U 1 1 6193462F
P 3375 5225
F 0 "#PWR041" H 3375 4975 50  0001 C CNN
F 1 "Earth" H 3375 5075 50  0001 C CNN
F 2 "" H 3375 5225 50  0001 C CNN
F 3 "~" H 3375 5225 50  0001 C CNN
	1    3375 5225
	0    -1   1    0   
$EndComp
Wire Wire Line
	3325 5225 3375 5225
Wire Wire Line
	3125 5225 3000 5225
Wire Notes Line width 12 style solid
	825  4550 4600 4550
Wire Notes Line width 12 style solid
	4600 4550 4600 7175
Wire Notes Line width 12 style solid
	4600 7175 825  7175
Wire Notes Line width 12 style solid
	825  7175 825  4550
Text Notes 875  7125 0    100  ~ 20
Switches
Wire Notes Line width 12 style solid
	4600 6925 825  6925
Wire Wire Line
	3650 6175 3650 6150
Wire Wire Line
	3500 6175 3650 6175
Wire Wire Line
	3650 6275 3650 6175
Wire Wire Line
	3500 6275 3650 6275
Connection ~ 3650 6175
Wire Wire Line
	2125 6500 2325 6500
Wire Wire Line
	2400 5975 2325 5975
Wire Wire Line
	2325 5975 2325 6500
$EndSCHEMATC
