PCBNEW-LibModule-V1  2021-09-06 05:57:26
# encoding utf-8
Units mm
$INDEX
SOT230P700X180-4N
$EndINDEX
$MODULE SOT230P700X180-4N
Po 0 0 0 15 61359fb6 00000000 ~~
Li SOT230P700X180-4N
Cd SOT-223 (HIGH VOLTAGE)
Kw MOSFET (N-Channel)
Sc 0
At SMD
AR 
Op 0 0 0
T0 0 0 1.27 1.27 0 0.254 N V 21 N "Q**"
T1 0 0 1.27 1.27 0 0.254 N I 21 N "SOT230P700X180-4N"
DS -4.25 -3.6 4.25 -3.6 0.05 24
DS 4.25 -3.6 4.25 3.6 0.05 24
DS 4.25 3.6 -4.25 3.6 0.05 24
DS -4.25 3.6 -4.25 -3.6 0.05 24
DS -1.75 -3.25 1.75 -3.25 0.1 24
DS 1.75 -3.25 1.75 3.25 0.1 24
DS 1.75 3.25 -1.75 3.25 0.1 24
DS -1.75 3.25 -1.75 -3.25 0.1 24
DS -1.75 -0.95 0.55 -3.25 0.1 24
DS -1.75 -3.25 1.75 -3.25 0.2 21
DS 1.75 -3.25 1.75 3.25 0.2 21
DS 1.75 3.25 -1.75 3.25 0.2 21
DS -1.75 3.25 -1.75 -3.25 0.2 21
DS -4 -3.125 -2.1 -3.125 0.2 21
$PAD
Po -3.05 -2.3
Sh "1" R 0.95 1.9 0 0 900
At SMD N 00888000
Ne 0 ""
$EndPAD
$PAD
Po -3.05 0
Sh "2" R 0.95 1.9 0 0 900
At SMD N 00888000
Ne 0 ""
$EndPAD
$PAD
Po -3.05 2.3
Sh "3" R 0.95 1.9 0 0 900
At SMD N 00888000
Ne 0 ""
$EndPAD
$PAD
Po 3.05 0
Sh "4" R 1.9 3.25 0 0 0
At SMD N 00888000
Ne 0 ""
$EndPAD
$EndMODULE SOT230P700X180-4N
$EndLIBRARY
