EESchema Schematic File Version 4
EELAYER 30 0
EELAYER END
$Descr USLetter 11000 8500
encoding utf-8
Sheet 1 1
Title "Ultrasonic RPi Hat"
Date "2021-09-06"
Rev "1.0"
Comp "Designed by Sam Harry Tzavaras"
Comment1 "Licenced under: TAPR Open Hardware"
Comment2 ""
Comment3 ""
Comment4 ""
$EndDescr
$Comp
L Connector:Raspberry_Pi_2_3 J3
U 1 1 612A4527
P 1750 5600
F 0 "J3" H 1100 6850 50  0000 C CNN
F 1 "Raspberry_Pi_40pin" V 1750 5650 50  0000 C CNN
F 2 "Ultrasonic_Hat:HLE-120-02-XXX-DV-A" H 1750 5600 50  0001 C CNN
F 3 "https://www.raspberrypi.org/documentation/hardware/raspberrypi/schematics/rpi_SCH_3bplus_1p0_reduced.pdf" H 1750 5600 50  0001 C CNN
	1    1750 5600
	1    0    0    -1  
$EndComp
$Comp
L power:Earth #PWR034
U 1 1 61328C7E
P 1700 7000
F 0 "#PWR034" H 1700 6750 50  0001 C CNN
F 1 "Earth" H 1700 6850 50  0001 C CNN
F 2 "" H 1700 7000 50  0001 C CNN
F 3 "~" H 1700 7000 50  0001 C CNN
	1    1700 7000
	1    0    0    -1  
$EndComp
Wire Wire Line
	1350 6900 1350 6950
Wire Wire Line
	1350 6950 1450 6950
Wire Wire Line
	1700 6950 1700 7000
Wire Wire Line
	1700 6950 1750 6950
Wire Wire Line
	2050 6950 2050 6900
Connection ~ 1700 6950
Wire Wire Line
	1950 6900 1950 6950
Connection ~ 1950 6950
Wire Wire Line
	1950 6950 2050 6950
Wire Wire Line
	1850 6900 1850 6950
Connection ~ 1850 6950
Wire Wire Line
	1850 6950 1950 6950
Wire Wire Line
	1750 6900 1750 6950
Connection ~ 1750 6950
Wire Wire Line
	1750 6950 1850 6950
Wire Wire Line
	1650 6900 1650 6950
Connection ~ 1650 6950
Wire Wire Line
	1650 6950 1700 6950
Wire Wire Line
	1550 6900 1550 6950
Connection ~ 1550 6950
Wire Wire Line
	1550 6950 1650 6950
Wire Wire Line
	1450 6900 1450 6950
Connection ~ 1450 6950
Wire Wire Line
	1450 6950 1550 6950
$Comp
L power:+5V #PWR021
U 1 1 6136ADE9
P 1600 4200
F 0 "#PWR021" H 1600 4050 50  0001 C CNN
F 1 "+5V" H 1615 4373 50  0000 C CNN
F 2 "" H 1600 4200 50  0001 C CNN
F 3 "" H 1600 4200 50  0001 C CNN
	1    1600 4200
	1    0    0    -1  
$EndComp
Wire Wire Line
	1550 4300 1550 4250
Wire Wire Line
	1550 4250 1600 4250
Wire Wire Line
	1650 4250 1650 4300
Wire Wire Line
	1600 4250 1600 4200
Connection ~ 1600 4250
Wire Wire Line
	1600 4250 1650 4250
$Comp
L Ultrasonic_HAT:MAX35104ETL+ IC2
U 1 1 61374762
P 5300 3300
F 0 "IC2" H 4650 4200 50  0000 C CNN
F 1 "MAX35104ETL+" H 5950 2250 50  0000 C CNN
F 2 "Ultrasonic_Hat:QFN40P500X500X80-41N" H 5650 2200 50  0001 L CNN
F 3 "https://datasheets.maximintegrated.com/en/ds/MAX35104.pdf" H 6050 4050 50  0001 L CNN
	1    5300 3300
	1    0    0    -1  
$EndComp
$Comp
L Device:D_Schottky_ALT D1
U 1 1 61380F00
P 9075 3050
F 0 "D1" H 9200 3100 50  0000 C CNN
F 1 "SMD18PL-TP" H 9075 2950 50  0000 C CNN
F 2 "Ultrasonic_Hat:SODFL3616X135N" H 9075 3050 50  0001 C CNN
F 3 "https://www.mccsemi.com/pdf/Products/SMD15PL-SMD18PL(SOD-123FL).pdf" H 9075 3050 50  0001 C CNN
	1    9075 3050
	-1   0    0    1   
$EndComp
$Comp
L Device:L L1
U 1 1 61381970
P 8675 2800
F 0 "L1" H 8728 2846 50  0000 L CNN
F 1 "47uH" H 8728 2755 50  0000 L CNN
F 2 "Ultrasonic_Hat:TYS5040470M10" H 8675 2800 50  0001 C CNN
F 3 "~" H 8675 2800 50  0001 C CNN
	1    8675 2800
	1    0    0    -1  
$EndComp
$Comp
L Device:L L2
U 1 1 613822B4
P 9150 5800
F 0 "L2" V 9200 5900 50  0000 L CNN
F 1 "5.6uH" V 9225 5650 50  0000 L CNN
F 2 "Ultrasonic_Hat:INDPM5552X200N" H 9150 5800 50  0001 C CNN
F 3 "~" H 9150 5800 50  0001 C CNN
	1    9150 5800
	0    -1   -1   0   
$EndComp
$Comp
L Device:C_Small C23
U 1 1 61383688
P 9400 6000
F 0 "C23" H 9450 6100 50  0000 L CNN
F 1 "10uF" H 9150 5950 50  0000 L CNN
F 2 "Capacitor_SMD:C_1210_3225Metric_Pad1.33x2.70mm_HandSolder" H 9400 6000 50  0001 C CNN
F 3 "~" H 9400 6000 50  0001 C CNN
	1    9400 6000
	-1   0    0    -1  
$EndComp
$Comp
L Device:Q_NMOS_GDSD Q1
U 1 1 6138422A
P 8575 3350
F 0 "Q1" H 8425 3450 50  0000 L CNN
F 1 "IRLL014" H 8775 3200 50  0000 L CNN
F 2 "Ultrasonic_Hat:SOT230P700X180-4N" H 8775 3450 50  0001 C CNN
F 3 "https://4donline.ihs.com/images/VipMasterIC/IC/VISH/VISH-S-A0002290573/VISH-S-A0002292531-1.pdf?hkey=6D3A4C79FDBF58556ACFDE234799DDF0" H 8575 3350 50  0001 C CNN
	1    8575 3350
	1    0    0    -1  
$EndComp
$Comp
L Device:R_Small_US R12
U 1 1 613862EB
P 8675 3750
F 0 "R12" H 8743 3796 50  0000 L CNN
F 1 "500mOhm" H 8743 3705 50  0000 L CNN
F 2 "Resistor_SMD:R_0805_2012Metric" H 8675 3750 50  0001 C CNN
F 3 "~" H 8675 3750 50  0001 C CNN
	1    8675 3750
	1    0    0    -1  
$EndComp
$Comp
L Device:R_Small_US R10
U 1 1 6138820E
P 8375 3600
F 0 "R10" V 8325 3450 50  0000 C CNN
F 1 "100" V 8475 3600 50  0000 C CNN
F 2 "Resistor_SMD:R_1206_3216Metric_Pad1.30x1.75mm_HandSolder" H 8375 3600 50  0001 C CNN
F 3 "~" H 8375 3600 50  0001 C CNN
	1    8375 3600
	0    1    1    0   
$EndComp
$Comp
L Device:C_Small C12
U 1 1 61388E6E
P 8125 3750
F 0 "C12" H 7975 3850 50  0000 L CNN
F 1 "100pF" H 7875 3650 50  0000 L CNN
F 2 "Capacitor_SMD:C_0805_2012Metric" H 8125 3750 50  0001 C CNN
F 3 "~" H 8125 3750 50  0001 C CNN
	1    8125 3750
	1    0    0    -1  
$EndComp
$Comp
L power:Earth #PWR020
U 1 1 613895A6
P 8675 4000
F 0 "#PWR020" H 8675 3750 50  0001 C CNN
F 1 "Earth" H 8675 3850 50  0001 C CNN
F 2 "" H 8675 4000 50  0001 C CNN
F 3 "~" H 8675 4000 50  0001 C CNN
	1    8675 4000
	1    0    0    -1  
$EndComp
Wire Wire Line
	8675 4000 8675 3900
Wire Wire Line
	8125 3850 8125 3900
Connection ~ 8675 3900
Wire Wire Line
	8675 3900 8675 3850
Wire Wire Line
	8675 3550 8675 3600
Wire Wire Line
	8125 3650 8125 3600
Wire Wire Line
	8125 3600 8275 3600
Wire Wire Line
	8475 3600 8675 3600
Connection ~ 8675 3600
Wire Wire Line
	8675 3600 8675 3650
Wire Wire Line
	8675 3150 8675 3050
Wire Wire Line
	8775 3150 8775 3050
Wire Wire Line
	8775 3050 8675 3050
Connection ~ 8675 3050
Wire Wire Line
	8675 3050 8675 2950
$Comp
L Device:C_Small C11
U 1 1 6138E5B5
P 9525 3200
F 0 "C11" H 9617 3246 50  0000 L CNN
F 1 "10uF" H 9617 3155 50  0000 L CNN
F 2 "Capacitor_SMD:C_0805_2012Metric" H 9525 3200 50  0001 C CNN
F 3 "~" H 9525 3200 50  0001 C CNN
	1    9525 3200
	1    0    0    -1  
$EndComp
Wire Wire Line
	9525 3050 9525 3100
$Comp
L power:Earth #PWR018
U 1 1 6138FBCF
P 9525 3300
F 0 "#PWR018" H 9525 3050 50  0001 C CNN
F 1 "Earth" H 9525 3150 50  0001 C CNN
F 2 "" H 9525 3300 50  0001 C CNN
F 3 "~" H 9525 3300 50  0001 C CNN
	1    9525 3300
	1    0    0    -1  
$EndComp
Wire Wire Line
	8675 2550 8675 2600
$Comp
L power:+5V #PWR014
U 1 1 613901BF
P 8675 2550
F 0 "#PWR014" H 8675 2400 50  0001 C CNN
F 1 "+5V" H 8800 2625 50  0000 C CNN
F 2 "" H 8675 2550 50  0001 C CNN
F 3 "" H 8675 2550 50  0001 C CNN
	1    8675 2550
	1    0    0    -1  
$EndComp
$Comp
L Device:C_Small C15
U 1 1 613942B8
P 4350 4100
F 0 "C15" H 4258 4054 50  0000 R CNN
F 1 "100n" H 4258 4145 50  0000 R CNN
F 2 "Capacitor_SMD:C_0805_2012Metric" H 4350 4100 50  0001 C CNN
F 3 "~" H 4350 4100 50  0001 C CNN
	1    4350 4100
	1    0    0    1   
$EndComp
$Comp
L power:Earth #PWR015
U 1 1 613942BF
P 7900 6100
F 0 "#PWR015" H 7900 5850 50  0001 C CNN
F 1 "Earth" H 7900 5950 50  0001 C CNN
F 2 "" H 7900 6100 50  0001 C CNN
F 3 "~" H 7900 6100 50  0001 C CNN
	1    7900 6100
	-1   0    0    -1  
$EndComp
Wire Wire Line
	8525 2600 8675 2600
Connection ~ 8675 2600
Wire Wire Line
	8675 2600 8675 2650
$Comp
L Ultrasonic_HAT:PCA9614DP,118 IC1
U 1 1 6139584B
P 1700 2400
F 0 "IC1" H 1350 2750 50  0000 C CNN
F 1 "PCA9614" H 1750 2050 50  0000 C CNN
F 2 "Ultrasonic_Hat:SOP50P490X110-10N" H 2250 2700 50  0001 L CNN
F 3 "http://www.nxp.com/docs/en/data-sheet/PCA9614.pdf" H 2250 2600 50  0001 L CNN
	1    1700 2400
	1    0    0    -1  
$EndComp
Wire Wire Line
	2550 5800 2650 5800
Wire Wire Line
	2550 5900 2650 5900
Wire Wire Line
	2550 6000 2650 6000
Wire Wire Line
	2550 6100 2650 6100
Text GLabel 2650 5800 2    50   Output ~ 0
~CS
Text GLabel 2650 5900 2    50   Input ~ 0
MISO
Text GLabel 2650 6000 2    50   Output ~ 0
MOSI
Text GLabel 2650 6100 2    50   Output ~ 0
CLK
Text GLabel 2600 5000 2    50   Input ~ 0
SDA
Text GLabel 2600 5100 2    50   Input ~ 0
SCL
Wire Wire Line
	2550 5000 2600 5000
Wire Wire Line
	2550 5100 2600 5100
Wire Wire Line
	4400 3000 4300 3000
Wire Wire Line
	4400 2700 4300 2700
Wire Wire Line
	4400 2900 4300 2900
Text GLabel 4300 3000 0    50   Input ~ 0
~CS
Text GLabel 4300 2900 0    50   Input ~ 0
CLK
Text GLabel 4300 2700 0    50   Input ~ 0
MOSI
Text GLabel 4300 2800 0    50   Output ~ 0
MISO
Wire Wire Line
	4400 2800 4300 2800
Wire Wire Line
	4400 2600 4300 2600
Wire Wire Line
	4300 2600 4300 2200
Wire Wire Line
	4300 2200 4950 2200
Wire Wire Line
	4950 2200 4950 2250
Wire Wire Line
	4950 2200 5050 2200
Wire Wire Line
	5050 2200 5050 2250
Connection ~ 4950 2200
Wire Wire Line
	5050 2200 5150 2200
Wire Wire Line
	5150 2200 5150 2250
Connection ~ 5050 2200
Wire Wire Line
	4950 2200 4950 1900
$Comp
L power:+3V3 #PWR05
U 1 1 613A9FCF
P 4950 1650
F 0 "#PWR05" H 4950 1500 50  0001 C CNN
F 1 "+3V3" H 4965 1823 50  0000 C CNN
F 2 "" H 4950 1650 50  0001 C CNN
F 3 "" H 4950 1650 50  0001 C CNN
	1    4950 1650
	1    0    0    -1  
$EndComp
Wire Wire Line
	4400 3100 4300 3100
Wire Wire Line
	4400 3200 4300 3200
Text GLabel 4300 3100 0    50   Output ~ 0
~INT
Text GLabel 4300 3200 0    50   Output ~ 0
~WDO
Wire Wire Line
	950  5800 850  5800
Wire Wire Line
	950  5900 850  5900
Text GLabel 850  5900 0    50   Input ~ 0
~WDO
Wire Wire Line
	4700 4450 4700 4500
Wire Wire Line
	4700 4500 4800 4500
Wire Wire Line
	4800 4500 4800 4450
Wire Wire Line
	4800 4500 4850 4500
Wire Wire Line
	4900 4500 4900 4450
Connection ~ 4800 4500
Wire Wire Line
	4900 4500 5000 4500
Wire Wire Line
	5000 4500 5000 4450
Connection ~ 4900 4500
Wire Wire Line
	4850 4500 4850 4600
Connection ~ 4850 4500
Wire Wire Line
	4850 4500 4900 4500
$Comp
L power:Earth #PWR022
U 1 1 613D0DFA
P 4850 4600
F 0 "#PWR022" H 4850 4350 50  0001 C CNN
F 1 "Earth" H 4850 4450 50  0001 C CNN
F 2 "" H 4850 4600 50  0001 C CNN
F 3 "~" H 4850 4600 50  0001 C CNN
	1    4850 4600
	1    0    0    -1  
$EndComp
Connection ~ 8775 3050
Wire Wire Line
	8775 3050 8925 3050
$Comp
L Device:R_Small_US R9
U 1 1 613D5D04
P 8275 3350
F 0 "R9" V 8225 3250 50  0000 C CNN
F 1 "Jumber" V 8350 3350 50  0000 C CNN
F 2 "Resistor_SMD:R_1206_3216Metric_Pad1.30x1.75mm_HandSolder" H 8275 3350 50  0001 C CNN
F 3 "~" H 8275 3350 50  0001 C CNN
	1    8275 3350
	0    1    1    0   
$EndComp
Wire Wire Line
	8175 3350 8125 3350
Text GLabel 8125 3350 0    50   Input ~ 0
FETG
$Comp
L power:+3V3 #PWR09
U 1 1 613E50CC
P 1050 2000
F 0 "#PWR09" H 1050 1850 50  0001 C CNN
F 1 "+3V3" H 1065 2173 50  0000 C CNN
F 2 "" H 1050 2000 50  0001 C CNN
F 3 "" H 1050 2000 50  0001 C CNN
	1    1050 2000
	1    0    0    -1  
$EndComp
Wire Wire Line
	1100 2200 1050 2200
Wire Wire Line
	1050 2200 1050 2100
$Comp
L Device:C_Small C6
U 1 1 613E7CBD
P 850 2100
F 0 "C6" V 621 2100 50  0000 C CNN
F 1 "100n" V 712 2100 50  0000 C CNN
F 2 "Capacitor_SMD:C_0805_2012Metric" H 850 2100 50  0001 C CNN
F 3 "~" H 850 2100 50  0001 C CNN
	1    850  2100
	0    1    1    0   
$EndComp
Wire Wire Line
	950  2100 1050 2100
Connection ~ 1050 2100
Wire Wire Line
	1050 2100 1050 2000
$Comp
L power:Earth #PWR017
U 1 1 613EA220
P 1075 2675
F 0 "#PWR017" H 1075 2425 50  0001 C CNN
F 1 "Earth" H 1075 2525 50  0001 C CNN
F 2 "" H 1075 2675 50  0001 C CNN
F 3 "~" H 1075 2675 50  0001 C CNN
	1    1075 2675
	1    0    0    -1  
$EndComp
$Comp
L power:Earth #PWR011
U 1 1 613EA8D9
P 700 2100
F 0 "#PWR011" H 700 1850 50  0001 C CNN
F 1 "Earth" H 700 1950 50  0001 C CNN
F 2 "" H 700 2100 50  0001 C CNN
F 3 "~" H 700 2100 50  0001 C CNN
	1    700  2100
	0    1    1    0   
$EndComp
Wire Wire Line
	1100 2300 1050 2300
Wire Wire Line
	1050 2300 1050 2200
Connection ~ 1050 2200
Wire Wire Line
	2400 2200 2400 2100
$Comp
L Device:C_Small C7
U 1 1 613F658C
P 2600 2100
F 0 "C7" V 2371 2100 50  0000 C CNN
F 1 "100n" V 2462 2100 50  0000 C CNN
F 2 "Capacitor_SMD:C_0805_2012Metric" H 2600 2100 50  0001 C CNN
F 3 "~" H 2600 2100 50  0001 C CNN
	1    2600 2100
	0    -1   1    0   
$EndComp
Wire Wire Line
	2500 2100 2400 2100
Connection ~ 2400 2100
Wire Wire Line
	2400 2100 2400 2000
$Comp
L power:Earth #PWR012
U 1 1 613F6595
P 2750 2100
F 0 "#PWR012" H 2750 1850 50  0001 C CNN
F 1 "Earth" H 2750 1950 50  0001 C CNN
F 2 "" H 2750 2100 50  0001 C CNN
F 3 "~" H 2750 2100 50  0001 C CNN
	1    2750 2100
	0    -1   1    0   
$EndComp
Wire Wire Line
	2750 2100 2700 2100
$Comp
L power:+5V #PWR010
U 1 1 613F82A3
P 2400 2000
F 0 "#PWR010" H 2400 1850 50  0001 C CNN
F 1 "+5V" H 2415 2173 50  0000 C CNN
F 2 "" H 2400 2000 50  0001 C CNN
F 3 "" H 2400 2000 50  0001 C CNN
	1    2400 2000
	1    0    0    -1  
$EndComp
Text GLabel 1100 2450 0    50   Input ~ 0
SDA
Text GLabel 1100 2550 0    50   Input ~ 0
SCL
Text GLabel 1600 1800 0    50   Input ~ 0
SDA
Text GLabel 1600 1900 0    50   Input ~ 0
SCL
$Comp
L Device:R_Small_US R7
U 1 1 613FCDB6
P 1750 1800
F 0 "R7" V 1725 1875 50  0000 L CNN
F 1 "3.3k" V 1650 1725 50  0000 L CNN
F 2 "Resistor_SMD:R_1206_3216Metric_Pad1.30x1.75mm_HandSolder" H 1750 1800 50  0001 C CNN
F 3 "~" H 1750 1800 50  0001 C CNN
	1    1750 1800
	0    1    1    0   
$EndComp
$Comp
L Device:R_Small_US R8
U 1 1 613FD551
P 1750 1900
F 0 "R8" V 1775 1975 50  0000 L CNN
F 1 "3.3k" V 1825 1825 50  0000 L CNN
F 2 "Resistor_SMD:R_1206_3216Metric_Pad1.30x1.75mm_HandSolder" H 1750 1900 50  0001 C CNN
F 3 "~" H 1750 1900 50  0001 C CNN
	1    1750 1900
	0    1    1    0   
$EndComp
Wire Wire Line
	1850 1800 1900 1800
Wire Wire Line
	1900 1800 1900 1850
Wire Wire Line
	1900 1900 1850 1900
Wire Wire Line
	1900 1850 1950 1850
Connection ~ 1900 1850
Wire Wire Line
	1900 1850 1900 1900
$Comp
L power:+3V3 #PWR08
U 1 1 61406510
P 1950 1850
F 0 "#PWR08" H 1950 1700 50  0001 C CNN
F 1 "+3V3" H 1965 2023 50  0000 C CNN
F 2 "" H 1950 1850 50  0001 C CNN
F 3 "" H 1950 1850 50  0001 C CNN
	1    1950 1850
	0    1    1    0   
$EndComp
Wire Wire Line
	1650 1800 1600 1800
Wire Wire Line
	1600 1900 1650 1900
$Comp
L Device:R_Small_US R11
U 1 1 6142F267
P 9625 3600
F 0 "R11" V 9550 3600 50  0000 C CNN
F 1 "22k" V 9700 3600 50  0000 C CNN
F 2 "Resistor_SMD:R_1206_3216Metric_Pad1.30x1.75mm_HandSolder" H 9625 3600 50  0001 C CNN
F 3 "~" H 9625 3600 50  0001 C CNN
	1    9625 3600
	0    1    1    0   
$EndComp
$Comp
L Device:C_Small C13
U 1 1 6142FBA0
P 9475 3750
F 0 "C13" H 9300 3825 50  0000 L CNN
F 1 "470p" H 9275 3675 50  0000 L CNN
F 2 "Capacitor_SMD:C_0805_2012Metric" H 9475 3750 50  0001 C CNN
F 3 "~" H 9475 3750 50  0001 C CNN
	1    9475 3750
	1    0    0    -1  
$EndComp
$Comp
L Device:C_Small C14
U 1 1 6142FFB1
P 9775 3750
F 0 "C14" H 9600 3825 50  0000 L CNN
F 1 "10n" H 9600 3675 50  0000 L CNN
F 2 "Capacitor_SMD:C_0805_2012Metric" H 9775 3750 50  0001 C CNN
F 3 "~" H 9775 3750 50  0001 C CNN
	1    9775 3750
	-1   0    0    -1  
$EndComp
Wire Wire Line
	9525 3600 9475 3600
Wire Wire Line
	9475 3600 9475 3650
Wire Wire Line
	9725 3600 9775 3600
Wire Wire Line
	9775 3600 9775 3650
Wire Wire Line
	9475 3850 9475 3900
Wire Wire Line
	9475 3900 9625 3900
Wire Wire Line
	9775 3900 9775 3850
Wire Wire Line
	9625 3900 9625 3950
Connection ~ 9625 3900
Wire Wire Line
	9625 3900 9775 3900
$Comp
L power:Earth #PWR019
U 1 1 61444641
P 9625 3950
F 0 "#PWR019" H 9625 3700 50  0001 C CNN
F 1 "Earth" H 9625 3800 50  0001 C CNN
F 2 "" H 9625 3950 50  0001 C CNN
F 3 "~" H 9625 3950 50  0001 C CNN
	1    9625 3950
	1    0    0    -1  
$EndComp
Wire Wire Line
	9475 3600 9375 3600
Connection ~ 9475 3600
Text GLabel 9375 3600 0    50   Input ~ 0
COMP
Text GLabel 6225 3200 2    50   Input ~ 0
COMP
Text GLabel 6225 3000 2    50   Input ~ 0
CSIN
Text GLabel 6225 2900 2    50   Output ~ 0
FETG
$Comp
L Device:C_Small C5
U 1 1 6144ACE4
P 5500 2050
F 0 "C5" V 5450 1900 50  0000 L CNN
F 1 "100nF" V 5600 1950 50  0000 L CNN
F 2 "Capacitor_SMD:C_0805_2012Metric" H 5500 2050 50  0001 C CNN
F 3 "~" H 5500 2050 50  0001 C CNN
	1    5500 2050
	0    1    1    0   
$EndComp
Wire Wire Line
	5400 2050 5350 2050
Wire Wire Line
	5350 2050 5350 2200
Wire Wire Line
	5350 2200 5450 2200
Wire Wire Line
	5450 2200 5450 2250
Wire Wire Line
	5550 2200 5550 2250
Wire Wire Line
	5550 2200 5650 2200
Wire Wire Line
	5650 2200 5650 2050
Wire Wire Line
	5650 2050 5600 2050
$Comp
L Device:C_Small C8
U 1 1 6145595A
P 5900 2200
F 0 "C8" V 5850 2050 50  0000 L CNN
F 1 "1uF" V 6000 2150 50  0000 L CNN
F 2 "Capacitor_SMD:C_0805_2012Metric" H 5900 2200 50  0001 C CNN
F 3 "~" H 5900 2200 50  0001 C CNN
	1    5900 2200
	0    1    1    0   
$EndComp
Wire Wire Line
	5800 2200 5750 2200
Wire Wire Line
	5750 2200 5750 2250
$Comp
L power:Earth #PWR013
U 1 1 61459C71
P 6050 2200
F 0 "#PWR013" H 6050 1950 50  0001 C CNN
F 1 "Earth" H 6050 2050 50  0001 C CNN
F 2 "" H 6050 2200 50  0001 C CNN
F 3 "~" H 6050 2200 50  0001 C CNN
	1    6050 2200
	0    -1   -1   0   
$EndComp
Wire Wire Line
	6000 2200 6050 2200
$Comp
L Device:Crystal_Small Y1
U 1 1 6145EC8B
P 5250 4700
F 0 "Y1" H 5250 4800 50  0000 C CNN
F 1 "32.768K" V 5100 4750 50  0000 C CNN
F 2 "Ultrasonic_Hat:ECS32712512RCTR" H 5250 4700 50  0001 C CNN
F 3 "~" H 5250 4700 50  0001 C CNN
	1    5250 4700
	1    0    0    -1  
$EndComp
$Comp
L Device:Crystal_Small Y2
U 1 1 6145F943
P 5550 4700
F 0 "Y2" H 5550 4800 50  0000 C CNN
F 1 "4MHz" V 5700 4700 50  0000 C CNN
F 2 "Ultrasonic_Hat:ABLS-4.000MHZ-B2-T" H 5550 4700 50  0001 C CNN
F 3 "~" H 5550 4700 50  0001 C CNN
	1    5550 4700
	1    0    0    -1  
$EndComp
Wire Wire Line
	5150 4700 5150 4550
Wire Wire Line
	5150 4550 5200 4550
Wire Wire Line
	5200 4550 5200 4450
Wire Wire Line
	5300 4450 5300 4550
Wire Wire Line
	5300 4550 5350 4550
Wire Wire Line
	5350 4550 5350 4700
Wire Wire Line
	5600 4450 5600 4550
Wire Wire Line
	5600 4550 5650 4550
Wire Wire Line
	5650 4550 5650 4700
Wire Wire Line
	5450 4700 5450 4550
Wire Wire Line
	5450 4550 5500 4550
Wire Wire Line
	5500 4550 5500 4450
$Comp
L Device:C_Small C18
U 1 1 61496DC5
P 5450 4900
F 0 "C18" H 5450 5000 50  0000 L CNN
F 1 "12p" H 5450 4800 50  0000 L CNN
F 2 "Capacitor_SMD:C_0805_2012Metric" H 5450 4900 50  0001 C CNN
F 3 "~" H 5450 4900 50  0001 C CNN
	1    5450 4900
	1    0    0    -1  
$EndComp
$Comp
L Device:C_Small C17
U 1 1 61497725
P 5350 4900
F 0 "C17" H 5250 5000 50  0000 L CNN
F 1 "12p" H 5200 4800 50  0000 L CNN
F 2 "Capacitor_SMD:C_0805_2012Metric" H 5350 4900 50  0001 C CNN
F 3 "~" H 5350 4900 50  0001 C CNN
	1    5350 4900
	1    0    0    -1  
$EndComp
$Comp
L Device:C_Small C16
U 1 1 61497B1C
P 5150 4900
F 0 "C16" H 4950 4900 50  0000 L CNN
F 1 "12p" H 5000 4800 50  0000 L CNN
F 2 "Capacitor_SMD:C_0805_2012Metric" H 5150 4900 50  0001 C CNN
F 3 "~" H 5150 4900 50  0001 C CNN
	1    5150 4900
	1    0    0    -1  
$EndComp
$Comp
L Device:C_Small C19
U 1 1 61498012
P 5650 4900
F 0 "C19" H 5750 4900 50  0000 L CNN
F 1 "12p" H 5650 4800 50  0000 L CNN
F 2 "Capacitor_SMD:C_0805_2012Metric" H 5650 4900 50  0001 C CNN
F 3 "~" H 5650 4900 50  0001 C CNN
	1    5650 4900
	1    0    0    -1  
$EndComp
Wire Wire Line
	5450 4800 5450 4700
Connection ~ 5450 4700
Wire Wire Line
	5650 4800 5650 4700
Connection ~ 5650 4700
Wire Wire Line
	5350 4800 5350 4700
Connection ~ 5350 4700
Wire Wire Line
	5150 4800 5150 4700
Connection ~ 5150 4700
Wire Wire Line
	5150 5000 5150 5050
Wire Wire Line
	5150 5050 5350 5050
Wire Wire Line
	5650 5050 5650 5000
Wire Wire Line
	5350 5000 5350 5050
Connection ~ 5350 5050
Wire Wire Line
	5350 5050 5400 5050
Wire Wire Line
	5450 5000 5450 5050
Connection ~ 5450 5050
Wire Wire Line
	5450 5050 5650 5050
$Comp
L power:Earth #PWR023
U 1 1 614BAF69
P 5400 5100
F 0 "#PWR023" H 5400 4850 50  0001 C CNN
F 1 "Earth" H 5400 4950 50  0001 C CNN
F 2 "" H 5400 5100 50  0001 C CNN
F 3 "~" H 5400 5100 50  0001 C CNN
	1    5400 5100
	1    0    0    -1  
$EndComp
Wire Wire Line
	5400 5100 5400 5050
Connection ~ 5400 5050
Wire Wire Line
	5400 5050 5450 5050
$Comp
L Device:C_Small C2
U 1 1 614CF54A
P 5150 1700
F 0 "C2" V 5100 1850 50  0000 R CNN
F 1 "100n" V 5250 1800 50  0000 R CNN
F 2 "Capacitor_SMD:C_0805_2012Metric" H 5150 1700 50  0001 C CNN
F 3 "~" H 5150 1700 50  0001 C CNN
	1    5150 1700
	0    -1   1    0   
$EndComp
$Comp
L Device:C_Small C4
U 1 1 614E6057
P 5150 1900
F 0 "C4" V 5100 1850 50  0000 R CNN
F 1 "22u" V 5050 2000 50  0000 R CNN
F 2 "Capacitor_SMD:C_0805_2012Metric" H 5150 1900 50  0001 C CNN
F 3 "~" H 5150 1900 50  0001 C CNN
	1    5150 1900
	0    1    -1   0   
$EndComp
Wire Wire Line
	4850 1700 4950 1700
Connection ~ 4950 1700
Wire Wire Line
	4950 1700 4950 1650
Wire Wire Line
	5050 1700 4950 1700
Wire Wire Line
	4850 1900 4950 1900
Connection ~ 4950 1900
Wire Wire Line
	4950 1900 4950 1700
Wire Wire Line
	5050 1900 4950 1900
Wire Wire Line
	4650 1900 4650 1800
$Comp
L power:Earth #PWR07
U 1 1 6150B237
P 5300 1800
F 0 "#PWR07" H 5300 1550 50  0001 C CNN
F 1 "Earth" H 5300 1650 50  0001 C CNN
F 2 "" H 5300 1800 50  0001 C CNN
F 3 "~" H 5300 1800 50  0001 C CNN
	1    5300 1800
	0    -1   -1   0   
$EndComp
Connection ~ 5250 1800
Wire Wire Line
	5250 1800 5250 1700
Wire Wire Line
	5250 1800 5250 1900
$Comp
L Device:C_Small C3
U 1 1 614D0A7A
P 4750 1900
F 0 "C3" V 4700 1850 50  0000 R CNN
F 1 "100n" V 4650 2050 50  0000 R CNN
F 2 "Capacitor_SMD:C_0805_2012Metric" H 4750 1900 50  0001 C CNN
F 3 "~" H 4750 1900 50  0001 C CNN
	1    4750 1900
	0    1    -1   0   
$EndComp
$Comp
L power:Earth #PWR06
U 1 1 6153366D
P 4600 1800
F 0 "#PWR06" H 4600 1550 50  0001 C CNN
F 1 "Earth" H 4600 1650 50  0001 C CNN
F 2 "" H 4600 1800 50  0001 C CNN
F 3 "~" H 4600 1800 50  0001 C CNN
	1    4600 1800
	0    1    1    0   
$EndComp
Wire Wire Line
	4600 1800 4650 1800
Connection ~ 4650 1800
Wire Wire Line
	4650 1800 4650 1700
Wire Wire Line
	5300 1800 5250 1800
$Comp
L Device:C_Small C10
U 1 1 61544250
P 6350 2650
F 0 "C10" V 6250 2450 50  0000 L CNN
F 1 "2.2uF" V 6250 2700 50  0000 L CNN
F 2 "Capacitor_SMD:C_0805_2012Metric" H 6350 2650 50  0001 C CNN
F 3 "~" H 6350 2650 50  0001 C CNN
	1    6350 2650
	0    1    1    0   
$EndComp
$Comp
L power:Earth #PWR016
U 1 1 61544256
P 6550 2650
F 0 "#PWR016" H 6550 2400 50  0001 C CNN
F 1 "Earth" H 6550 2500 50  0001 C CNN
F 2 "" H 6550 2650 50  0001 C CNN
F 3 "~" H 6550 2650 50  0001 C CNN
	1    6550 2650
	0    -1   -1   0   
$EndComp
Wire Wire Line
	6450 2650 6550 2650
Wire Wire Line
	6200 2650 6250 2650
Text GLabel 6225 2750 2    50   Input ~ 0
VP
Wire Wire Line
	4700 4500 4350 4500
Wire Wire Line
	4350 4500 4350 4200
Connection ~ 4700 4500
Wire Wire Line
	4350 4000 4350 3950
Wire Wire Line
	4350 3950 4400 3950
$Comp
L Device:C_Small C9
U 1 1 615ECCB0
P 7900 6000
F 0 "C9" H 7808 5954 50  0000 R CNN
F 1 "100n" H 7808 6045 50  0000 R CNN
F 2 "Capacitor_SMD:C_0805_2012Metric" H 7900 6000 50  0001 C CNN
F 3 "~" H 7900 6000 50  0001 C CNN
	1    7900 6000
	1    0    0    1   
$EndComp
$Comp
L Device:C_Small C22
U 1 1 615EE6C3
P 8850 6000
F 0 "C22" H 8675 6100 50  0000 L CNN
F 1 "10uF" H 8875 5925 50  0000 L CNN
F 2 "Capacitor_SMD:C_1210_3225Metric_Pad1.33x2.70mm_HandSolder" H 8850 6000 50  0001 C CNN
F 3 "~" H 8850 6000 50  0001 C CNN
	1    8850 6000
	1    0    0    -1  
$EndComp
$Comp
L Ultrasonic_HAT:AP7315DQ-33W5-7 U2
U 1 1 615FD2E6
P 6900 5850
F 0 "U2" H 7100 5600 50  0000 C CNN
F 1 "AP7315DQ-33W5-7" H 6750 6050 50  0000 C CNN
F 2 "Package_TO_SOT_SMD:SOT-23-5" H 7550 5500 50  0001 C CNN
F 3 "https://www.diodes.com/assets/Datasheets/AP7315Q.pdf" H 6900 5850 50  0001 C CNN
	1    6900 5850
	-1   0    0    -1  
$EndComp
$Comp
L power:Earth #PWR032
U 1 1 61607440
P 6900 6250
F 0 "#PWR032" H 6900 6000 50  0001 C CNN
F 1 "Earth" H 6900 6100 50  0001 C CNN
F 2 "" H 6900 6250 50  0001 C CNN
F 3 "~" H 6900 6250 50  0001 C CNN
	1    6900 6250
	-1   0    0    -1  
$EndComp
Wire Wire Line
	7250 5950 7350 5950
Wire Wire Line
	7350 5950 7350 5800
Wire Wire Line
	7350 5800 7250 5800
Wire Wire Line
	9300 5800 9400 5800
Wire Wire Line
	9400 5900 9400 5800
Connection ~ 9400 5800
Wire Wire Line
	9400 5800 9475 5800
Wire Wire Line
	8850 5900 8850 5800
Wire Wire Line
	8850 5800 9000 5800
Wire Wire Line
	8700 5800 8850 5800
Connection ~ 8850 5800
$Comp
L power:Earth #PWR029
U 1 1 6163EDBF
P 8400 6100
F 0 "#PWR029" H 8400 5850 50  0001 C CNN
F 1 "Earth" H 8400 5950 50  0001 C CNN
F 2 "" H 8400 6100 50  0001 C CNN
F 3 "~" H 8400 6100 50  0001 C CNN
	1    8400 6100
	-1   0    0    -1  
$EndComp
$Comp
L power:Earth #PWR030
U 1 1 6163F0E9
P 8850 6100
F 0 "#PWR030" H 8850 5850 50  0001 C CNN
F 1 "Earth" H 8850 5950 50  0001 C CNN
F 2 "" H 8850 6100 50  0001 C CNN
F 3 "~" H 8850 6100 50  0001 C CNN
	1    8850 6100
	-1   0    0    -1  
$EndComp
$Comp
L power:Earth #PWR031
U 1 1 6163F496
P 9400 6100
F 0 "#PWR031" H 9400 5850 50  0001 C CNN
F 1 "Earth" H 9400 5950 50  0001 C CNN
F 2 "" H 9400 6100 50  0001 C CNN
F 3 "~" H 9400 6100 50  0001 C CNN
	1    9400 6100
	-1   0    0    -1  
$EndComp
Connection ~ 7900 5800
Connection ~ 7350 5800
$Comp
L Device:R_Small_US R3
U 1 1 61385CD0
P 1300 1200
F 0 "R3" H 1368 1246 50  0000 L CNN
F 1 "120" H 1368 1155 50  0000 L CNN
F 2 "Resistor_SMD:R_1206_3216Metric_Pad1.30x1.75mm_HandSolder" H 1300 1200 50  0001 C CNN
F 3 "~" H 1300 1200 50  0001 C CNN
	1    1300 1200
	1    0    0    -1  
$EndComp
$Comp
L power:+3V3 #PWR025
U 1 1 61675F1B
P 6500 5750
F 0 "#PWR025" H 6500 5600 50  0001 C CNN
F 1 "+3V3" H 6515 5923 50  0000 C CNN
F 2 "" H 6500 5750 50  0001 C CNN
F 3 "" H 6500 5750 50  0001 C CNN
	1    6500 5750
	1    0    0    -1  
$EndComp
Wire Wire Line
	6500 5750 6500 5800
Wire Wire Line
	6500 5800 6550 5800
$Comp
L power:+5V #PWR024
U 1 1 61681930
P 7900 5700
F 0 "#PWR024" H 7900 5550 50  0001 C CNN
F 1 "+5V" H 7915 5873 50  0000 C CNN
F 2 "" H 7900 5700 50  0001 C CNN
F 3 "" H 7900 5700 50  0001 C CNN
	1    7900 5700
	1    0    0    -1  
$EndComp
Wire Wire Line
	7900 5700 7900 5800
$Comp
L Mechanical:MountingHole_Pad H1
U 1 1 616A2B71
P 5400 7000
F 0 "H1" V 5354 7150 50  0000 L CNN
F 1 "MountingHole_Pad" V 5445 7150 50  0000 L CNN
F 2 "Mounting_Holes:MountingHole_2.7mm_Pad_Via" H 5400 7000 50  0001 C CNN
F 3 "~" H 5400 7000 50  0001 C CNN
	1    5400 7000
	0    1    1    0   
$EndComp
$Comp
L Mechanical:MountingHole_Pad H2
U 1 1 616A4072
P 5400 7200
F 0 "H2" V 5354 7350 50  0000 L CNN
F 1 "MountingHole_Pad" V 5445 7350 50  0000 L CNN
F 2 "Mounting_Holes:MountingHole_2.7mm_Pad_Via" H 5400 7200 50  0001 C CNN
F 3 "~" H 5400 7200 50  0001 C CNN
	1    5400 7200
	0    1    1    0   
$EndComp
$Comp
L Mechanical:MountingHole_Pad H3
U 1 1 616A42FA
P 5400 7400
F 0 "H3" V 5354 7550 50  0000 L CNN
F 1 "MountingHole_Pad" V 5445 7550 50  0000 L CNN
F 2 "Mounting_Holes:MountingHole_2.7mm_Pad_Via" H 5400 7400 50  0001 C CNN
F 3 "~" H 5400 7400 50  0001 C CNN
	1    5400 7400
	0    1    1    0   
$EndComp
$Comp
L Mechanical:MountingHole_Pad H4
U 1 1 616A4485
P 5400 7600
F 0 "H4" V 5354 7750 50  0000 L CNN
F 1 "MountingHole_Pad" V 5445 7750 50  0000 L CNN
F 2 "Mounting_Holes:MountingHole_2.7mm_Pad_Via" H 5400 7600 50  0001 C CNN
F 3 "~" H 5400 7600 50  0001 C CNN
	1    5400 7600
	0    1    1    0   
$EndComp
Wire Wire Line
	5300 7000 5200 7000
Wire Wire Line
	5200 7000 5200 7200
Wire Wire Line
	5300 7600 5200 7600
Connection ~ 5200 7600
Wire Wire Line
	5200 7600 5200 7800
Wire Wire Line
	5300 7400 5200 7400
Connection ~ 5200 7400
Wire Wire Line
	5200 7400 5200 7600
Wire Wire Line
	5300 7200 5200 7200
Connection ~ 5200 7200
Wire Wire Line
	5200 7200 5200 7400
$Comp
L power:Earth #PWR035
U 1 1 616CFEA3
P 5200 7800
F 0 "#PWR035" H 5200 7550 50  0001 C CNN
F 1 "Earth" H 5200 7650 50  0001 C CNN
F 2 "" H 5200 7800 50  0001 C CNN
F 3 "~" H 5200 7800 50  0001 C CNN
	1    5200 7800
	-1   0    0    -1  
$EndComp
$Comp
L Device:C_Small C20
U 1 1 616D1B4E
P 6500 5900
F 0 "C20" H 6325 5975 50  0000 L CNN
F 1 "10uF" H 6300 5800 50  0000 L CNN
F 2 "Capacitor_SMD:C_1206_3216Metric_Pad1.33x1.80mm_HandSolder" H 6500 5900 50  0001 C CNN
F 3 "~" H 6500 5900 50  0001 C CNN
	1    6500 5900
	1    0    0    -1  
$EndComp
$Comp
L power:Earth #PWR027
U 1 1 616D1B54
P 6500 6000
F 0 "#PWR027" H 6500 5750 50  0001 C CNN
F 1 "Earth" H 6500 5850 50  0001 C CNN
F 2 "" H 6500 6000 50  0001 C CNN
F 3 "~" H 6500 6000 50  0001 C CNN
	1    6500 6000
	-1   0    0    -1  
$EndComp
Connection ~ 6500 5800
$Comp
L Device:C_Small C21
U 1 1 616E87F1
P 8525 2775
F 0 "C21" H 8550 2850 50  0000 L CNN
F 1 "10uF" H 8575 2700 50  0000 L CNN
F 2 "Capacitor_SMD:C_1210_3225Metric_Pad1.33x2.70mm_HandSolder" H 8525 2775 50  0001 C CNN
F 3 "~" H 8525 2775 50  0001 C CNN
	1    8525 2775
	-1   0    0    -1  
$EndComp
$Comp
L power:Earth #PWR028
U 1 1 616E87F7
P 8525 2875
F 0 "#PWR028" H 8525 2625 50  0001 C CNN
F 1 "Earth" H 8525 2725 50  0001 C CNN
F 2 "" H 8525 2875 50  0001 C CNN
F 3 "~" H 8525 2875 50  0001 C CNN
	1    8525 2875
	1    0    0    -1  
$EndComp
Wire Wire Line
	8100 5800 7900 5800
$Comp
L Device:D_Schottky_ALT D2
U 1 1 6174AE0C
P 9625 5800
F 0 "D2" H 9475 5850 50  0000 C CNN
F 1 "SMD18PL-TP" H 9675 5700 50  0000 C CNN
F 2 "Ultrasonic_Hat:SODFL3616X135N" H 9625 5800 50  0001 C CNN
F 3 "https://www.mccsemi.com/pdf/Products/SMD15PL-SMD18PL(SOD-123FL).pdf" H 9625 5800 50  0001 C CNN
	1    9625 5800
	1    0    0    -1  
$EndComp
$Comp
L power:Earth #PWR033
U 1 1 61764330
P 9850 6275
F 0 "#PWR033" H 9850 6025 50  0001 C CNN
F 1 "Earth" H 9850 6125 50  0001 C CNN
F 2 "" H 9850 6275 50  0001 C CNN
F 3 "~" H 9850 6275 50  0001 C CNN
	1    9850 6275
	-1   0    0    -1  
$EndComp
Wire Wire Line
	9900 6000 9850 6000
Wire Wire Line
	9850 6000 9850 6250
Wire Wire Line
	9775 5800 9900 5800
$Comp
L Device:R_Small_US R1
U 1 1 6177C7DD
P 1300 900
F 0 "R1" H 1368 946 50  0000 L CNN
F 1 "600" H 1368 855 50  0000 L CNN
F 2 "Resistor_SMD:R_1206_3216Metric_Pad1.30x1.75mm_HandSolder" H 1300 900 50  0001 C CNN
F 3 "~" H 1300 900 50  0001 C CNN
	1    1300 900 
	1    0    0    -1  
$EndComp
$Comp
L Device:R_Small_US R5
U 1 1 6177CE07
P 1300 1500
F 0 "R5" H 1368 1546 50  0000 L CNN
F 1 "600" H 1368 1455 50  0000 L CNN
F 2 "Resistor_SMD:R_1206_3216Metric_Pad1.30x1.75mm_HandSolder" H 1300 1500 50  0001 C CNN
F 3 "~" H 1300 1500 50  0001 C CNN
	1    1300 1500
	1    0    0    -1  
$EndComp
$Comp
L power:+5V #PWR01
U 1 1 6177D1C6
P 1300 750
F 0 "#PWR01" H 1300 600 50  0001 C CNN
F 1 "+5V" H 1315 923 50  0000 C CNN
F 2 "" H 1300 750 50  0001 C CNN
F 3 "" H 1300 750 50  0001 C CNN
	1    1300 750 
	1    0    0    -1  
$EndComp
$Comp
L power:Earth #PWR03
U 1 1 6177DA4E
P 1300 1650
F 0 "#PWR03" H 1300 1400 50  0001 C CNN
F 1 "Earth" H 1300 1500 50  0001 C CNN
F 2 "" H 1300 1650 50  0001 C CNN
F 3 "~" H 1300 1650 50  0001 C CNN
	1    1300 1650
	-1   0    0    -1  
$EndComp
Wire Wire Line
	1300 1650 1300 1600
Wire Wire Line
	1300 1400 1300 1350
Wire Wire Line
	1300 1000 1300 1050
Wire Wire Line
	1300 800  1300 750 
Text GLabel 2400 2400 2    50   Output ~ 0
DSDA+
Text GLabel 2400 2300 2    50   Output ~ 0
DSDA-
Text GLabel 2400 2500 2    50   Output ~ 0
DSCL+
Text GLabel 2400 2600 2    50   Output ~ 0
DSCL-
$Comp
L Device:R_Small_US R4
U 1 1 617B25EE
P 2200 1200
F 0 "R4" H 2268 1246 50  0000 L CNN
F 1 "120" H 2268 1155 50  0000 L CNN
F 2 "Resistor_SMD:R_1206_3216Metric_Pad1.30x1.75mm_HandSolder" H 2200 1200 50  0001 C CNN
F 3 "~" H 2200 1200 50  0001 C CNN
	1    2200 1200
	1    0    0    -1  
$EndComp
$Comp
L Device:R_Small_US R2
U 1 1 617B25F4
P 2200 900
F 0 "R2" H 2268 946 50  0000 L CNN
F 1 "600" H 2268 855 50  0000 L CNN
F 2 "Resistor_SMD:R_1206_3216Metric_Pad1.30x1.75mm_HandSolder" H 2200 900 50  0001 C CNN
F 3 "~" H 2200 900 50  0001 C CNN
	1    2200 900 
	1    0    0    -1  
$EndComp
$Comp
L Device:R_Small_US R6
U 1 1 617B25FA
P 2200 1500
F 0 "R6" H 2268 1546 50  0000 L CNN
F 1 "600" H 2268 1455 50  0000 L CNN
F 2 "Resistor_SMD:R_1206_3216Metric_Pad1.30x1.75mm_HandSolder" H 2200 1500 50  0001 C CNN
F 3 "~" H 2200 1500 50  0001 C CNN
	1    2200 1500
	1    0    0    -1  
$EndComp
$Comp
L power:+5V #PWR02
U 1 1 617B2600
P 2200 750
F 0 "#PWR02" H 2200 600 50  0001 C CNN
F 1 "+5V" H 2215 923 50  0000 C CNN
F 2 "" H 2200 750 50  0001 C CNN
F 3 "" H 2200 750 50  0001 C CNN
	1    2200 750 
	1    0    0    -1  
$EndComp
$Comp
L power:Earth #PWR04
U 1 1 617B2606
P 2200 1650
F 0 "#PWR04" H 2200 1400 50  0001 C CNN
F 1 "Earth" H 2200 1500 50  0001 C CNN
F 2 "" H 2200 1650 50  0001 C CNN
F 3 "~" H 2200 1650 50  0001 C CNN
	1    2200 1650
	-1   0    0    -1  
$EndComp
Wire Wire Line
	2200 1650 2200 1600
Wire Wire Line
	2200 1400 2200 1350
Wire Wire Line
	2200 1000 2200 1050
Wire Wire Line
	2200 800  2200 750 
Wire Wire Line
	2300 1050 2200 1050
Connection ~ 2200 1050
Wire Wire Line
	2200 1050 2200 1100
Wire Wire Line
	2300 1350 2200 1350
Connection ~ 2200 1350
Wire Wire Line
	2200 1350 2200 1300
Text GLabel 2150 1350 0    50   Input ~ 0
DSCL-
Text GLabel 2150 1050 0    50   Input ~ 0
DSCL+
Wire Wire Line
	2150 1050 2200 1050
Wire Wire Line
	2150 1350 2200 1350
Text GLabel 1250 1350 0    50   Input ~ 0
DSDA-
Wire Wire Line
	1250 1050 1300 1050
Connection ~ 1300 1050
Wire Wire Line
	1300 1050 1300 1100
Wire Wire Line
	1300 1050 1350 1050
Wire Wire Line
	1350 1350 1300 1350
Connection ~ 1300 1350
Wire Wire Line
	1300 1350 1300 1300
Wire Wire Line
	1250 1350 1300 1350
Text GLabel 1250 1050 0    50   Input ~ 0
DSDA+
Text GLabel 850  5800 0    50   Input ~ 0
~INT
$Comp
L Device:C_Small C1
U 1 1 614D056F
P 4750 1700
F 0 "C1" V 4700 1650 50  0000 R CNN
F 1 "100n" V 4850 1750 50  0000 R CNN
F 2 "Capacitor_SMD:C_0805_2012Metric" H 4750 1700 50  0001 C CNN
F 3 "~" H 4750 1700 50  0001 C CNN
	1    4750 1700
	0    -1   1    0   
$EndComp
Wire Wire Line
	9900 6250 9850 6250
Connection ~ 9850 6250
Wire Wire Line
	9850 6250 9850 6275
Wire Wire Line
	7700 5650 7750 5650
Wire Wire Line
	7750 5650 7750 5800
Wire Wire Line
	7350 5800 7750 5800
Wire Wire Line
	7900 5800 7750 5800
Connection ~ 7750 5800
Text Notes 6700 6700 0    200  Italic 40
Power Supply Section
Wire Notes Line width 12
	475  3125 2875 3125
Wire Notes Line width 12
	475  2875 2875 2875
Wire Notes Line width 12
	2875 475  2875 3125
Text Notes 775  3100 0    150  Italic 30
Differential I2C
Wire Notes Line width 12
	6275 6775 6275 5425
Wire Notes Line width 12
	6275 5425 10525 5425
Wire Notes Line width 12
	6275 6400 10525 6400
Wire Wire Line
	6225 2750 6200 2750
Wire Wire Line
	6200 2900 6225 2900
Wire Wire Line
	6200 3000 6225 3000
Wire Wire Line
	6200 3100 6225 3100
Wire Wire Line
	6200 3200 6225 3200
NoConn ~ 6200 3950
NoConn ~ 6200 4050
NoConn ~ 6200 4150
NoConn ~ 950  4700
NoConn ~ 950  4800
NoConn ~ 950  5000
NoConn ~ 950  5100
NoConn ~ 950  5200
NoConn ~ 950  5400
NoConn ~ 950  5500
NoConn ~ 950  5600
NoConn ~ 950  6000
NoConn ~ 950  6100
NoConn ~ 950  6200
NoConn ~ 950  6300
NoConn ~ 2550 6300
NoConn ~ 2550 6400
NoConn ~ 2550 5500
NoConn ~ 2550 5400
NoConn ~ 2550 5700
NoConn ~ 2550 5300
NoConn ~ 2550 4800
NoConn ~ 2550 4700
NoConn ~ 1850 4300
NoConn ~ 1950 4300
Text GLabel 9625 3050 2    50   Output ~ 0
VP
Wire Wire Line
	9625 3050 9525 3050
Connection ~ 9525 3050
Text GLabel 8075 3525 0    50   Input ~ 0
CSIN
Wire Wire Line
	8125 3525 8125 3600
Connection ~ 8125 3600
Wire Wire Line
	8075 3525 8125 3525
Wire Wire Line
	700  2100 750  2100
$Comp
L Ultrasonic_HAT:Conn_01x01_Female J4
U 5 1 6183378F
P 1550 1350
F 0 "J4" H 1578 1376 50  0000 L CNN
F 1 "IF_port" H 1578 1285 50  0000 L CNN
F 2 "Ultrasonic_Hat:SPT1.5_12-H-3.5" H 1600 1100 50  0001 C CNN
F 3 "~" H 1550 1350 50  0001 C CNN
	5    1550 1350
	1    0    0    -1  
$EndComp
$Comp
L Ultrasonic_HAT:Conn_01x01_Female J4
U 1 1 6175E890
P 10100 5800
F 0 "J4" H 10128 5826 50  0000 L CNN
F 1 "IF_port" H 10128 5735 50  0000 L CNN
F 2 "Ultrasonic_Hat:SPT1.5_12-H-3.5" H 10150 5550 50  0001 C CNN
F 3 "~" H 10100 5800 50  0001 C CNN
	1    10100 5800
	1    0    0    -1  
$EndComp
$Comp
L Ultrasonic_HAT:Conn_01x01_Female J4
U 2 1 6176009C
P 10100 6000
F 0 "J4" H 10128 6026 50  0000 L CNN
F 1 "IF_port" H 10128 5935 50  0000 L CNN
F 2 "Ultrasonic_Hat:SPT1.5_12-H-3.5" H 10150 5750 50  0001 C CNN
F 3 "~" H 10100 6000 50  0001 C CNN
	2    10100 6000
	1    0    0    -1  
$EndComp
$Comp
L Ultrasonic_HAT:Conn_01x01_Female J4
U 3 1 618EC24C
P 10100 6250
F 0 "J4" H 10128 6276 50  0000 L CNN
F 1 "IF_port" H 10128 6185 50  0000 L CNN
F 2 "Ultrasonic_Hat:SPT1.5_12-H-3.5" H 10150 6000 50  0001 C CNN
F 3 "~" H 10100 6250 50  0001 C CNN
	3    10100 6250
	1    0    0    -1  
$EndComp
$Comp
L Ultrasonic_HAT:Conn_01x01_Female J4
U 4 1 6191452B
P 7500 5650
F 0 "J4" H 7450 5550 50  0000 C CNN
F 1 "IF_port" H 7400 5750 50  0000 C CNN
F 2 "Ultrasonic_Hat:SPT1.5_12-H-3.5" H 7550 5400 50  0001 C CNN
F 3 "~" H 7500 5650 50  0001 C CNN
	4    7500 5650
	-1   0    0    1   
$EndComp
$Comp
L Ultrasonic_HAT:Conn_01x01_Female J4
U 12 1 61E305B5
P 6775 3400
F 0 "J4" H 6850 3400 50  0000 C CNN
F 1 "IF_port" V 6975 3250 50  0000 C CNN
F 2 "Ultrasonic_Hat:SPT1.5_12-H-3.5" H 6825 3150 50  0001 C CNN
F 3 "~" H 6775 3400 50  0001 C CNN
	12   6775 3400
	1    0    0    -1  
$EndComp
$Comp
L Ultrasonic_HAT:Conn_01x01_Female J4
U 11 1 61E347BD
P 6775 3500
F 0 "J4" H 6850 3500 50  0000 C CNN
F 1 "IF_port" V 6975 3450 50  0000 C CNN
F 2 "Ultrasonic_Hat:SPT1.5_12-H-3.5" H 6825 3250 50  0001 C CNN
F 3 "~" H 6775 3500 50  0001 C CNN
	11   6775 3500
	1    0    0    -1  
$EndComp
$Comp
L Ultrasonic_HAT:Conn_01x01_Female J4
U 10 1 61E3539D
P 6775 3600
F 0 "J4" H 6850 3600 50  0000 C CNN
F 1 "IF_port" V 6975 3650 50  0000 C CNN
F 2 "Ultrasonic_Hat:SPT1.5_12-H-3.5" H 6825 3350 50  0001 C CNN
F 3 "~" H 6775 3600 50  0001 C CNN
	10   6775 3600
	1    0    0    -1  
$EndComp
$Comp
L Ultrasonic_HAT:Conn_01x01_Female J4
U 9 1 61E35E91
P 6775 3700
F 0 "J4" H 6850 3700 50  0000 C CNN
F 1 "IF_port" V 6975 3850 50  0000 C CNN
F 2 "Ultrasonic_Hat:SPT1.5_12-H-3.5" H 6825 3450 50  0001 C CNN
F 3 "~" H 6775 3700 50  0001 C CNN
	9    6775 3700
	1    0    0    -1  
$EndComp
$Comp
L Ultrasonic_HAT:Conn_01x01_Female J4
U 8 1 617C0636
P 2500 1350
F 0 "J4" H 2528 1376 50  0000 L CNN
F 1 "IF_port" H 2528 1285 50  0000 L CNN
F 2 "Ultrasonic_Hat:SPT1.5_12-H-3.5" H 2550 1100 50  0001 C CNN
F 3 "~" H 2500 1350 50  0001 C CNN
	8    2500 1350
	1    0    0    -1  
$EndComp
$Comp
L Ultrasonic_HAT:Conn_01x01_Female J4
U 7 1 617BE47D
P 2500 1050
F 0 "J4" H 2528 1076 50  0000 L CNN
F 1 "IF_port" H 2528 985 50  0000 L CNN
F 2 "Ultrasonic_Hat:SPT1.5_12-H-3.5" H 2550 800 50  0001 C CNN
F 3 "~" H 2500 1050 50  0001 C CNN
	7    2500 1050
	1    0    0    -1  
$EndComp
$Comp
L Ultrasonic_HAT:Conn_01x01_Female J4
U 6 1 61833789
P 1550 1050
F 0 "J4" H 1578 1076 50  0000 L CNN
F 1 "IF_port" H 1578 985 50  0000 L CNN
F 2 "Ultrasonic_Hat:SPT1.5_12-H-3.5" H 1600 800 50  0001 C CNN
F 3 "~" H 1550 1050 50  0001 C CNN
	6    1550 1050
	1    0    0    -1  
$EndComp
Wire Notes Line
	7775 2350 10000 2350
Wire Notes Line
	10000 4150 7775 4150
Wire Notes Line
	7775 4475 10000 4475
Wire Notes Line
	10000 2350 10000 4475
Wire Notes Line
	7775 2350 7775 4475
Text Notes 7975 4400 0    150  Italic 30
DC-DC Step-Up
$Comp
L Ultrasonic_HAT:TSR2-2450 U1
U 1 1 61381BC3
P 8400 5800
F 0 "U1" H 8550 5550 50  0000 C CNN
F 1 "TSR2-2450" H 8400 5951 50  0000 C CNN
F 2 "Ultrasonic_Hat:TSR-2" H 8400 5800 50  0001 C CNN
F 3 "" H 8400 5800 50  0001 C CNN
	1    8400 5800
	-1   0    0    -1  
$EndComp
Wire Wire Line
	8125 3900 8675 3900
$Comp
L power:Earth #PWR0101
U 1 1 613B623C
P 6225 3100
F 0 "#PWR0101" H 6225 2850 50  0001 C CNN
F 1 "Earth" H 6225 2950 50  0001 C CNN
F 2 "" H 6225 3100 50  0001 C CNN
F 3 "~" H 6225 3100 50  0001 C CNN
	1    6225 3100
	0    -1   -1   0   
$EndComp
$Comp
L Device:C_Small C24
U 1 1 614501E6
P 9375 3200
F 0 "C24" H 9467 3246 50  0000 L CNN
F 1 "10uF" H 9467 3155 50  0000 L CNN
F 2 "Capacitor_SMD:C_0805_2012Metric" H 9375 3200 50  0001 C CNN
F 3 "~" H 9375 3200 50  0001 C CNN
	1    9375 3200
	-1   0    0    -1  
$EndComp
Wire Wire Line
	9375 3050 9375 3100
$Comp
L power:Earth #PWR026
U 1 1 614501EE
P 9375 3300
F 0 "#PWR026" H 9375 3050 50  0001 C CNN
F 1 "Earth" H 9375 3150 50  0001 C CNN
F 2 "" H 9375 3300 50  0001 C CNN
F 3 "~" H 9375 3300 50  0001 C CNN
	1    9375 3300
	-1   0    0    -1  
$EndComp
Connection ~ 9375 3050
Wire Wire Line
	9525 3050 9375 3050
Wire Wire Line
	9225 3050 9375 3050
$Comp
L Connector_Generic:Conn_01x07 J1
U 1 1 61481341
P 3600 3500
F 0 "J1" H 3518 4017 50  0000 C CNN
F 1 "Probes" H 3518 3926 50  0000 C CNN
F 2 "Connector_PinHeader_2.54mm:PinHeader_1x07_P2.54mm_Vertical" H 3600 3500 50  0001 C CNN
F 3 "~" H 3600 3500 50  0001 C CNN
	1    3600 3500
	-1   0    0    -1  
$EndComp
Wire Wire Line
	4400 3800 3800 3800
Wire Wire Line
	3800 3700 4400 3700
Wire Wire Line
	4400 3600 3800 3600
Wire Wire Line
	3800 3500 4400 3500
Wire Wire Line
	3800 3400 4400 3400
Text Label 5400 4450 3    25   ~ 0
32K_out
Text Label 3850 3300 0    35   ~ 0
32K_out
$Comp
L power:Earth #PWR0102
U 1 1 614D7916
P 3800 3200
F 0 "#PWR0102" H 3800 2950 50  0001 C CNN
F 1 "Earth" H 3800 3050 50  0001 C CNN
F 2 "" H 3800 3200 50  0001 C CNN
F 3 "~" H 3800 3200 50  0001 C CNN
	1    3800 3200
	0    -1   -1   0   
$EndComp
Wire Wire Line
	3850 3300 3800 3300
Wire Wire Line
	6200 3400 6525 3400
Wire Wire Line
	6200 3500 6475 3500
Wire Wire Line
	6200 3600 6425 3600
Wire Wire Line
	6200 3700 6375 3700
$Comp
L Connector_Generic:Conn_01x04 J2
U 1 1 615C1CC4
P 6825 3975
F 0 "J2" H 6905 3967 50  0000 L CNN
F 1 "TRX_probe" H 6905 3876 50  0000 L CNN
F 2 "Connector_PinHeader_2.54mm:PinHeader_1x04_P2.54mm_Vertical" H 6825 3975 50  0001 C CNN
F 3 "~" H 6825 3975 50  0001 C CNN
	1    6825 3975
	1    0    0    -1  
$EndComp
Wire Wire Line
	6525 3875 6525 3400
Wire Wire Line
	6525 3875 6625 3875
Connection ~ 6525 3400
Wire Wire Line
	6525 3400 6575 3400
Wire Wire Line
	6625 3975 6475 3975
Wire Wire Line
	6475 3975 6475 3500
Connection ~ 6475 3500
Wire Wire Line
	6475 3500 6575 3500
Wire Wire Line
	6425 4075 6425 3600
Wire Wire Line
	6425 4075 6625 4075
Connection ~ 6425 3600
Wire Wire Line
	6425 3600 6575 3600
Wire Wire Line
	6625 4175 6375 4175
Wire Wire Line
	6375 4175 6375 3700
Connection ~ 6375 3700
Wire Wire Line
	6375 3700 6575 3700
$Comp
L Graphic:Logo_Open_Hardware_Small OSH1
U 1 1 613A8732
P 10025 7050
F 0 "OSH1" H 10275 7050 200 0001 L CNB
F 1 "Open Source Hardware" H 10025 6825 50  0000 C CNN
F 2 "Symbol:OSHW-Logo2_9.8x8mm_SilkScreen" H 10025 7050 50  0001 C CNN
F 3 "~" H 10025 7050 50  0001 C CNN
	1    10025 7050
	1    0    0    -1  
$EndComp
Text Label 6200 3400 0    50   ~ 0
TUP+
Text Label 6200 3500 0    50   ~ 0
TUP-
Text Label 6200 3600 0    50   ~ 0
TDN+
Text Label 6200 3700 0    50   ~ 0
TDN-
$Comp
L power:+24V #PWR0103
U 1 1 6140E52F
P 8850 5750
F 0 "#PWR0103" H 8850 5600 50  0001 C CNN
F 1 "+24V" H 8865 5923 50  0000 C CNN
F 2 "" H 8850 5750 50  0001 C CNN
F 3 "" H 8850 5750 50  0001 C CNN
	1    8850 5750
	1    0    0    -1  
$EndComp
Wire Wire Line
	8850 5750 8850 5800
Text Label 9875 5800 2    50   ~ 0
VPin
Text Label 3900 3400 0    50   ~ 0
CMP_UP_DN
Text Label 3900 3500 0    50   ~ 0
RXP
Text Label 3900 3600 0    50   ~ 0
RXN
Text Label 3900 3700 0    50   ~ 0
CIN
Text Label 3900 3800 0    50   ~ 0
CIP
Wire Wire Line
	8525 2675 8525 2600
Wire Wire Line
	7900 5900 7900 5800
Wire Wire Line
	6850 6250 6900 6250
Connection ~ 6900 6250
Wire Wire Line
	6900 6250 6950 6250
Wire Wire Line
	1075 2675 1075 2650
Wire Wire Line
	1075 2650 1100 2650
$EndSCHEMATC
