PCBNEW-LibModule-V1  2021-09-06 06:05:35
# encoding utf-8
Units mm
$INDEX
3223W
$EndINDEX
$MODULE 3223W
Po 0 0 0 15 6135a19f 00000000 ~~
Li 3223W
Cd 3223W
Kw Variable Resistor
Sc 0
At SMD
AR 
Op 0 0 0
T0 -0.376 0.413 1.27 1.27 0 0.254 N V 21 N "VR**"
T1 -0.376 0.413 1.27 1.27 0 0.254 N I 21 N "3223W"
DS -1.95 -1.59 1.95 -1.59 0.2 24
DS 1.95 -1.59 1.95 1.59 0.2 24
DS 1.95 1.59 -1.95 1.59 0.2 24
DS -1.95 1.59 -1.95 -1.59 0.2 24
DS -1.95 0 -1.95 -1.59 0.2 21
DS 1.95 -1.59 1.95 0 0.2 21
DS -1.95 -1.59 -0.971 -1.59 0.2 21
DS 1.95 -1.59 0.971 -1.59 0.2 21
DC -1.425 2.401 -1.458 2.401 0.254 21
$PAD
Po -1.4 1.215
Sh "1" R 0.9 1.6 0 0 0
At SMD N 00888000
Ne 0 ""
$EndPAD
$PAD
Po 0 -1.215
Sh "2" R 1.3 1.3 0 0 900
At SMD N 00888000
Ne 0 ""
$EndPAD
$PAD
Po 1.4 1.215
Sh "3" R 0.9 1.6 0 0 0
At SMD N 00888000
Ne 0 ""
$EndPAD
$EndMODULE 3223W
$EndLIBRARY
