(module "3223W" (layer F.Cu)
  (descr "3223W")
  (tags "Variable Resistor")
  (attr smd)
  (fp_text reference VR** (at -0.376 0.413) (layer F.SilkS)
    (effects (font (size 1.27 1.27) (thickness 0.254)))
  )
  (fp_text user %R (at -0.376 0.413) (layer F.Fab)
    (effects (font (size 1.27 1.27) (thickness 0.254)))
  )
  (fp_text value "3223W" (at -0.376 0.413) (layer F.SilkS) hide
    (effects (font (size 1.27 1.27) (thickness 0.254)))
  )
  (fp_line (start -1.95 -1.59) (end 1.95 -1.59) (layer F.Fab) (width 0.2))
  (fp_line (start 1.95 -1.59) (end 1.95 1.59) (layer F.Fab) (width 0.2))
  (fp_line (start 1.95 1.59) (end -1.95 1.59) (layer F.Fab) (width 0.2))
  (fp_line (start -1.95 1.59) (end -1.95 -1.59) (layer F.Fab) (width 0.2))
  (fp_line (start -1.95 0) (end -1.95 -1.59) (layer F.SilkS) (width 0.2))
  (fp_line (start 1.95 -1.59) (end 1.95 0) (layer F.SilkS) (width 0.2))
  (fp_line (start -1.95 -1.59) (end -0.971 -1.59) (layer F.SilkS) (width 0.2))
  (fp_line (start 1.95 -1.59) (end 0.971 -1.59) (layer F.SilkS) (width 0.2))
  (fp_circle (center -1.425 2.401) (end -1.425 2.434) (layer F.SilkS) (width 0.2))
  (pad 1 smd rect (at -1.4 1.215 0) (size 0.9 1.6) (layers F.Cu F.Paste F.Mask))
  (pad 2 smd rect (at 0 -1.215 90) (size 1.3 1.3) (layers F.Cu F.Paste F.Mask))
  (pad 3 smd rect (at 1.4 1.215 0) (size 0.9 1.6) (layers F.Cu F.Paste F.Mask))
  (model 3223W-1-103E.stp
    (at (xyz 0 0 0))
    (scale (xyz 1 1 1))
    (rotate (xyz 0 0 0))
  )
)
