(kicad_symbol_lib (version 20211014) (generator kicad_symbol_editor)
  (symbol "AP7315DQ-33W5-7" (pin_names (offset 1.016)) (in_bom yes) (on_board yes)
    (property "Reference" "U" (id 0) (at -5.08 5.08 0)
      (effects (font (size 1.27 1.27)))
    )
    (property "Value" "AP7315DQ-33W5-7" (id 1) (at 13.97 -6.35 0)
      (effects (font (size 1.27 1.27)))
    )
    (property "Footprint" "TO_SOT_Packages_SMD:SOT-23-5" (id 2) (at 20.32 -8.89 0)
      (effects (font (size 1.27 1.27)) hide)
    )
    (property "Datasheet" "" (id 3) (at 0 0 0)
      (effects (font (size 1.27 1.27)) hide)
    )
    (symbol "AP7315DQ-33W5-7_0_0"
      (pin power_in line (at -8.89 1.27 0) (length 2.54)
        (name "IN" (effects (font (size 1.27 1.27))))
        (number "1" (effects (font (size 1.27 1.27))))
      )
      (pin bidirectional line (at 1.27 -10.16 90) (length 5.08)
        (name "GND" (effects (font (size 1.27 1.27))))
        (number "2" (effects (font (size 1.27 1.27))))
      )
      (pin input line (at -8.89 -2.54 0) (length 2.54)
        (name "EN" (effects (font (size 1.27 1.27))))
        (number "3" (effects (font (size 1.27 1.27))))
      )
      (pin bidirectional line (at -1.27 -10.16 90) (length 5.08)
        (name "NC" (effects (font (size 1.27 1.27))))
        (number "4" (effects (font (size 1.27 1.27))))
      )
      (pin power_out line (at 8.89 1.27 180) (length 2.54)
        (name "OUT" (effects (font (size 1.27 1.27))))
        (number "5" (effects (font (size 1.27 1.27))))
      )
    )
    (symbol "AP7315DQ-33W5-7_0_1"
      (rectangle (start -6.35 3.81) (end 6.35 -5.08)
        (stroke (width 0.1524) (type default) (color 0 0 0 0))
        (fill (type background))
      )
    )
  )
  (symbol "Conn_01x01_Female" (pin_names (offset 1.016) hide) (in_bom yes) (on_board yes)
    (property "Reference" "J" (id 0) (at 0 2.54 0)
      (effects (font (size 1.27 1.27)))
    )
    (property "Value" "Conn_01x01_Female" (id 1) (at 0 -2.54 0)
      (effects (font (size 1.27 1.27)))
    )
    (property "Footprint" "Ultrasonic_Hat:SPT1.5_12-H-3.5" (id 2) (at 1.27 -6.35 0)
      (effects (font (size 1.27 1.27)) hide)
    )
    (property "Datasheet" "~" (id 3) (at 0 0 0)
      (effects (font (size 1.27 1.27)) hide)
    )
    (property "ki_keywords" "connector" (id 4) (at 0 0 0)
      (effects (font (size 1.27 1.27)) hide)
    )
    (property "ki_description" "Generic connector, single row, 01x01, script generated (kicad-library-utils/schlib/autogen/connector/)" (id 5) (at 0 0 0)
      (effects (font (size 1.27 1.27)) hide)
    )
    (property "ki_fp_filters" "Connector*:*" (id 6) (at 0 0 0)
      (effects (font (size 1.27 1.27)) hide)
    )
    (symbol "Conn_01x01_Female_1_1"
      (polyline
        (pts
          (xy -1.27 0)
          (xy -0.508 0)
        )
        (stroke (width 0.1524) (type default) (color 0 0 0 0))
        (fill (type none))
      )
      (arc (start 0 0.508) (mid -0.508 0) (end 0 -0.508)
        (stroke (width 0.1524) (type default) (color 0 0 0 0))
        (fill (type none))
      )
      (pin passive line (at -5.08 0 0) (length 3.81)
        (name "Pin_1" (effects (font (size 1.27 1.27))))
        (number "1" (effects (font (size 1.27 1.27))))
      )
    )
    (symbol "Conn_01x01_Female_2_1"
      (polyline
        (pts
          (xy -1.27 0)
          (xy -0.508 0)
        )
        (stroke (width 0.1524) (type default) (color 0 0 0 0))
        (fill (type none))
      )
      (arc (start 0 0.508) (mid -0.508 0) (end 0 -0.508)
        (stroke (width 0.1524) (type default) (color 0 0 0 0))
        (fill (type none))
      )
      (pin passive line (at -5.08 0 0) (length 3.81)
        (name "Pin_2" (effects (font (size 1.27 1.27))))
        (number "2" (effects (font (size 1.27 1.27))))
      )
    )
    (symbol "Conn_01x01_Female_3_1"
      (polyline
        (pts
          (xy -1.27 0)
          (xy -0.508 0)
        )
        (stroke (width 0.1524) (type default) (color 0 0 0 0))
        (fill (type none))
      )
      (arc (start 0 0.508) (mid -0.508 0) (end 0 -0.508)
        (stroke (width 0.1524) (type default) (color 0 0 0 0))
        (fill (type none))
      )
      (pin passive line (at -5.08 0 0) (length 3.81)
        (name "Pin_2" (effects (font (size 1.27 1.27))))
        (number "3" (effects (font (size 1.27 1.27))))
      )
    )
    (symbol "Conn_01x01_Female_4_1"
      (polyline
        (pts
          (xy -1.27 0)
          (xy -0.508 0)
        )
        (stroke (width 0.1524) (type default) (color 0 0 0 0))
        (fill (type none))
      )
      (arc (start 0 0.508) (mid -0.508 0) (end 0 -0.508)
        (stroke (width 0.1524) (type default) (color 0 0 0 0))
        (fill (type none))
      )
      (pin passive line (at -5.08 0 0) (length 3.81)
        (name "Pin_3" (effects (font (size 1.27 1.27))))
        (number "4" (effects (font (size 1.27 1.27))))
      )
    )
    (symbol "Conn_01x01_Female_5_1"
      (polyline
        (pts
          (xy -1.27 0)
          (xy -0.508 0)
        )
        (stroke (width 0.1524) (type default) (color 0 0 0 0))
        (fill (type none))
      )
      (arc (start 0 0.508) (mid -0.508 0) (end 0 -0.508)
        (stroke (width 0.1524) (type default) (color 0 0 0 0))
        (fill (type none))
      )
      (pin passive line (at -5.08 0 0) (length 3.81)
        (name "Pin_4" (effects (font (size 1.27 1.27))))
        (number "5" (effects (font (size 1.27 1.27))))
      )
    )
    (symbol "Conn_01x01_Female_6_1"
      (polyline
        (pts
          (xy -1.27 0)
          (xy -0.508 0)
        )
        (stroke (width 0.1524) (type default) (color 0 0 0 0))
        (fill (type none))
      )
      (arc (start 0 0.508) (mid -0.508 0) (end 0 -0.508)
        (stroke (width 0.1524) (type default) (color 0 0 0 0))
        (fill (type none))
      )
      (pin passive line (at -5.08 0 0) (length 3.81)
        (name "Pin_5" (effects (font (size 1.27 1.27))))
        (number "6" (effects (font (size 1.27 1.27))))
      )
    )
    (symbol "Conn_01x01_Female_7_1"
      (polyline
        (pts
          (xy -1.27 0)
          (xy -0.508 0)
        )
        (stroke (width 0.1524) (type default) (color 0 0 0 0))
        (fill (type none))
      )
      (arc (start 0 0.508) (mid -0.508 0) (end 0 -0.508)
        (stroke (width 0.1524) (type default) (color 0 0 0 0))
        (fill (type none))
      )
      (pin passive line (at -5.08 0 0) (length 3.81)
        (name "Pin_6" (effects (font (size 1.27 1.27))))
        (number "7" (effects (font (size 1.27 1.27))))
      )
    )
    (symbol "Conn_01x01_Female_8_1"
      (polyline
        (pts
          (xy -1.27 0)
          (xy -0.508 0)
        )
        (stroke (width 0.1524) (type default) (color 0 0 0 0))
        (fill (type none))
      )
      (arc (start 0 0.508) (mid -0.508 0) (end 0 -0.508)
        (stroke (width 0.1524) (type default) (color 0 0 0 0))
        (fill (type none))
      )
      (pin passive line (at -5.08 0 0) (length 3.81)
        (name "Pin_7" (effects (font (size 1.27 1.27))))
        (number "8" (effects (font (size 1.27 1.27))))
      )
    )
    (symbol "Conn_01x01_Female_9_1"
      (polyline
        (pts
          (xy -1.27 0)
          (xy -0.508 0)
        )
        (stroke (width 0.1524) (type default) (color 0 0 0 0))
        (fill (type none))
      )
      (arc (start 0 0.508) (mid -0.508 0) (end 0 -0.508)
        (stroke (width 0.1524) (type default) (color 0 0 0 0))
        (fill (type none))
      )
      (pin passive line (at -5.08 0 0) (length 3.81)
        (name "Pin_8" (effects (font (size 1.27 1.27))))
        (number "9" (effects (font (size 1.27 1.27))))
      )
    )
    (symbol "Conn_01x01_Female_10_1"
      (polyline
        (pts
          (xy -1.27 0)
          (xy -0.508 0)
        )
        (stroke (width 0.1524) (type default) (color 0 0 0 0))
        (fill (type none))
      )
      (arc (start 0 0.508) (mid -0.508 0) (end 0 -0.508)
        (stroke (width 0.1524) (type default) (color 0 0 0 0))
        (fill (type none))
      )
      (pin passive line (at -5.08 0 0) (length 3.81)
        (name "Pin_9" (effects (font (size 1.27 1.27))))
        (number "10" (effects (font (size 1.27 1.27))))
      )
    )
    (symbol "Conn_01x01_Female_11_1"
      (polyline
        (pts
          (xy -1.27 0)
          (xy -0.508 0)
        )
        (stroke (width 0.1524) (type default) (color 0 0 0 0))
        (fill (type none))
      )
      (arc (start 0 0.508) (mid -0.508 0) (end 0 -0.508)
        (stroke (width 0.1524) (type default) (color 0 0 0 0))
        (fill (type none))
      )
      (pin passive line (at -5.08 0 0) (length 3.81)
        (name "Pin_10" (effects (font (size 1.27 1.27))))
        (number "11" (effects (font (size 1.27 1.27))))
      )
    )
    (symbol "Conn_01x01_Female_12_1"
      (polyline
        (pts
          (xy -1.27 0)
          (xy -0.508 0)
        )
        (stroke (width 0.1524) (type default) (color 0 0 0 0))
        (fill (type none))
      )
      (arc (start 0 0.508) (mid -0.508 0) (end 0 -0.508)
        (stroke (width 0.1524) (type default) (color 0 0 0 0))
        (fill (type none))
      )
      (pin passive line (at -5.08 0 0) (length 3.81)
        (name "Pin_11" (effects (font (size 1.27 1.27))))
        (number "12" (effects (font (size 1.27 1.27))))
      )
    )
  )
  (symbol "MAX35104ETL+" (pin_names (offset 0.762)) (in_bom yes) (on_board yes)
    (property "Reference" "IC" (id 0) (at -17.78 22.86 0)
      (effects (font (size 1.27 1.27)) (justify left))
    )
    (property "Value" "MAX35104ETL+" (id 1) (at 8.89 -25.4 0)
      (effects (font (size 1.27 1.27)) (justify left))
    )
    (property "Footprint" "Ultrasonic_Hat:QFN40P500X500X80-41N" (id 2) (at 8.89 -27.94 0)
      (effects (font (size 1.27 1.27)) (justify left) hide)
    )
    (property "Datasheet" "https://datasheets.maximintegrated.com/en/ds/MAX35104.pdf" (id 3) (at 19.05 19.05 0)
      (effects (font (size 1.27 1.27)) (justify left) hide)
    )
    (property "ki_description" "MAXIM INTEGRATED PRODUCTS - MAX35104ETL+ - GAS FLOW METER SOC, 2.3V-3.6V, TQFN-40" (id 4) (at 0 0 0)
      (effects (font (size 1.27 1.27)) hide)
    )
    (symbol "MAX35104ETL+_0_0"
      (pin passive line (at -2.54 -29.21 90) (length 5.08)
        (name "32KX1" (effects (font (size 1.27 1.27))))
        (number "1" (effects (font (size 1.27 1.27))))
      )
      (pin passive inverted (at -22.86 7.62 0) (length 5.08)
        (name "~{CE}" (effects (font (size 1.27 1.27))))
        (number "10" (effects (font (size 1.27 1.27))))
      )
      (pin input clock (at -22.86 10.16 0) (length 5.08)
        (name "SCK" (effects (font (size 1.27 1.27))))
        (number "11" (effects (font (size 1.27 1.27))))
      )
      (pin input line (at -22.86 15.24 0) (length 5.08)
        (name "DIN" (effects (font (size 1.27 1.27))))
        (number "12" (effects (font (size 1.27 1.27))))
      )
      (pin output line (at -22.86 12.7 0) (length 5.08)
        (name "DOUT" (effects (font (size 1.27 1.27))))
        (number "13" (effects (font (size 1.27 1.27))))
      )
      (pin output inverted (at -22.86 5.08 0) (length 5.08)
        (name "~{INT}" (effects (font (size 1.27 1.27))))
        (number "14" (effects (font (size 1.27 1.27))))
      )
      (pin input inverted (at -22.86 2.54 0) (length 5.08)
        (name "~{WDO}" (effects (font (size 1.27 1.27))))
        (number "15" (effects (font (size 1.27 1.27))))
      )
      (pin passive line (at 6.35 26.67 270) (length 5.08)
        (name "CPL" (effects (font (size 1.27 1.27))))
        (number "16" (effects (font (size 1.27 1.27))))
      )
      (pin passive line (at 3.81 26.67 270) (length 5.08)
        (name "CPH" (effects (font (size 1.27 1.27))))
        (number "17" (effects (font (size 1.27 1.27))))
      )
      (pin passive line (at -3.81 26.67 270) (length 5.08)
        (name "VDD" (effects (font (size 1.27 1.27))))
        (number "18" (effects (font (size 1.27 1.27))))
      )
      (pin passive line (at 22.86 10.16 180) (length 5.08)
        (name "FETG" (effects (font (size 1.27 1.27))))
        (number "19" (effects (font (size 1.27 1.27))))
      )
      (pin passive line (at 0 -29.21 90) (length 5.08)
        (name "32KX2" (effects (font (size 1.27 1.27))))
        (number "2" (effects (font (size 1.27 1.27))))
      )
      (pin passive line (at 11.43 26.67 270) (length 5.08)
        (name "V2X" (effects (font (size 1.27 1.27))))
        (number "20" (effects (font (size 1.27 1.27))))
      )
      (pin passive line (at 22.86 2.54 180) (length 5.08)
        (name "COMP" (effects (font (size 1.27 1.27))))
        (number "21" (effects (font (size 1.27 1.27))))
      )
      (pin passive line (at 22.86 5.08 180) (length 5.08)
        (name "VSS_SW" (effects (font (size 1.27 1.27))))
        (number "22" (effects (font (size 1.27 1.27))))
      )
      (pin passive line (at 22.86 7.62 180) (length 5.08)
        (name "CSIN" (effects (font (size 1.27 1.27))))
        (number "23" (effects (font (size 1.27 1.27))))
      )
      (pin passive line (at 22.86 -10.16 180) (length 5.08)
        (name "TX_DNN" (effects (font (size 1.27 1.27))))
        (number "24" (effects (font (size 1.27 1.27))))
      )
      (pin passive line (at 22.86 -7.62 180) (length 5.08)
        (name "TX_DNP" (effects (font (size 1.27 1.27))))
        (number "25" (effects (font (size 1.27 1.27))))
      )
      (pin passive line (at -7.62 -29.21 90) (length 5.08)
        (name "VSS" (effects (font (size 1.27 1.27))))
        (number "26" (effects (font (size 1.27 1.27))))
      )
      (pin passive line (at 22.86 13.97 180) (length 5.08)
        (name "VP" (effects (font (size 1.27 1.27))))
        (number "27" (effects (font (size 1.27 1.27))))
      )
      (pin passive line (at 22.86 16.51 180) (length 5.08)
        (name "VPR" (effects (font (size 1.27 1.27))))
        (number "28" (effects (font (size 1.27 1.27))))
      )
      (pin passive line (at 22.86 -5.08 180) (length 5.08)
        (name "TX_UPN" (effects (font (size 1.27 1.27))))
        (number "29" (effects (font (size 1.27 1.27))))
      )
      (pin passive line (at -6.35 26.67 270) (length 5.08)
        (name "VDDISO" (effects (font (size 1.27 1.27))))
        (number "3" (effects (font (size 1.27 1.27))))
      )
      (pin passive line (at 22.86 -2.54 180) (length 5.08)
        (name "TX_UPP" (effects (font (size 1.27 1.27))))
        (number "30" (effects (font (size 1.27 1.27))))
      )
      (pin passive line (at -8.89 26.67 270) (length 5.08)
        (name "AVDD" (effects (font (size 1.27 1.27))))
        (number "31" (effects (font (size 1.27 1.27))))
      )
      (pin passive line (at -22.86 -5.08 0) (length 5.08)
        (name "RXP" (effects (font (size 1.27 1.27))))
        (number "32" (effects (font (size 1.27 1.27))))
      )
      (pin passive line (at -22.86 -7.62 0) (length 5.08)
        (name "RXN" (effects (font (size 1.27 1.27))))
        (number "33" (effects (font (size 1.27 1.27))))
      )
      (pin passive line (at -22.86 -10.16 0) (length 5.08)
        (name "CIN" (effects (font (size 1.27 1.27))))
        (number "34" (effects (font (size 1.27 1.27))))
      )
      (pin passive line (at -22.86 -12.7 0) (length 5.08)
        (name "CIP" (effects (font (size 1.27 1.27))))
        (number "35" (effects (font (size 1.27 1.27))))
      )
      (pin passive line (at -10.16 -29.21 90) (length 5.08)
        (name "AVSS" (effects (font (size 1.27 1.27))))
        (number "36" (effects (font (size 1.27 1.27))))
      )
      (pin passive line (at 2.54 -29.21 90) (length 5.08)
        (name "32KOUT" (effects (font (size 1.27 1.27))))
        (number "37" (effects (font (size 1.27 1.27))))
      )
      (pin passive line (at 22.86 -21.59 180) (length 5.08)
        (name "T1" (effects (font (size 1.27 1.27))))
        (number "38" (effects (font (size 1.27 1.27))))
      )
      (pin passive line (at 22.86 -19.05 180) (length 5.08)
        (name "T2" (effects (font (size 1.27 1.27))))
        (number "39" (effects (font (size 1.27 1.27))))
      )
      (pin passive line (at 5.08 -29.21 90) (length 5.08)
        (name "4MX1" (effects (font (size 1.27 1.27))))
        (number "4" (effects (font (size 1.27 1.27))))
      )
      (pin passive line (at 22.86 -16.51 180) (length 5.08)
        (name "TC" (effects (font (size 1.27 1.27))))
        (number "40" (effects (font (size 1.27 1.27))))
      )
      (pin passive line (at -12.7 -29.21 90) (length 5.08)
        (name "EP" (effects (font (size 1.27 1.27))))
        (number "41" (effects (font (size 1.27 1.27))))
      )
      (pin passive line (at 7.62 -29.21 90) (length 5.08)
        (name "4MX2" (effects (font (size 1.27 1.27))))
        (number "5" (effects (font (size 1.27 1.27))))
      )
      (pin passive line (at -15.24 -29.21 90) (length 5.08)
        (name "CSW" (effects (font (size 1.27 1.27))))
        (number "6" (effects (font (size 1.27 1.27))))
      )
      (pin passive line (at -22.86 -2.54 0) (length 5.08)
        (name "CMP_OUT/UP_DN" (effects (font (size 1.27 1.27))))
        (number "7" (effects (font (size 1.27 1.27))))
      )
      (pin passive line (at -22.86 -16.51 0) (length 5.08)
        (name "BYPASS" (effects (font (size 1.27 1.27))))
        (number "8" (effects (font (size 1.27 1.27))))
      )
      (pin passive inverted (at -22.86 17.78 0) (length 5.08)
        (name "~{RST}" (effects (font (size 1.27 1.27))))
        (number "9" (effects (font (size 1.27 1.27))))
      )
    )
    (symbol "MAX35104ETL+_0_1"
      (polyline
        (pts
          (xy -17.78 21.59)
          (xy 17.78 21.59)
          (xy 17.78 -24.13)
          (xy -17.78 -24.13)
          (xy -17.78 21.59)
        )
        (stroke (width 0.1524) (type default) (color 0 0 0 0))
        (fill (type background))
      )
    )
  )
  (symbol "MAX7323AEE+" (pin_names (offset 0.762)) (in_bom yes) (on_board yes)
    (property "Reference" "IC" (id 0) (at -8.89 11.43 0)
      (effects (font (size 1.27 1.27)) (justify left))
    )
    (property "Value" "MAX7323AEE+" (id 1) (at 1.27 -13.97 0)
      (effects (font (size 1.27 1.27)) (justify left))
    )
    (property "Footprint" "Ultrasonic_Hat:SOP64P602X175-16N" (id 2) (at 10.16 10.16 0)
      (effects (font (size 1.27 1.27)) (justify left) hide)
    )
    (property "Datasheet" "http://datasheets.maximintegrated.com/en/ds/MAX7323.pdf" (id 3) (at 10.16 7.62 0)
      (effects (font (size 1.27 1.27)) (justify left) hide)
    )
    (property "ki_description" "Interface - I/O Expanders I2C Port Expander w/4 P-P Out & 4 I/O" (id 4) (at 0 0 0)
      (effects (font (size 1.27 1.27)) hide)
    )
    (symbol "MAX7323AEE+_0_0"
      (pin passive line (at -13.97 -7.62 0) (length 5.08)
        (name "AD0" (effects (font (size 1.27 1.27))))
        (number "1" (effects (font (size 1.27 1.27))))
      )
      (pin passive line (at 13.97 -7.62 180) (length 5.08)
        (name "P5" (effects (font (size 1.27 1.27))))
        (number "10" (effects (font (size 1.27 1.27))))
      )
      (pin passive line (at 13.97 -5.08 180) (length 5.08)
        (name "O6" (effects (font (size 1.27 1.27))))
        (number "11" (effects (font (size 1.27 1.27))))
      )
      (pin passive line (at 13.97 -2.54 180) (length 5.08)
        (name "O7" (effects (font (size 1.27 1.27))))
        (number "12" (effects (font (size 1.27 1.27))))
      )
      (pin passive line (at -13.97 0 0) (length 5.08)
        (name "~{INT}" (effects (font (size 1.27 1.27))))
        (number "13" (effects (font (size 1.27 1.27))))
      )
      (pin passive line (at -13.97 2.54 0) (length 5.08)
        (name "SCL" (effects (font (size 1.27 1.27))))
        (number "14" (effects (font (size 1.27 1.27))))
      )
      (pin passive line (at -13.97 5.08 0) (length 5.08)
        (name "SDA" (effects (font (size 1.27 1.27))))
        (number "15" (effects (font (size 1.27 1.27))))
      )
      (pin passive line (at 1.27 15.24 270) (length 5.08)
        (name "V+" (effects (font (size 1.27 1.27))))
        (number "16" (effects (font (size 1.27 1.27))))
      )
      (pin passive line (at -1.27 15.24 270) (length 5.08)
        (name "~{RST}" (effects (font (size 1.27 1.27))))
        (number "2" (effects (font (size 1.27 1.27))))
      )
      (pin passive line (at -13.97 -10.16 0) (length 5.08)
        (name "AD2" (effects (font (size 1.27 1.27))))
        (number "3" (effects (font (size 1.27 1.27))))
      )
      (pin passive line (at 13.97 7.62 180) (length 5.08)
        (name "O0" (effects (font (size 1.27 1.27))))
        (number "4" (effects (font (size 1.27 1.27))))
      )
      (pin passive line (at 13.97 5.08 180) (length 5.08)
        (name "O1" (effects (font (size 1.27 1.27))))
        (number "5" (effects (font (size 1.27 1.27))))
      )
      (pin passive line (at 13.97 2.54 180) (length 5.08)
        (name "P2" (effects (font (size 1.27 1.27))))
        (number "6" (effects (font (size 1.27 1.27))))
      )
      (pin passive line (at 13.97 0 180) (length 5.08)
        (name "P3" (effects (font (size 1.27 1.27))))
        (number "7" (effects (font (size 1.27 1.27))))
      )
      (pin passive line (at 0 -17.78 90) (length 5.08)
        (name "GND" (effects (font (size 1.27 1.27))))
        (number "8" (effects (font (size 1.27 1.27))))
      )
      (pin passive line (at 13.97 -10.16 180) (length 5.08)
        (name "P4" (effects (font (size 1.27 1.27))))
        (number "9" (effects (font (size 1.27 1.27))))
      )
    )
    (symbol "MAX7323AEE+_0_1"
      (polyline
        (pts
          (xy -8.89 10.16)
          (xy 8.89 10.16)
          (xy 8.89 -12.7)
          (xy -8.89 -12.7)
          (xy -8.89 10.16)
        )
        (stroke (width 0.1524) (type default) (color 0 0 0 0))
        (fill (type background))
      )
    )
  )
  (symbol "MCP3421A2T-E_CH" (pin_names (offset 0.762)) (in_bom yes) (on_board yes)
    (property "Reference" "IC" (id 0) (at -6.35 10.16 0)
      (effects (font (size 1.27 1.27)) (justify left))
    )
    (property "Value" "MCP3421A2T-E_CH" (id 1) (at 0 -10.16 0)
      (effects (font (size 1.27 1.27)) (justify left))
    )
    (property "Footprint" "Ultrasonic_Hat:SOT95P270X145-6N" (id 2) (at 0 -12.7 0)
      (effects (font (size 1.27 1.27)) (justify left) hide)
    )
    (property "Datasheet" "http://www.microchip.com/mymicrochip/filehandler.aspx?ddocname=en520102" (id 3) (at 0 -15.24 0)
      (effects (font (size 1.27 1.27)) (justify left) hide)
    )
    (property "ki_description" "Microchip MCP3421A2T-E/CH, 18 bit Serial ADC, Differential Input, 6-Pin SOT-23" (id 4) (at 0 0 0)
      (effects (font (size 1.27 1.27)) hide)
    )
    (symbol "MCP3421A2T-E_CH_0_0"
      (pin passive line (at 11.43 1.27 180) (length 5.08)
        (name "VIN+" (effects (font (size 1.27 1.27))))
        (number "1" (effects (font (size 1.27 1.27))))
      )
      (pin passive line (at -2.54 -15.24 90) (length 5.08)
        (name "VSS" (effects (font (size 1.27 1.27))))
        (number "2" (effects (font (size 1.27 1.27))))
      )
      (pin passive line (at -8.89 -2.54 0) (length 5.08)
        (name "SCL" (effects (font (size 1.27 1.27))))
        (number "3" (effects (font (size 1.27 1.27))))
      )
      (pin passive line (at -8.89 2.54 0) (length 5.08)
        (name "SDA" (effects (font (size 1.27 1.27))))
        (number "4" (effects (font (size 1.27 1.27))))
      )
      (pin passive line (at -2.54 15.24 270) (length 5.08)
        (name "VDD" (effects (font (size 1.27 1.27))))
        (number "5" (effects (font (size 1.27 1.27))))
      )
      (pin passive line (at 11.43 -1.27 180) (length 5.08)
        (name "VIN-" (effects (font (size 1.27 1.27))))
        (number "6" (effects (font (size 1.27 1.27))))
      )
    )
    (symbol "MCP3421A2T-E_CH_0_1"
      (polyline
        (pts
          (xy -1.27 -10.16)
          (xy 6.35 -2.54)
          (xy 6.35 2.54)
          (xy 5.08 3.81)
        )
        (stroke (width 0.1524) (type default) (color 0 0 0 0))
        (fill (type none))
      )
      (polyline
        (pts
          (xy 6.35 2.54)
          (xy 6.35 -2.54)
          (xy -1.27 -10.16)
          (xy -3.81 -10.16)
          (xy -3.81 10.16)
          (xy -1.27 10.16)
          (xy 6.35 2.54)
        )
        (stroke (width 0.1524) (type default) (color 0 0 0 0))
        (fill (type background))
      )
    )
  )
  (symbol "PCA9614DP,118" (pin_names (offset 0.762)) (in_bom yes) (on_board yes)
    (property "Reference" "IC" (id 0) (at -10.16 8.89 0)
      (effects (font (size 1.27 1.27)) (justify left))
    )
    (property "Value" "PCA9614DP,118" (id 1) (at -10.16 -8.89 0)
      (effects (font (size 1.27 1.27)) (justify left))
    )
    (property "Footprint" "Ultrasonic_Hat:SOP50P490X110-10N" (id 2) (at 13.97 7.62 0)
      (effects (font (size 1.27 1.27)) (justify left) hide)
    )
    (property "Datasheet" "http://www.nxp.com/docs/en/data-sheet/PCA9614.pdf" (id 3) (at 13.97 5.08 0)
      (effects (font (size 1.27 1.27)) (justify left) hide)
    )
    (property "ki_description" "Interface - Signal Buffers, Repeaters 2-channel multipoint Differential I2C-bus" (id 4) (at 0 0 0)
      (effects (font (size 1.27 1.27)) hide)
    )
    (symbol "PCA9614DP,118_0_0"
      (pin passive line (at -15.24 5.08 0) (length 5.08)
        (name "VDD(A)" (effects (font (size 1.27 1.27))))
        (number "1" (effects (font (size 1.27 1.27))))
      )
      (pin passive line (at 17.78 5.08 180) (length 5.08)
        (name "VDD(B)" (effects (font (size 1.27 1.27))))
        (number "10" (effects (font (size 1.27 1.27))))
      )
      (pin passive line (at -15.24 -1.27 0) (length 5.08)
        (name "SDA" (effects (font (size 1.27 1.27))))
        (number "2" (effects (font (size 1.27 1.27))))
      )
      (pin passive line (at -15.24 2.54 0) (length 5.08)
        (name "EN" (effects (font (size 1.27 1.27))))
        (number "3" (effects (font (size 1.27 1.27))))
      )
      (pin passive line (at -15.24 -3.81 0) (length 5.08)
        (name "SCL" (effects (font (size 1.27 1.27))))
        (number "4" (effects (font (size 1.27 1.27))))
      )
      (pin passive line (at -15.24 -6.35 0) (length 5.08)
        (name "VSS" (effects (font (size 1.27 1.27))))
        (number "5" (effects (font (size 1.27 1.27))))
      )
      (pin passive line (at 17.78 -5.08 180) (length 5.08)
        (name "DSCLM" (effects (font (size 1.27 1.27))))
        (number "6" (effects (font (size 1.27 1.27))))
      )
      (pin passive line (at 17.78 -2.54 180) (length 5.08)
        (name "DSCLP" (effects (font (size 1.27 1.27))))
        (number "7" (effects (font (size 1.27 1.27))))
      )
      (pin passive line (at 17.78 0 180) (length 5.08)
        (name "DSDAP" (effects (font (size 1.27 1.27))))
        (number "8" (effects (font (size 1.27 1.27))))
      )
      (pin passive line (at 17.78 2.54 180) (length 5.08)
        (name "DSDAM" (effects (font (size 1.27 1.27))))
        (number "9" (effects (font (size 1.27 1.27))))
      )
    )
    (symbol "PCA9614DP,118_0_1"
      (polyline
        (pts
          (xy -10.16 7.62)
          (xy 12.7 7.62)
          (xy 12.7 -7.62)
          (xy -10.16 -7.62)
          (xy -10.16 7.62)
        )
        (stroke (width 0.1524) (type default) (color 0 0 0 0))
        (fill (type background))
      )
    )
  )
  (symbol "TSR2-2450" (pin_names (offset 1.016)) (in_bom yes) (on_board yes)
    (property "Reference" "U" (id 0) (at -5.08 2.54 0)
      (effects (font (size 1.27 1.27)))
    )
    (property "Value" "TSR2-2450" (id 1) (at 6.35 -6.35 0)
      (effects (font (size 1.27 1.27)))
    )
    (property "Footprint" "" (id 2) (at 0 0 0)
      (effects (font (size 1.27 1.27)) hide)
    )
    (property "Datasheet" "" (id 3) (at 0 0 0)
      (effects (font (size 1.27 1.27)) hide)
    )
    (symbol "TSR2-2450_1_1"
      (rectangle (start -5.08 -5.08) (end 5.08 1.905)
        (stroke (width 0.254) (type default) (color 0 0 0 0))
        (fill (type background))
      )
      (pin power_in line (at -7.62 0 0) (length 2.54)
        (name "VI" (effects (font (size 1.27 1.27))))
        (number "1" (effects (font (size 1.27 1.27))))
      )
      (pin power_in line (at 0 -7.62 90) (length 2.54)
        (name "GND" (effects (font (size 1.27 1.27))))
        (number "2" (effects (font (size 1.27 1.27))))
      )
      (pin power_out line (at 7.62 0 180) (length 2.54)
        (name "VO" (effects (font (size 1.27 1.27))))
        (number "3" (effects (font (size 1.27 1.27))))
      )
    )
  )
)
