G04 #@! TF.GenerationSoftware,KiCad,Pcbnew,5.99.0+really5.1.10+dfsg1-1*
G04 #@! TF.CreationDate,2021-09-10T21:48:36+03:00*
G04 #@! TF.ProjectId,PTH_Module,5054485f-4d6f-4647-956c-652e6b696361,1.0*
G04 #@! TF.SameCoordinates,PX8280d04PY636fcf8*
G04 #@! TF.FileFunction,Legend,Bot*
G04 #@! TF.FilePolarity,Positive*
%FSLAX46Y46*%
G04 Gerber Fmt 4.6, Leading zero omitted, Abs format (unit mm)*
G04 Created by KiCad (PCBNEW 5.99.0+really5.1.10+dfsg1-1) date 2021-09-10 21:48:36*
%MOMM*%
%LPD*%
G01*
G04 APERTURE LIST*
%ADD10C,0.152400*%
%ADD11C,0.120000*%
%ADD12C,0.200000*%
%ADD13C,0.150000*%
%ADD14C,0.800000*%
%ADD15C,6.400000*%
%ADD16O,1.270000X2.540000*%
%ADD17R,0.300000X1.400000*%
%ADD18C,1.016000*%
G04 APERTURE END LIST*
D10*
X23277285Y1445381D02*
X23277285Y2461381D01*
X22890238Y2461381D01*
X22793476Y2413000D01*
X22745095Y2364620D01*
X22696714Y2267858D01*
X22696714Y2122715D01*
X22745095Y2025953D01*
X22793476Y1977572D01*
X22890238Y1929191D01*
X23277285Y1929191D01*
X22406428Y2461381D02*
X21825857Y2461381D01*
X22116142Y1445381D02*
X22116142Y2461381D01*
X21487190Y1445381D02*
X21487190Y2461381D01*
X21487190Y1977572D02*
X20906619Y1977572D01*
X20906619Y1445381D02*
X20906619Y2461381D01*
X19648714Y1445381D02*
X19648714Y2461381D01*
X19310047Y1735667D01*
X18971380Y2461381D01*
X18971380Y1445381D01*
X18342428Y1445381D02*
X18439190Y1493762D01*
X18487571Y1542143D01*
X18535952Y1638905D01*
X18535952Y1929191D01*
X18487571Y2025953D01*
X18439190Y2074334D01*
X18342428Y2122715D01*
X18197285Y2122715D01*
X18100523Y2074334D01*
X18052142Y2025953D01*
X18003761Y1929191D01*
X18003761Y1638905D01*
X18052142Y1542143D01*
X18100523Y1493762D01*
X18197285Y1445381D01*
X18342428Y1445381D01*
X17132904Y1445381D02*
X17132904Y2461381D01*
X17132904Y1493762D02*
X17229666Y1445381D01*
X17423190Y1445381D01*
X17519952Y1493762D01*
X17568333Y1542143D01*
X17616714Y1638905D01*
X17616714Y1929191D01*
X17568333Y2025953D01*
X17519952Y2074334D01*
X17423190Y2122715D01*
X17229666Y2122715D01*
X17132904Y2074334D01*
X16213666Y2122715D02*
X16213666Y1445381D01*
X16649095Y2122715D02*
X16649095Y1590524D01*
X16600714Y1493762D01*
X16503952Y1445381D01*
X16358809Y1445381D01*
X16262047Y1493762D01*
X16213666Y1542143D01*
X15584714Y1445381D02*
X15681476Y1493762D01*
X15729857Y1590524D01*
X15729857Y2461381D01*
X14810619Y1493762D02*
X14907380Y1445381D01*
X15100904Y1445381D01*
X15197666Y1493762D01*
X15246047Y1590524D01*
X15246047Y1977572D01*
X15197666Y2074334D01*
X15100904Y2122715D01*
X14907380Y2122715D01*
X14810619Y2074334D01*
X14762238Y1977572D01*
X14762238Y1880810D01*
X15246047Y1784048D01*
X12972142Y1445381D02*
X13310809Y1929191D01*
X13552714Y1445381D02*
X13552714Y2461381D01*
X13165666Y2461381D01*
X13068904Y2413000D01*
X13020523Y2364620D01*
X12972142Y2267858D01*
X12972142Y2122715D01*
X13020523Y2025953D01*
X13068904Y1977572D01*
X13165666Y1929191D01*
X13552714Y1929191D01*
X12149666Y1493762D02*
X12246428Y1445381D01*
X12439952Y1445381D01*
X12536714Y1493762D01*
X12585095Y1590524D01*
X12585095Y1977572D01*
X12536714Y2074334D01*
X12439952Y2122715D01*
X12246428Y2122715D01*
X12149666Y2074334D01*
X12101285Y1977572D01*
X12101285Y1880810D01*
X12585095Y1784048D01*
X11762619Y2122715D02*
X11520714Y1445381D01*
X11278809Y2122715D01*
X10891761Y1542143D02*
X10843380Y1493762D01*
X10891761Y1445381D01*
X10940142Y1493762D01*
X10891761Y1542143D01*
X10891761Y1445381D01*
X10891761Y2074334D02*
X10843380Y2025953D01*
X10891761Y1977572D01*
X10940142Y2025953D01*
X10891761Y2074334D01*
X10891761Y1977572D01*
X9875761Y1445381D02*
X10456333Y1445381D01*
X10166047Y1445381D02*
X10166047Y2461381D01*
X10262809Y2316239D01*
X10359571Y2219477D01*
X10456333Y2171096D01*
X9440333Y1542143D02*
X9391952Y1493762D01*
X9440333Y1445381D01*
X9488714Y1493762D01*
X9440333Y1542143D01*
X9440333Y1445381D01*
X8763000Y2461381D02*
X8666238Y2461381D01*
X8569476Y2413000D01*
X8521095Y2364620D01*
X8472714Y2267858D01*
X8424333Y2074334D01*
X8424333Y1832429D01*
X8472714Y1638905D01*
X8521095Y1542143D01*
X8569476Y1493762D01*
X8666238Y1445381D01*
X8763000Y1445381D01*
X8859761Y1493762D01*
X8908142Y1542143D01*
X8956523Y1638905D01*
X9004904Y1832429D01*
X9004904Y2074334D01*
X8956523Y2267858D01*
X8908142Y2364620D01*
X8859761Y2413000D01*
X8763000Y2461381D01*
X14892261Y6658429D02*
X14257261Y6658429D01*
X14257261Y6507239D01*
X14287500Y6416524D01*
X14347976Y6356048D01*
X14408452Y6325810D01*
X14529404Y6295572D01*
X14620119Y6295572D01*
X14741071Y6325810D01*
X14801547Y6356048D01*
X14862023Y6416524D01*
X14892261Y6507239D01*
X14892261Y6658429D01*
X14862023Y6053667D02*
X14892261Y5962953D01*
X14892261Y5811762D01*
X14862023Y5751286D01*
X14831785Y5721048D01*
X14771309Y5690810D01*
X14710833Y5690810D01*
X14650357Y5721048D01*
X14620119Y5751286D01*
X14589880Y5811762D01*
X14559642Y5932715D01*
X14529404Y5993191D01*
X14499166Y6023429D01*
X14438690Y6053667D01*
X14378214Y6053667D01*
X14317738Y6023429D01*
X14287500Y5993191D01*
X14257261Y5932715D01*
X14257261Y5781524D01*
X14287500Y5690810D01*
X14892261Y5418667D02*
X14257261Y5418667D01*
X14257261Y5267477D01*
X14287500Y5176762D01*
X14347976Y5116286D01*
X14408452Y5086048D01*
X14529404Y5055810D01*
X14620119Y5055810D01*
X14741071Y5086048D01*
X14801547Y5116286D01*
X14862023Y5176762D01*
X14892261Y5267477D01*
X14892261Y5418667D01*
X14710833Y4813905D02*
X14710833Y4511524D01*
X14892261Y4874381D02*
X14257261Y4662715D01*
X14892261Y4451048D01*
X14650357Y4239381D02*
X14650357Y3755572D01*
X14892261Y3997477D02*
X14408452Y3997477D01*
X19972261Y6643310D02*
X19337261Y6643310D01*
X19337261Y6492120D01*
X19367500Y6401405D01*
X19427976Y6340929D01*
X19488452Y6310691D01*
X19609404Y6280453D01*
X19700119Y6280453D01*
X19821071Y6310691D01*
X19881547Y6340929D01*
X19942023Y6401405D01*
X19972261Y6492120D01*
X19972261Y6643310D01*
X19942023Y6038548D02*
X19972261Y5947834D01*
X19972261Y5796643D01*
X19942023Y5736167D01*
X19911785Y5705929D01*
X19851309Y5675691D01*
X19790833Y5675691D01*
X19730357Y5705929D01*
X19700119Y5736167D01*
X19669880Y5796643D01*
X19639642Y5917596D01*
X19609404Y5978072D01*
X19579166Y6008310D01*
X19518690Y6038548D01*
X19458214Y6038548D01*
X19397738Y6008310D01*
X19367500Y5978072D01*
X19337261Y5917596D01*
X19337261Y5766405D01*
X19367500Y5675691D01*
X19911785Y5040691D02*
X19942023Y5070929D01*
X19972261Y5161643D01*
X19972261Y5222120D01*
X19942023Y5312834D01*
X19881547Y5373310D01*
X19821071Y5403548D01*
X19700119Y5433786D01*
X19609404Y5433786D01*
X19488452Y5403548D01*
X19427976Y5373310D01*
X19367500Y5312834D01*
X19337261Y5222120D01*
X19337261Y5161643D01*
X19367500Y5070929D01*
X19397738Y5040691D01*
X19972261Y4466167D02*
X19972261Y4768548D01*
X19337261Y4768548D01*
X19730357Y4254500D02*
X19730357Y3770691D01*
X17432261Y6643310D02*
X16797261Y6643310D01*
X16797261Y6492120D01*
X16827500Y6401405D01*
X16887976Y6340929D01*
X16948452Y6310691D01*
X17069404Y6280453D01*
X17160119Y6280453D01*
X17281071Y6310691D01*
X17341547Y6340929D01*
X17402023Y6401405D01*
X17432261Y6492120D01*
X17432261Y6643310D01*
X17402023Y6038548D02*
X17432261Y5947834D01*
X17432261Y5796643D01*
X17402023Y5736167D01*
X17371785Y5705929D01*
X17311309Y5675691D01*
X17250833Y5675691D01*
X17190357Y5705929D01*
X17160119Y5736167D01*
X17129880Y5796643D01*
X17099642Y5917596D01*
X17069404Y5978072D01*
X17039166Y6008310D01*
X16978690Y6038548D01*
X16918214Y6038548D01*
X16857738Y6008310D01*
X16827500Y5978072D01*
X16797261Y5917596D01*
X16797261Y5766405D01*
X16827500Y5675691D01*
X17371785Y5040691D02*
X17402023Y5070929D01*
X17432261Y5161643D01*
X17432261Y5222120D01*
X17402023Y5312834D01*
X17341547Y5373310D01*
X17281071Y5403548D01*
X17160119Y5433786D01*
X17069404Y5433786D01*
X16948452Y5403548D01*
X16887976Y5373310D01*
X16827500Y5312834D01*
X16797261Y5222120D01*
X16797261Y5161643D01*
X16827500Y5070929D01*
X16857738Y5040691D01*
X17432261Y4466167D02*
X17432261Y4768548D01*
X16797261Y4768548D01*
X17190357Y4254500D02*
X17190357Y3770691D01*
X17432261Y4012596D02*
X16948452Y4012596D01*
X9597571Y6513286D02*
X9597571Y5739191D01*
X9984619Y6126239D02*
X9210523Y6126239D01*
X8968619Y4771572D02*
X8968619Y5255381D01*
X9452428Y5303762D01*
X9404047Y5255381D01*
X9355666Y5158620D01*
X9355666Y4916715D01*
X9404047Y4819953D01*
X9452428Y4771572D01*
X9549190Y4723191D01*
X9791095Y4723191D01*
X9887857Y4771572D01*
X9936238Y4819953D01*
X9984619Y4916715D01*
X9984619Y5158620D01*
X9936238Y5255381D01*
X9887857Y5303762D01*
X8968619Y4432905D02*
X9984619Y4094239D01*
X8968619Y3755572D01*
X12352261Y6658429D02*
X11717261Y6658429D01*
X11717261Y6507239D01*
X11747500Y6416524D01*
X11807976Y6356048D01*
X11868452Y6325810D01*
X11989404Y6295572D01*
X12080119Y6295572D01*
X12201071Y6325810D01*
X12261547Y6356048D01*
X12322023Y6416524D01*
X12352261Y6507239D01*
X12352261Y6658429D01*
X12322023Y6053667D02*
X12352261Y5962953D01*
X12352261Y5811762D01*
X12322023Y5751286D01*
X12291785Y5721048D01*
X12231309Y5690810D01*
X12170833Y5690810D01*
X12110357Y5721048D01*
X12080119Y5751286D01*
X12049880Y5811762D01*
X12019642Y5932715D01*
X11989404Y5993191D01*
X11959166Y6023429D01*
X11898690Y6053667D01*
X11838214Y6053667D01*
X11777738Y6023429D01*
X11747500Y5993191D01*
X11717261Y5932715D01*
X11717261Y5781524D01*
X11747500Y5690810D01*
X12352261Y5418667D02*
X11717261Y5418667D01*
X11717261Y5267477D01*
X11747500Y5176762D01*
X11807976Y5116286D01*
X11868452Y5086048D01*
X11989404Y5055810D01*
X12080119Y5055810D01*
X12201071Y5086048D01*
X12261547Y5116286D01*
X12322023Y5176762D01*
X12352261Y5267477D01*
X12352261Y5418667D01*
X12170833Y4813905D02*
X12170833Y4511524D01*
X12352261Y4874381D02*
X11717261Y4662715D01*
X12352261Y4451048D01*
X12110357Y4239381D02*
X12110357Y3755572D01*
D11*
X11561752Y11203000D02*
X11039248Y11203000D01*
X11561752Y12673000D02*
X11039248Y12673000D01*
X9517748Y20166000D02*
X10040252Y20166000D01*
X9517748Y18696000D02*
X10040252Y18696000D01*
D12*
X13994000Y16453500D02*
X13994000Y14153500D01*
X13994000Y14153500D02*
X16994000Y14153500D01*
X16994000Y14153500D02*
X16994000Y16453500D01*
X16994000Y16453500D02*
X13994000Y16453500D01*
X13994000Y18203500D02*
X13994000Y16803500D01*
D13*
X11469666Y9802858D02*
X11517285Y9755239D01*
X11660142Y9707620D01*
X11755380Y9707620D01*
X11898238Y9755239D01*
X11993476Y9850477D01*
X12041095Y9945715D01*
X12088714Y10136191D01*
X12088714Y10279048D01*
X12041095Y10469524D01*
X11993476Y10564762D01*
X11898238Y10660000D01*
X11755380Y10707620D01*
X11660142Y10707620D01*
X11517285Y10660000D01*
X11469666Y10612381D01*
X11136333Y10707620D02*
X10517285Y10707620D01*
X10850619Y10326667D01*
X10707761Y10326667D01*
X10612523Y10279048D01*
X10564904Y10231429D01*
X10517285Y10136191D01*
X10517285Y9898096D01*
X10564904Y9802858D01*
X10612523Y9755239D01*
X10707761Y9707620D01*
X10993476Y9707620D01*
X11088714Y9755239D01*
X11136333Y9802858D01*
X11773857Y19264334D02*
X11726238Y19216715D01*
X11678619Y19073858D01*
X11678619Y18978620D01*
X11726238Y18835762D01*
X11821476Y18740524D01*
X11916714Y18692905D01*
X12107190Y18645286D01*
X12250047Y18645286D01*
X12440523Y18692905D01*
X12535761Y18740524D01*
X12631000Y18835762D01*
X12678619Y18978620D01*
X12678619Y19073858D01*
X12631000Y19216715D01*
X12583380Y19264334D01*
X11678619Y20216715D02*
X11678619Y19645286D01*
X11678619Y19931000D02*
X12678619Y19931000D01*
X12535761Y19835762D01*
X12440523Y19740524D01*
X12392904Y19645286D01*
%LPC*%
D14*
X29256056Y14397056D03*
X27559000Y15100000D03*
X25861944Y14397056D03*
X25159000Y12700000D03*
X25861944Y11002944D03*
X27559000Y10300000D03*
X29256056Y11002944D03*
X29959000Y12700000D03*
D15*
X27559000Y12700000D03*
D16*
X20906900Y22096700D03*
X18366900Y22096700D03*
X15826900Y22096700D03*
X13286900Y22096700D03*
X10746900Y22096700D03*
G36*
G01*
X10850500Y12413000D02*
X10850500Y11463000D01*
G75*
G02*
X10600500Y11213000I-250000J0D01*
G01*
X10100500Y11213000D01*
G75*
G02*
X9850500Y11463000I0J250000D01*
G01*
X9850500Y12413000D01*
G75*
G02*
X10100500Y12663000I250000J0D01*
G01*
X10600500Y12663000D01*
G75*
G02*
X10850500Y12413000I0J-250000D01*
G01*
G37*
G36*
G01*
X12750500Y12413000D02*
X12750500Y11463000D01*
G75*
G02*
X12500500Y11213000I-250000J0D01*
G01*
X12000500Y11213000D01*
G75*
G02*
X11750500Y11463000I0J250000D01*
G01*
X11750500Y12413000D01*
G75*
G02*
X12000500Y12663000I250000J0D01*
G01*
X12500500Y12663000D01*
G75*
G02*
X12750500Y12413000I0J-250000D01*
G01*
G37*
D14*
X5888056Y14397056D03*
X4191000Y15100000D03*
X2493944Y14397056D03*
X1791000Y12700000D03*
X2493944Y11002944D03*
X4191000Y10300000D03*
X5888056Y11002944D03*
X6591000Y12700000D03*
D15*
X4191000Y12700000D03*
G36*
G01*
X10229000Y18956000D02*
X10229000Y19906000D01*
G75*
G02*
X10479000Y20156000I250000J0D01*
G01*
X10979000Y20156000D01*
G75*
G02*
X11229000Y19906000I0J-250000D01*
G01*
X11229000Y18956000D01*
G75*
G02*
X10979000Y18706000I-250000J0D01*
G01*
X10479000Y18706000D01*
G75*
G02*
X10229000Y18956000I0J250000D01*
G01*
G37*
G36*
G01*
X8329000Y18956000D02*
X8329000Y19906000D01*
G75*
G02*
X8579000Y20156000I250000J0D01*
G01*
X9079000Y20156000D01*
G75*
G02*
X9329000Y19906000I0J-250000D01*
G01*
X9329000Y18956000D01*
G75*
G02*
X9079000Y18706000I-250000J0D01*
G01*
X8579000Y18706000D01*
G75*
G02*
X8329000Y18956000I0J250000D01*
G01*
G37*
D17*
X14494000Y17503500D03*
X14994000Y17503500D03*
X15494000Y17503500D03*
X15994000Y17503500D03*
X16494000Y17503500D03*
X16494000Y13103500D03*
X15994000Y13103500D03*
X15494000Y13103500D03*
X14994000Y13103500D03*
X14494000Y13103500D03*
D18*
X22225000Y7556500D03*
X10414000Y14541500D03*
X9525000Y7620000D03*
X10731500Y17145000D03*
X19685000Y7556500D03*
X17145000Y7556500D03*
X14605000Y7556500D03*
X12065000Y7556500D03*
M02*
