G04 #@! TF.GenerationSoftware,KiCad,Pcbnew,5.99.0+really5.1.10+dfsg1-1*
G04 #@! TF.CreationDate,2021-09-10T21:48:36+03:00*
G04 #@! TF.ProjectId,PTH_Module,5054485f-4d6f-4647-956c-652e6b696361,1.0*
G04 #@! TF.SameCoordinates,PX8280d04PY636fcf8*
G04 #@! TF.FileFunction,Paste,Bot*
G04 #@! TF.FilePolarity,Positive*
%FSLAX46Y46*%
G04 Gerber Fmt 4.6, Leading zero omitted, Abs format (unit mm)*
G04 Created by KiCad (PCBNEW 5.99.0+really5.1.10+dfsg1-1) date 2021-09-10 21:48:36*
%MOMM*%
%LPD*%
G01*
G04 APERTURE LIST*
%ADD10R,0.300000X1.400000*%
G04 APERTURE END LIST*
G36*
G01*
X10850500Y12413000D02*
X10850500Y11463000D01*
G75*
G02*
X10600500Y11213000I-250000J0D01*
G01*
X10100500Y11213000D01*
G75*
G02*
X9850500Y11463000I0J250000D01*
G01*
X9850500Y12413000D01*
G75*
G02*
X10100500Y12663000I250000J0D01*
G01*
X10600500Y12663000D01*
G75*
G02*
X10850500Y12413000I0J-250000D01*
G01*
G37*
G36*
G01*
X12750500Y12413000D02*
X12750500Y11463000D01*
G75*
G02*
X12500500Y11213000I-250000J0D01*
G01*
X12000500Y11213000D01*
G75*
G02*
X11750500Y11463000I0J250000D01*
G01*
X11750500Y12413000D01*
G75*
G02*
X12000500Y12663000I250000J0D01*
G01*
X12500500Y12663000D01*
G75*
G02*
X12750500Y12413000I0J-250000D01*
G01*
G37*
G36*
G01*
X10229000Y18956000D02*
X10229000Y19906000D01*
G75*
G02*
X10479000Y20156000I250000J0D01*
G01*
X10979000Y20156000D01*
G75*
G02*
X11229000Y19906000I0J-250000D01*
G01*
X11229000Y18956000D01*
G75*
G02*
X10979000Y18706000I-250000J0D01*
G01*
X10479000Y18706000D01*
G75*
G02*
X10229000Y18956000I0J250000D01*
G01*
G37*
G36*
G01*
X8329000Y18956000D02*
X8329000Y19906000D01*
G75*
G02*
X8579000Y20156000I250000J0D01*
G01*
X9079000Y20156000D01*
G75*
G02*
X9329000Y19906000I0J-250000D01*
G01*
X9329000Y18956000D01*
G75*
G02*
X9079000Y18706000I-250000J0D01*
G01*
X8579000Y18706000D01*
G75*
G02*
X8329000Y18956000I0J250000D01*
G01*
G37*
D10*
X14494000Y17503500D03*
X14994000Y17503500D03*
X15494000Y17503500D03*
X15994000Y17503500D03*
X16494000Y17503500D03*
X16494000Y13103500D03*
X15994000Y13103500D03*
X15494000Y13103500D03*
X14994000Y13103500D03*
X14494000Y13103500D03*
M02*
