<?xml version="1.0" encoding="UTF-8" standalone="no"?>
<!-- Created with Inkscape (http://www.inkscape.org/) -->

<svg
   width="61.701134mm"
   height="61.701134mm"
   viewBox="0 0 61.701134 61.701134"
   version="1.1"
   id="svg5"
   inkscape:version="1.1.1 (3bf5ae0d25, 2021-09-20)"
   sodipodi:docname="APT.svg"
   xmlns:inkscape="http://www.inkscape.org/namespaces/inkscape"
   xmlns:sodipodi="http://sodipodi.sourceforge.net/DTD/sodipodi-0.dtd"
   xmlns="http://www.w3.org/2000/svg"
   xmlns:svg="http://www.w3.org/2000/svg">
  <sodipodi:namedview
     id="namedview7"
     pagecolor="#ffffff"
     bordercolor="#666666"
     borderopacity="1.0"
     inkscape:pageshadow="2"
     inkscape:pageopacity="0.0"
     inkscape:pagecheckerboard="0"
     inkscape:document-units="mm"
     showgrid="false"
     fit-margin-top="0"
     fit-margin-left="0"
     fit-margin-right="0"
     fit-margin-bottom="0"
     inkscape:zoom="1.8066498"
     inkscape:cx="155.5365"
     inkscape:cy="107.65783"
     inkscape:window-width="1365"
     inkscape:window-height="719"
     inkscape:window-x="1"
     inkscape:window-y="25"
     inkscape:window-maximized="1"
     inkscape:current-layer="layer1" />
  <defs
     id="defs2" />
  <g
     inkscape:label="Layer 1"
     inkscape:groupmode="layer"
     id="layer1"
     transform="translate(-138.8847,-63.854405)">
    <g
       id="g8072"
       transform="rotate(45,169.73204,94.701743)"
       inkscape:export-filename="/home/sam/Desktop/test/flow-sensors/ArtWork/APT.png"
       inkscape:export-xdpi="75"
       inkscape:export-ydpi="75">
      <g
         id="g8025"
         transform="translate(0.25614224,0.64879685)">
        <rect
           style="fill:#f3c558;fill-opacity:1;stroke:#000000;stroke-width:0.555768;stroke-linejoin:round"
           id="rect306"
           width="2.5377841"
           height="56.409908"
           x="168.35272"
           y="64.872978" />
        <path
           style="fill:#000000;stroke:none;stroke-width:0.352778"
           d="m 166.13458,63.510364 c -5.19497,0.707146 -10.14091,2.36994 -14.46389,5.396209 -21.10461,14.774016 -14.98272,48.262297 9.87778,54.819727 3.50771,0.92499 7.31675,1.34973 10.93611,0.91687 5.00697,-0.59901 9.8873,-2.16147 14.11111,-4.96393 21.98335,-14.58489 15.92439,-48.879944 -9.525,-55.391192 -3.50626,-0.897036 -7.33496,-1.267887 -10.93611,-0.777684 m 0.35278,0.303505 c 3.49274,-0.417724 7.18996,-0.04128 10.58333,0.82695 24.92022,6.375823 31.1912,40.311361 9.525,54.685641 -4.22381,2.80247 -9.10414,4.36492 -14.11111,4.96394 -3.49274,0.41769 -7.18982,0.0413 -10.58333,-0.82727 -24.92008,-6.37575 -31.1912,-40.311108 -9.525,-54.685603 4.2237,-2.80222 9.10399,-4.364818 14.11111,-4.963658 m -0.35278,0.7559 c -4.95861,0.710072 -9.66837,2.354404 -13.75833,5.291667 -20.10974,14.442265 -14.00408,47.399154 10.58333,52.760324 3.19635,0.69709 6.6215,1.02623 9.87778,0.55986 4.95864,-0.71015 9.66822,-2.35444 13.75833,-5.29167 20.10974,-14.44237 14.00422,-47.39937 -10.58333,-52.760499 -3.19652,-0.696947 -6.6215,-1.025955 -9.87778,-0.559682 m 1.76389,0.201719 v 57.150002 h 3.52778 V 64.771488 c 24.03086,1.899073 36.23451,31.845251 19.0447,49.388542 -2.55093,2.6035 -5.48463,4.73922 -8.81415,6.24029 -4.34728,1.96003 -9.0237,2.69028 -13.75833,2.57422 -3.68787,-0.0903 -7.60991,-1.17652 -10.93611,-2.74003 -26.5866,-12.49645 -18.62386,-54.193834 10.93611,-55.463022 m 3.175,0 v 56.797232 h -2.82222 V 64.771488 h 2.82222 m -1.76389,1.763889 v 0.705555 h 0.70555 v -0.705555 h -0.70555 m 0,4.233333 v 0.705556 h 0.70555 V 70.76871 h -0.70555 m 0,10.936112 v 0.705555 h 0.70555 v -0.705555 h -0.70555 m 0,23.283338 v 0.70555 h 0.70555 v -0.70555 h -0.70555 m 0,10.93611 v 0.70556 h 0.70555 v -0.70556 h -0.70555 m 0,4.23333 v 0.70556 h 0.70555 v -0.70556 z"
           id="path93" />
        <ellipse
           style="fill:none;fill-opacity:1;stroke:#444444;stroke-width:1.25769;stroke-linejoin:round;stroke-miterlimit:4;stroke-dasharray:none;stroke-opacity:1"
           id="path4037"
           cx="169.51508"
           cy="94.048416"
           rx="29.800062"
           ry="30.050053" />
      </g>
      <g
         id="g8025-3"
         transform="rotate(-90,169.92837,94.249274)">
        <rect
           style="fill:#f3c558;fill-opacity:1;stroke:#000000;stroke-width:0.555768;stroke-linejoin:round"
           id="rect306-6"
           width="2.5377841"
           height="56.409908"
           x="168.35272"
           y="64.872978" />
        <path
           style="fill:#000000;stroke:none;stroke-width:0.352778"
           d="m 166.13458,63.510364 c -5.19497,0.707146 -10.14091,2.36994 -14.46389,5.396209 -21.10461,14.774016 -14.98272,48.262297 9.87778,54.819727 3.50771,0.92499 7.31675,1.34973 10.93611,0.91687 5.00697,-0.59901 9.8873,-2.16147 14.11111,-4.96393 21.98335,-14.58489 15.92439,-48.879944 -9.525,-55.391192 -3.50626,-0.897036 -7.33496,-1.267887 -10.93611,-0.777684 m 0.35278,0.303505 c 3.49274,-0.417724 7.18996,-0.04128 10.58333,0.82695 24.92022,6.375823 31.1912,40.311361 9.525,54.685641 -4.22381,2.80247 -9.10414,4.36492 -14.11111,4.96394 -3.49274,0.41769 -7.18982,0.0413 -10.58333,-0.82727 -24.92008,-6.37575 -31.1912,-40.311108 -9.525,-54.685603 4.2237,-2.80222 9.10399,-4.364818 14.11111,-4.963658 m -0.35278,0.7559 c -4.95861,0.710072 -9.66837,2.354404 -13.75833,5.291667 -20.10974,14.442265 -14.00408,47.399154 10.58333,52.760324 3.19635,0.69709 6.6215,1.02623 9.87778,0.55986 4.95864,-0.71015 9.66822,-2.35444 13.75833,-5.29167 20.10974,-14.44237 14.00422,-47.39937 -10.58333,-52.760499 -3.19652,-0.696947 -6.6215,-1.025955 -9.87778,-0.559682 m 1.76389,0.201719 v 57.150002 h 3.52778 V 64.771488 c 24.03086,1.899073 36.23451,31.845251 19.0447,49.388542 -2.55093,2.6035 -5.48463,4.73922 -8.81415,6.24029 -4.34728,1.96003 -9.0237,2.69028 -13.75833,2.57422 -3.68787,-0.0903 -7.60991,-1.17652 -10.93611,-2.74003 -26.5866,-12.49645 -18.62386,-54.193834 10.93611,-55.463022 m 3.175,0 v 56.797232 h -2.82222 V 64.771488 h 2.82222 m -1.76389,1.763889 v 0.705555 h 0.70555 v -0.705555 h -0.70555 m 0,4.233333 v 0.705556 h 0.70555 V 70.76871 h -0.70555 m 0,10.936112 v 0.705555 h 0.70555 v -0.705555 h -0.70555 m 0,23.283338 v 0.70555 h 0.70555 v -0.70555 h -0.70555 m 0,10.93611 v 0.70556 h 0.70555 v -0.70556 h -0.70555 m 0,4.23333 v 0.70556 h 0.70555 v -0.70556 z"
           id="path93-7" />
        <ellipse
           style="fill:none;fill-opacity:1;stroke:#444444;stroke-width:1.25769;stroke-linejoin:round;stroke-miterlimit:4;stroke-dasharray:none;stroke-opacity:1"
           id="path4037-5"
           cx="169.51508"
           cy="94.048416"
           rx="29.800062"
           ry="30.050053" />
      </g>
    </g>
  </g>
</svg>
