PCBNEW-LibModule-V1  2021-09-06 06:06:15
# encoding utf-8
Units mm
$INDEX
SOP64P602X175-16N
$EndINDEX
$MODULE SOP64P602X175-16N
Po 0 0 0 15 6135a1c7 00000000 ~~
Li SOP64P602X175-16N
Cd MAX 21-0055_O
Kw Integrated Circuit
Sc 0
At SMD
AR 
Op 0 0 0
T0 0 0 1.27 1.27 0 0.254 N V 21 N "IC**"
T1 0 0 1.27 1.27 0 0.254 N I 21 N "SOP64P602X175-16N"
DS -3.75 -2.74 3.75 -2.74 0.05 24
DS 3.75 -2.74 3.75 2.74 0.05 24
DS 3.75 2.74 -3.75 2.74 0.05 24
DS -3.75 2.74 -3.75 -2.74 0.05 24
DS -1.95 -2.445 1.95 -2.445 0.1 24
DS 1.95 -2.445 1.95 2.445 0.1 24
DS 1.95 2.445 -1.95 2.445 0.1 24
DS -1.95 2.445 -1.95 -2.445 0.1 24
DS -1.95 -1.81 -1.315 -2.445 0.1 24
DS -1.6 -2.445 1.6 -2.445 0.2 21
DS 1.6 -2.445 1.6 2.445 0.2 21
DS 1.6 2.445 -1.6 2.445 0.2 21
DS -1.6 2.445 -1.6 -2.445 0.2 21
DS -3.5 -2.79 -1.95 -2.79 0.2 21
$PAD
Po -2.725 -2.222
Sh "1" R 0.435 1.55 0 0 900
At SMD N 00888000
Ne 0 ""
$EndPAD
$PAD
Po -2.725 -1.588
Sh "2" R 0.435 1.55 0 0 900
At SMD N 00888000
Ne 0 ""
$EndPAD
$PAD
Po -2.725 -0.952
Sh "3" R 0.435 1.55 0 0 900
At SMD N 00888000
Ne 0 ""
$EndPAD
$PAD
Po -2.725 -0.318
Sh "4" R 0.435 1.55 0 0 900
At SMD N 00888000
Ne 0 ""
$EndPAD
$PAD
Po -2.725 0.318
Sh "5" R 0.435 1.55 0 0 900
At SMD N 00888000
Ne 0 ""
$EndPAD
$PAD
Po -2.725 0.952
Sh "6" R 0.435 1.55 0 0 900
At SMD N 00888000
Ne 0 ""
$EndPAD
$PAD
Po -2.725 1.588
Sh "7" R 0.435 1.55 0 0 900
At SMD N 00888000
Ne 0 ""
$EndPAD
$PAD
Po -2.725 2.222
Sh "8" R 0.435 1.55 0 0 900
At SMD N 00888000
Ne 0 ""
$EndPAD
$PAD
Po 2.725 2.222
Sh "9" R 0.435 1.55 0 0 900
At SMD N 00888000
Ne 0 ""
$EndPAD
$PAD
Po 2.725 1.588
Sh "10" R 0.435 1.55 0 0 900
At SMD N 00888000
Ne 0 ""
$EndPAD
$PAD
Po 2.725 0.952
Sh "11" R 0.435 1.55 0 0 900
At SMD N 00888000
Ne 0 ""
$EndPAD
$PAD
Po 2.725 0.318
Sh "12" R 0.435 1.55 0 0 900
At SMD N 00888000
Ne 0 ""
$EndPAD
$PAD
Po 2.725 -0.318
Sh "13" R 0.435 1.55 0 0 900
At SMD N 00888000
Ne 0 ""
$EndPAD
$PAD
Po 2.725 -0.952
Sh "14" R 0.435 1.55 0 0 900
At SMD N 00888000
Ne 0 ""
$EndPAD
$PAD
Po 2.725 -1.588
Sh "15" R 0.435 1.55 0 0 900
At SMD N 00888000
Ne 0 ""
$EndPAD
$PAD
Po 2.725 -2.222
Sh "16" R 0.435 1.55 0 0 900
At SMD N 00888000
Ne 0 ""
$EndPAD
$EndMODULE SOP64P602X175-16N
$EndLIBRARY
