ISO-10303-21;
HEADER;
FILE_DESCRIPTION(('FreeCAD Model'),'2;1');
FILE_NAME('Open CASCADE Shape Model','2021-09-28T20:05:16',('Author'),(
    ''),'Open CASCADE STEP processor 7.5','FreeCAD','Unknown');
FILE_SCHEMA(('AUTOMOTIVE_DESIGN { 1 0 10303 214 1 1 1 1 }'));
ENDSEC;
DATA;
#1 = APPLICATION_PROTOCOL_DEFINITION('international standard',
  'automotive_design',2000,#2);
#2 = APPLICATION_CONTEXT(
  'core data for automotive mechanical design processes');
#3 = SHAPE_DEFINITION_REPRESENTATION(#4,#10);
#4 = PRODUCT_DEFINITION_SHAPE('','',#5);
#5 = PRODUCT_DEFINITION('design','',#6,#9);
#6 = PRODUCT_DEFINITION_FORMATION('','',#7);
#7 = PRODUCT('Sensor_housing','Sensor_housing','',(#8));
#8 = PRODUCT_CONTEXT('',#2,'mechanical');
#9 = PRODUCT_DEFINITION_CONTEXT('part definition',#2,'design');
#10 = ADVANCED_BREP_SHAPE_REPRESENTATION('',(#11,#15),#835);
#11 = AXIS2_PLACEMENT_3D('',#12,#13,#14);
#12 = CARTESIAN_POINT('',(0.,0.,0.));
#13 = DIRECTION('',(0.,0.,1.));
#14 = DIRECTION('',(1.,0.,-0.));
#15 = MANIFOLD_SOLID_BREP('',#16);
#16 = CLOSED_SHELL('',(#17,#45,#70,#95,#120,#145,#165,#190,#215,#235,
    #255,#280,#359,#384,#416,#440,#464,#488,#512,#529,#594,#619,#651,
    #676,#701,#726,#751,#769,#794,#823));
#17 = ADVANCED_FACE('',(#18,#29),#40,.T.);
#18 = FACE_BOUND('',#19,.T.);
#19 = EDGE_LOOP('',(#20));
#20 = ORIENTED_EDGE('',*,*,#21,.F.);
#21 = EDGE_CURVE('',#22,#22,#24,.T.);
#22 = VERTEX_POINT('',#23);
#23 = CARTESIAN_POINT('',(-3.4831,-1.2E-14,50.8));
#24 = CIRCLE('',#25,3.4831);
#25 = AXIS2_PLACEMENT_3D('',#26,#27,#28);
#26 = CARTESIAN_POINT('',(0.,-1.26E-14,50.8));
#27 = DIRECTION('',(0.,0.,-1.));
#28 = DIRECTION('',(-1.,2.9E-16,0.));
#29 = FACE_BOUND('',#30,.T.);
#30 = EDGE_LOOP('',(#31));
#31 = ORIENTED_EDGE('',*,*,#32,.F.);
#32 = EDGE_CURVE('',#33,#33,#35,.T.);
#33 = VERTEX_POINT('',#34);
#34 = CARTESIAN_POINT('',(2.8575,0.,50.8));
#35 = CIRCLE('',#36,2.8575);
#36 = AXIS2_PLACEMENT_3D('',#37,#38,#39);
#37 = CARTESIAN_POINT('',(0.,0.,50.8));
#38 = DIRECTION('',(0.,0.,1.));
#39 = DIRECTION('',(1.,0.,0.));
#40 = PLANE('',#41);
#41 = AXIS2_PLACEMENT_3D('',#42,#43,#44);
#42 = CARTESIAN_POINT('',(0.,8.1E-16,50.8));
#43 = DIRECTION('',(0.,0.,1.));
#44 = DIRECTION('',(1.,0.,0.));
#45 = ADVANCED_FACE('',(#46),#65,.T.);
#46 = FACE_BOUND('',#47,.T.);
#47 = EDGE_LOOP('',(#48,#56,#57,#58));
#48 = ORIENTED_EDGE('',*,*,#49,.F.);
#49 = EDGE_CURVE('',#22,#50,#52,.T.);
#50 = VERTEX_POINT('',#51);
#51 = CARTESIAN_POINT('',(-4.4831,-1.1E-14,49.8));
#52 = LINE('',#53,#54);
#53 = CARTESIAN_POINT('',(-4.4831,-1.128E-14,49.8));
#54 = VECTOR('',#55,1.);
#55 = DIRECTION('',(-0.707106781187,2.1E-16,-0.707106781187));
#56 = ORIENTED_EDGE('',*,*,#21,.T.);
#57 = ORIENTED_EDGE('',*,*,#49,.T.);
#58 = ORIENTED_EDGE('',*,*,#59,.F.);
#59 = EDGE_CURVE('',#50,#50,#60,.T.);
#60 = CIRCLE('',#61,4.4831);
#61 = AXIS2_PLACEMENT_3D('',#62,#63,#64);
#62 = CARTESIAN_POINT('',(0.,-1.26E-14,49.8));
#63 = DIRECTION('',(0.,0.,-1.));
#64 = DIRECTION('',(-1.,2.9E-16,0.));
#65 = CONICAL_SURFACE('',#66,4.4831,0.785398163397);
#66 = AXIS2_PLACEMENT_3D('',#67,#68,#69);
#67 = CARTESIAN_POINT('',(0.,-1.26E-14,49.8));
#68 = DIRECTION('',(-0.,-0.,-1.));
#69 = DIRECTION('',(-1.,2.9E-16,0.));
#70 = ADVANCED_FACE('',(#71),#90,.F.);
#71 = FACE_BOUND('',#72,.F.);
#72 = EDGE_LOOP('',(#73,#81,#88,#89));
#73 = ORIENTED_EDGE('',*,*,#74,.F.);
#74 = EDGE_CURVE('',#75,#33,#77,.T.);
#75 = VERTEX_POINT('',#76);
#76 = CARTESIAN_POINT('',(1.5875,0.,49.53));
#77 = LINE('',#78,#79);
#78 = CARTESIAN_POINT('',(1.5875,0.,49.53));
#79 = VECTOR('',#80,1.);
#80 = DIRECTION('',(0.707106781187,0.,0.707106781187));
#81 = ORIENTED_EDGE('',*,*,#82,.T.);
#82 = EDGE_CURVE('',#75,#75,#83,.T.);
#83 = CIRCLE('',#84,1.5875);
#84 = AXIS2_PLACEMENT_3D('',#85,#86,#87);
#85 = CARTESIAN_POINT('',(0.,0.,49.53));
#86 = DIRECTION('',(0.,0.,1.));
#87 = DIRECTION('',(1.,0.,0.));
#88 = ORIENTED_EDGE('',*,*,#74,.T.);
#89 = ORIENTED_EDGE('',*,*,#32,.F.);
#90 = CONICAL_SURFACE('',#91,1.5875,0.785398163397);
#91 = AXIS2_PLACEMENT_3D('',#92,#93,#94);
#92 = CARTESIAN_POINT('',(0.,0.,49.53));
#93 = DIRECTION('',(0.,0.,1.));
#94 = DIRECTION('',(1.,0.,0.));
#95 = ADVANCED_FACE('',(#96),#115,.T.);
#96 = FACE_BOUND('',#97,.T.);
#97 = EDGE_LOOP('',(#98,#106,#107,#108));
#98 = ORIENTED_EDGE('',*,*,#99,.F.);
#99 = EDGE_CURVE('',#50,#100,#102,.T.);
#100 = VERTEX_POINT('',#101);
#101 = CARTESIAN_POINT('',(-4.4831,-1.1E-14,49.276));
#102 = LINE('',#103,#104);
#103 = CARTESIAN_POINT('',(-4.4831,0.,56.7309));
#104 = VECTOR('',#105,1.);
#105 = DIRECTION('',(0.,0.,-1.));
#106 = ORIENTED_EDGE('',*,*,#59,.T.);
#107 = ORIENTED_EDGE('',*,*,#99,.T.);
#108 = ORIENTED_EDGE('',*,*,#109,.F.);
#109 = EDGE_CURVE('',#100,#100,#110,.T.);
#110 = CIRCLE('',#111,4.4831);
#111 = AXIS2_PLACEMENT_3D('',#112,#113,#114);
#112 = CARTESIAN_POINT('',(0.,-1.094E-14,49.276));
#113 = DIRECTION('',(0.,2.2E-16,-1.));
#114 = DIRECTION('',(-1.,0.,0.));
#115 = CYLINDRICAL_SURFACE('',#116,4.4831);
#116 = AXIS2_PLACEMENT_3D('',#117,#118,#119);
#117 = CARTESIAN_POINT('',(0.,-1.26E-14,56.7309));
#118 = DIRECTION('',(0.,2.2E-16,-1.));
#119 = DIRECTION('',(-1.,0.,0.));
#120 = ADVANCED_FACE('',(#121),#140,.F.);
#121 = FACE_BOUND('',#122,.F.);
#122 = EDGE_LOOP('',(#123,#131,#132,#133));
#123 = ORIENTED_EDGE('',*,*,#124,.F.);
#124 = EDGE_CURVE('',#75,#125,#127,.T.);
#125 = VERTEX_POINT('',#126);
#126 = CARTESIAN_POINT('',(1.5875,0.,12.954));
#127 = LINE('',#128,#129);
#128 = CARTESIAN_POINT('',(1.5875,0.,50.8));
#129 = VECTOR('',#130,1.);
#130 = DIRECTION('',(-0.,-0.,-1.));
#131 = ORIENTED_EDGE('',*,*,#82,.F.);
#132 = ORIENTED_EDGE('',*,*,#124,.T.);
#133 = ORIENTED_EDGE('',*,*,#134,.T.);
#134 = EDGE_CURVE('',#125,#125,#135,.T.);
#135 = CIRCLE('',#136,1.5875);
#136 = AXIS2_PLACEMENT_3D('',#137,#138,#139);
#137 = CARTESIAN_POINT('',(0.,0.,12.954));
#138 = DIRECTION('',(0.,0.,1.));
#139 = DIRECTION('',(1.,0.,0.));
#140 = CYLINDRICAL_SURFACE('',#141,1.5875);
#141 = AXIS2_PLACEMENT_3D('',#142,#143,#144);
#142 = CARTESIAN_POINT('',(0.,0.,50.8));
#143 = DIRECTION('',(0.,0.,1.));
#144 = DIRECTION('',(1.,0.,0.));
#145 = ADVANCED_FACE('',(#146,#149),#160,.T.);
#146 = FACE_BOUND('',#147,.T.);
#147 = EDGE_LOOP('',(#148));
#148 = ORIENTED_EDGE('',*,*,#109,.T.);
#149 = FACE_BOUND('',#150,.T.);
#150 = EDGE_LOOP('',(#151));
#151 = ORIENTED_EDGE('',*,*,#152,.F.);
#152 = EDGE_CURVE('',#153,#153,#155,.T.);
#153 = VERTEX_POINT('',#154);
#154 = CARTESIAN_POINT('',(-3.8735,-1.1E-14,49.276));
#155 = CIRCLE('',#156,3.8735);
#156 = AXIS2_PLACEMENT_3D('',#157,#158,#159);
#157 = CARTESIAN_POINT('',(0.,-1.094E-14,49.276));
#158 = DIRECTION('',(0.,2.2E-16,-1.));
#159 = DIRECTION('',(-1.,0.,0.));
#160 = PLANE('',#161);
#161 = AXIS2_PLACEMENT_3D('',#162,#163,#164);
#162 = CARTESIAN_POINT('',(0.,-1.094E-14,49.276));
#163 = DIRECTION('',(0.,2.2E-16,-1.));
#164 = DIRECTION('',(-1.,0.,0.));
#165 = ADVANCED_FACE('',(#166),#185,.F.);
#166 = FACE_BOUND('',#167,.F.);
#167 = EDGE_LOOP('',(#168,#176,#183,#184));
#168 = ORIENTED_EDGE('',*,*,#169,.F.);
#169 = EDGE_CURVE('',#170,#125,#172,.T.);
#170 = VERTEX_POINT('',#171);
#171 = CARTESIAN_POINT('',(1.8415,0.,12.7));
#172 = LINE('',#173,#174);
#173 = CARTESIAN_POINT('',(1.5875,0.,12.954));
#174 = VECTOR('',#175,1.);
#175 = DIRECTION('',(-0.707106781187,0.,0.707106781187));
#176 = ORIENTED_EDGE('',*,*,#177,.T.);
#177 = EDGE_CURVE('',#170,#170,#178,.T.);
#178 = CIRCLE('',#179,1.8415);
#179 = AXIS2_PLACEMENT_3D('',#180,#181,#182);
#180 = CARTESIAN_POINT('',(0.,0.,12.7));
#181 = DIRECTION('',(0.,0.,1.));
#182 = DIRECTION('',(1.,0.,0.));
#183 = ORIENTED_EDGE('',*,*,#169,.T.);
#184 = ORIENTED_EDGE('',*,*,#134,.F.);
#185 = CONICAL_SURFACE('',#186,1.5875,0.785398163397);
#186 = AXIS2_PLACEMENT_3D('',#187,#188,#189);
#187 = CARTESIAN_POINT('',(0.,0.,12.954));
#188 = DIRECTION('',(-0.,-0.,-1.));
#189 = DIRECTION('',(1.,0.,0.));
#190 = ADVANCED_FACE('',(#191),#210,.T.);
#191 = FACE_BOUND('',#192,.T.);
#192 = EDGE_LOOP('',(#193,#194,#202,#209));
#193 = ORIENTED_EDGE('',*,*,#152,.T.);
#194 = ORIENTED_EDGE('',*,*,#195,.T.);
#195 = EDGE_CURVE('',#153,#196,#198,.T.);
#196 = VERTEX_POINT('',#197);
#197 = CARTESIAN_POINT('',(-3.8735,-1.E-14,46.482));
#198 = LINE('',#199,#200);
#199 = CARTESIAN_POINT('',(-3.8735,0.,49.276));
#200 = VECTOR('',#201,1.);
#201 = DIRECTION('',(0.,0.,-1.));
#202 = ORIENTED_EDGE('',*,*,#203,.F.);
#203 = EDGE_CURVE('',#196,#196,#204,.T.);
#204 = CIRCLE('',#205,3.8735);
#205 = AXIS2_PLACEMENT_3D('',#206,#207,#208);
#206 = CARTESIAN_POINT('',(0.,-1.032E-14,46.482));
#207 = DIRECTION('',(0.,2.2E-16,-1.));
#208 = DIRECTION('',(-1.,0.,0.));
#209 = ORIENTED_EDGE('',*,*,#195,.F.);
#210 = CYLINDRICAL_SURFACE('',#211,3.8735);
#211 = AXIS2_PLACEMENT_3D('',#212,#213,#214);
#212 = CARTESIAN_POINT('',(0.,-1.094E-14,49.276));
#213 = DIRECTION('',(0.,2.2E-16,-1.));
#214 = DIRECTION('',(-1.,0.,0.));
#215 = ADVANCED_FACE('',(#216,#219),#230,.T.);
#216 = FACE_BOUND('',#217,.T.);
#217 = EDGE_LOOP('',(#218));
#218 = ORIENTED_EDGE('',*,*,#177,.T.);
#219 = FACE_BOUND('',#220,.T.);
#220 = EDGE_LOOP('',(#221));
#221 = ORIENTED_EDGE('',*,*,#222,.T.);
#222 = EDGE_CURVE('',#223,#223,#225,.T.);
#223 = VERTEX_POINT('',#224);
#224 = CARTESIAN_POINT('',(5.0038,0.,12.7));
#225 = CIRCLE('',#226,5.0038);
#226 = AXIS2_PLACEMENT_3D('',#227,#228,#229);
#227 = CARTESIAN_POINT('',(0.,0.,12.7));
#228 = DIRECTION('',(0.,0.,-1.));
#229 = DIRECTION('',(1.,0.,0.));
#230 = PLANE('',#231);
#231 = AXIS2_PLACEMENT_3D('',#232,#233,#234);
#232 = CARTESIAN_POINT('',(-1.4E-16,2.E-16,12.7));
#233 = DIRECTION('',(-0.,-0.,-1.));
#234 = DIRECTION('',(-1.,0.,0.));
#235 = ADVANCED_FACE('',(#236,#247),#250,.F.);
#236 = FACE_BOUND('',#237,.F.);
#237 = EDGE_LOOP('',(#238));
#238 = ORIENTED_EDGE('',*,*,#239,.T.);
#239 = EDGE_CURVE('',#240,#240,#242,.T.);
#240 = VERTEX_POINT('',#241);
#241 = CARTESIAN_POINT('',(-5.969,-1.E-14,46.482));
#242 = CIRCLE('',#243,5.969);
#243 = AXIS2_PLACEMENT_3D('',#244,#245,#246);
#244 = CARTESIAN_POINT('',(0.,-1.032E-14,46.482));
#245 = DIRECTION('',(0.,2.2E-16,-1.));
#246 = DIRECTION('',(-1.,0.,0.));
#247 = FACE_BOUND('',#248,.F.);
#248 = EDGE_LOOP('',(#249));
#249 = ORIENTED_EDGE('',*,*,#203,.F.);
#250 = PLANE('',#251);
#251 = AXIS2_PLACEMENT_3D('',#252,#253,#254);
#252 = CARTESIAN_POINT('',(0.,-1.032E-14,46.482));
#253 = DIRECTION('',(0.,2.2E-16,-1.));
#254 = DIRECTION('',(-1.,0.,0.));
#255 = ADVANCED_FACE('',(#256),#275,.F.);
#256 = FACE_BOUND('',#257,.F.);
#257 = EDGE_LOOP('',(#258,#266,#267,#268));
#258 = ORIENTED_EDGE('',*,*,#259,.T.);
#259 = EDGE_CURVE('',#260,#223,#262,.T.);
#260 = VERTEX_POINT('',#261);
#261 = CARTESIAN_POINT('',(5.0038,0.,0.254));
#262 = LINE('',#263,#264);
#263 = CARTESIAN_POINT('',(5.0038,0.,0.));
#264 = VECTOR('',#265,1.);
#265 = DIRECTION('',(0.,0.,1.));
#266 = ORIENTED_EDGE('',*,*,#222,.T.);
#267 = ORIENTED_EDGE('',*,*,#259,.F.);
#268 = ORIENTED_EDGE('',*,*,#269,.F.);
#269 = EDGE_CURVE('',#260,#260,#270,.T.);
#270 = CIRCLE('',#271,5.0038);
#271 = AXIS2_PLACEMENT_3D('',#272,#273,#274);
#272 = CARTESIAN_POINT('',(0.,0.,0.254));
#273 = DIRECTION('',(0.,0.,-1.));
#274 = DIRECTION('',(1.,0.,0.));
#275 = CYLINDRICAL_SURFACE('',#276,5.0038);
#276 = AXIS2_PLACEMENT_3D('',#277,#278,#279);
#277 = CARTESIAN_POINT('',(0.,0.,0.));
#278 = DIRECTION('',(0.,0.,-1.));
#279 = DIRECTION('',(1.,0.,0.));
#280 = ADVANCED_FACE('',(#281),#354,.T.);
#281 = FACE_BOUND('',#282,.F.);
#282 = EDGE_LOOP('',(#283,#294,#300,#301,#302,#311,#320,#329,#338,#347)
  );
#283 = ORIENTED_EDGE('',*,*,#284,.F.);
#284 = EDGE_CURVE('',#285,#287,#289,.T.);
#285 = VERTEX_POINT('',#286);
#286 = CARTESIAN_POINT('',(-6.35,-1.E-14,46.101));
#287 = VERTEX_POINT('',#288);
#288 = CARTESIAN_POINT('',(-6.35,-3.666174209354,45.118651581292));
#289 = HYPERBOLA('',#290,6.35,6.35);
#290 = AXIS2_PLACEMENT_3D('',#291,#292,#293);
#291 = CARTESIAN_POINT('',(-6.35,6.525E-14,52.451));
#292 = DIRECTION('',(-1.,1.211E-14,0.));
#293 = DIRECTION('',(2.6642E-30,2.2E-16,-1.));
#294 = ORIENTED_EDGE('',*,*,#295,.T.);
#295 = EDGE_CURVE('',#285,#240,#296,.T.);
#296 = LINE('',#297,#298);
#297 = CARTESIAN_POINT('',(-10.8331,0.,41.6179));
#298 = VECTOR('',#299,1.);
#299 = DIRECTION('',(0.707106781187,0.,0.707106781187));
#300 = ORIENTED_EDGE('',*,*,#239,.F.);
#301 = ORIENTED_EDGE('',*,*,#295,.F.);
#302 = ORIENTED_EDGE('',*,*,#303,.F.);
#303 = EDGE_CURVE('',#304,#285,#306,.T.);
#304 = VERTEX_POINT('',#305);
#305 = CARTESIAN_POINT('',(-6.35,3.666174209354,45.118651581292));
#306 = HYPERBOLA('',#307,6.35,6.35);
#307 = AXIS2_PLACEMENT_3D('',#308,#309,#310);
#308 = CARTESIAN_POINT('',(-6.35,6.525E-14,52.451));
#309 = DIRECTION('',(-1.,1.211E-14,0.));
#310 = DIRECTION('',(2.6642E-30,2.2E-16,-1.));
#311 = ORIENTED_EDGE('',*,*,#312,.F.);
#312 = EDGE_CURVE('',#313,#304,#315,.T.);
#313 = VERTEX_POINT('',#314);
#314 = CARTESIAN_POINT('',(5.1E-14,7.332348418708,45.118651581292));
#315 = HYPERBOLA('',#316,6.35,6.35);
#316 = AXIS2_PLACEMENT_3D('',#317,#318,#319);
#317 = CARTESIAN_POINT('',(-3.175,5.499261314031,52.451));
#318 = DIRECTION('',(-0.5,0.866025403784,0.));
#319 = DIRECTION('',(1.009807621135E-16,5.830127018922E-17,-1.));
#320 = ORIENTED_EDGE('',*,*,#321,.F.);
#321 = EDGE_CURVE('',#322,#313,#324,.T.);
#322 = VERTEX_POINT('',#323);
#323 = CARTESIAN_POINT('',(6.35,3.666174209354,45.118651581292));
#324 = HYPERBOLA('',#325,6.35,6.35);
#325 = AXIS2_PLACEMENT_3D('',#326,#327,#328);
#326 = CARTESIAN_POINT('',(3.175,5.499261314031,52.451));
#327 = DIRECTION('',(0.5,0.866025403784,0.));
#328 = DIRECTION('',(-1.009807621135E-16,5.830127018922E-17,-1.));
#329 = ORIENTED_EDGE('',*,*,#330,.F.);
#330 = EDGE_CURVE('',#331,#322,#333,.T.);
#331 = VERTEX_POINT('',#332);
#332 = CARTESIAN_POINT('',(6.35,-3.666174209354,45.118651581292));
#333 = HYPERBOLA('',#334,6.35,6.35);
#334 = AXIS2_PLACEMENT_3D('',#335,#336,#337);
#335 = CARTESIAN_POINT('',(6.35,-1.165E-14,52.451));
#336 = DIRECTION('',(1.,-0.,0.));
#337 = DIRECTION('',(0.,2.2E-16,-1.));
#338 = ORIENTED_EDGE('',*,*,#339,.F.);
#339 = EDGE_CURVE('',#340,#331,#342,.T.);
#340 = VERTEX_POINT('',#341);
#341 = CARTESIAN_POINT('',(2.6E-14,-7.332348418708,45.118651581292));
#342 = HYPERBOLA('',#343,6.35,6.35);
#343 = AXIS2_PLACEMENT_3D('',#344,#345,#346);
#344 = CARTESIAN_POINT('',(3.175,-5.499261314031,52.451));
#345 = DIRECTION('',(0.5,-0.866025403784,-6.162975822039E-33));
#346 = DIRECTION('',(1.009807621135E-16,5.830127018922E-17,-1.));
#347 = ORIENTED_EDGE('',*,*,#348,.F.);
#348 = EDGE_CURVE('',#287,#340,#349,.T.);
#349 = HYPERBOLA('',#350,6.35,6.35);
#350 = AXIS2_PLACEMENT_3D('',#351,#352,#353);
#351 = CARTESIAN_POINT('',(-3.175,-5.499261314031,52.451));
#352 = DIRECTION('',(-0.5,-0.866025403784,0.));
#353 = DIRECTION('',(-1.009807621135E-16,5.830127018922E-17,-1.));
#354 = CONICAL_SURFACE('',#355,10.8331,0.785398163397);
#355 = AXIS2_PLACEMENT_3D('',#356,#357,#358);
#356 = CARTESIAN_POINT('',(0.,-9.24E-15,41.6179));
#357 = DIRECTION('',(0.,2.2E-16,-1.));
#358 = DIRECTION('',(-1.,0.,0.));
#359 = ADVANCED_FACE('',(#360),#379,.F.);
#360 = FACE_BOUND('',#361,.F.);
#361 = EDGE_LOOP('',(#362,#370,#371,#372));
#362 = ORIENTED_EDGE('',*,*,#363,.F.);
#363 = EDGE_CURVE('',#260,#364,#366,.T.);
#364 = VERTEX_POINT('',#365);
#365 = CARTESIAN_POINT('',(5.2578,0.,0.));
#366 = LINE('',#367,#368);
#367 = CARTESIAN_POINT('',(5.0038,0.,0.254));
#368 = VECTOR('',#369,1.);
#369 = DIRECTION('',(0.707106781187,0.,-0.707106781187));
#370 = ORIENTED_EDGE('',*,*,#269,.T.);
#371 = ORIENTED_EDGE('',*,*,#363,.T.);
#372 = ORIENTED_EDGE('',*,*,#373,.F.);
#373 = EDGE_CURVE('',#364,#364,#374,.T.);
#374 = CIRCLE('',#375,5.2578);
#375 = AXIS2_PLACEMENT_3D('',#376,#377,#378);
#376 = CARTESIAN_POINT('',(0.,0.,0.));
#377 = DIRECTION('',(0.,0.,-1.));
#378 = DIRECTION('',(1.,0.,0.));
#379 = CONICAL_SURFACE('',#380,5.0038,0.785398163397);
#380 = AXIS2_PLACEMENT_3D('',#381,#382,#383);
#381 = CARTESIAN_POINT('',(0.,0.,0.254));
#382 = DIRECTION('',(-0.,-0.,-1.));
#383 = DIRECTION('',(1.,0.,0.));
#384 = ADVANCED_FACE('',(#385),#411,.T.);
#385 = FACE_BOUND('',#386,.T.);
#386 = EDGE_LOOP('',(#387,#395,#396,#397,#405));
#387 = ORIENTED_EDGE('',*,*,#388,.F.);
#388 = EDGE_CURVE('',#287,#389,#391,.T.);
#389 = VERTEX_POINT('',#390);
#390 = CARTESIAN_POINT('',(-6.35,-3.666174209354,25.4));
#391 = LINE('',#392,#393);
#392 = CARTESIAN_POINT('',(-6.35,-3.666174209354,50.8));
#393 = VECTOR('',#394,1.);
#394 = DIRECTION('',(-0.,-0.,-1.));
#395 = ORIENTED_EDGE('',*,*,#284,.F.);
#396 = ORIENTED_EDGE('',*,*,#303,.F.);
#397 = ORIENTED_EDGE('',*,*,#398,.T.);
#398 = EDGE_CURVE('',#304,#399,#401,.T.);
#399 = VERTEX_POINT('',#400);
#400 = CARTESIAN_POINT('',(-6.35,3.666174209354,25.4));
#401 = LINE('',#402,#403);
#402 = CARTESIAN_POINT('',(-6.35,3.666174209354,50.8));
#403 = VECTOR('',#404,1.);
#404 = DIRECTION('',(-0.,-0.,-1.));
#405 = ORIENTED_EDGE('',*,*,#406,.T.);
#406 = EDGE_CURVE('',#399,#389,#407,.T.);
#407 = LINE('',#408,#409);
#408 = CARTESIAN_POINT('',(-6.35,1.833087104677,25.4));
#409 = VECTOR('',#410,1.);
#410 = DIRECTION('',(-1.211E-14,-1.,0.));
#411 = PLANE('',#412);
#412 = AXIS2_PLACEMENT_3D('',#413,#414,#415);
#413 = CARTESIAN_POINT('',(-6.35,3.666174209354,50.8));
#414 = DIRECTION('',(-1.,1.211E-14,0.));
#415 = DIRECTION('',(-1.211E-14,-1.,0.));
#416 = ADVANCED_FACE('',(#417),#435,.T.);
#417 = FACE_BOUND('',#418,.T.);
#418 = EDGE_LOOP('',(#419,#427,#428,#429));
#419 = ORIENTED_EDGE('',*,*,#420,.F.);
#420 = EDGE_CURVE('',#340,#421,#423,.T.);
#421 = VERTEX_POINT('',#422);
#422 = CARTESIAN_POINT('',(2.6E-14,-7.332348418708,25.4));
#423 = LINE('',#424,#425);
#424 = CARTESIAN_POINT('',(2.576E-14,-7.332348418708,50.8));
#425 = VECTOR('',#426,1.);
#426 = DIRECTION('',(-0.,-0.,-1.));
#427 = ORIENTED_EDGE('',*,*,#348,.F.);
#428 = ORIENTED_EDGE('',*,*,#388,.T.);
#429 = ORIENTED_EDGE('',*,*,#430,.T.);
#430 = EDGE_CURVE('',#389,#421,#431,.T.);
#431 = LINE('',#432,#433);
#432 = CARTESIAN_POINT('',(-4.7625,-4.582717761693,25.4));
#433 = VECTOR('',#434,1.);
#434 = DIRECTION('',(0.866025403784,-0.5,0.));
#435 = PLANE('',#436);
#436 = AXIS2_PLACEMENT_3D('',#437,#438,#439);
#437 = CARTESIAN_POINT('',(-6.35,-3.666174209354,50.8));
#438 = DIRECTION('',(-0.5,-0.866025403784,0.));
#439 = DIRECTION('',(0.866025403784,-0.5,0.));
#440 = ADVANCED_FACE('',(#441),#459,.T.);
#441 = FACE_BOUND('',#442,.T.);
#442 = EDGE_LOOP('',(#443,#451,#452,#453));
#443 = ORIENTED_EDGE('',*,*,#444,.F.);
#444 = EDGE_CURVE('',#331,#445,#447,.T.);
#445 = VERTEX_POINT('',#446);
#446 = CARTESIAN_POINT('',(6.35,-3.666174209354,25.4));
#447 = LINE('',#448,#449);
#448 = CARTESIAN_POINT('',(6.35,-3.666174209354,50.8));
#449 = VECTOR('',#450,1.);
#450 = DIRECTION('',(-0.,-0.,-1.));
#451 = ORIENTED_EDGE('',*,*,#339,.F.);
#452 = ORIENTED_EDGE('',*,*,#420,.T.);
#453 = ORIENTED_EDGE('',*,*,#454,.T.);
#454 = EDGE_CURVE('',#421,#445,#455,.T.);
#455 = LINE('',#456,#457);
#456 = CARTESIAN_POINT('',(1.5875,-6.41580486637,25.4));
#457 = VECTOR('',#458,1.);
#458 = DIRECTION('',(0.866025403784,0.5,0.));
#459 = PLANE('',#460);
#460 = AXIS2_PLACEMENT_3D('',#461,#462,#463);
#461 = CARTESIAN_POINT('',(2.576E-14,-7.332348418708,50.8));
#462 = DIRECTION('',(0.5,-0.866025403784,0.));
#463 = DIRECTION('',(0.866025403784,0.5,0.));
#464 = ADVANCED_FACE('',(#465),#483,.T.);
#465 = FACE_BOUND('',#466,.T.);
#466 = EDGE_LOOP('',(#467,#475,#476,#477));
#467 = ORIENTED_EDGE('',*,*,#468,.F.);
#468 = EDGE_CURVE('',#322,#469,#471,.T.);
#469 = VERTEX_POINT('',#470);
#470 = CARTESIAN_POINT('',(6.35,3.666174209354,25.4));
#471 = LINE('',#472,#473);
#472 = CARTESIAN_POINT('',(6.35,3.666174209354,50.8));
#473 = VECTOR('',#474,1.);
#474 = DIRECTION('',(-0.,-0.,-1.));
#475 = ORIENTED_EDGE('',*,*,#330,.F.);
#476 = ORIENTED_EDGE('',*,*,#444,.T.);
#477 = ORIENTED_EDGE('',*,*,#478,.T.);
#478 = EDGE_CURVE('',#445,#469,#479,.T.);
#479 = LINE('',#480,#481);
#480 = CARTESIAN_POINT('',(6.35,-1.833087104677,25.4));
#481 = VECTOR('',#482,1.);
#482 = DIRECTION('',(0.,1.,0.));
#483 = PLANE('',#484);
#484 = AXIS2_PLACEMENT_3D('',#485,#486,#487);
#485 = CARTESIAN_POINT('',(6.35,-3.666174209354,50.8));
#486 = DIRECTION('',(1.,0.,0.));
#487 = DIRECTION('',(0.,1.,0.));
#488 = ADVANCED_FACE('',(#489),#507,.T.);
#489 = FACE_BOUND('',#490,.T.);
#490 = EDGE_LOOP('',(#491,#499,#500,#501));
#491 = ORIENTED_EDGE('',*,*,#492,.F.);
#492 = EDGE_CURVE('',#313,#493,#495,.T.);
#493 = VERTEX_POINT('',#494);
#494 = CARTESIAN_POINT('',(5.1E-14,7.332348418708,25.4));
#495 = LINE('',#496,#497);
#496 = CARTESIAN_POINT('',(5.063E-14,7.332348418708,50.8));
#497 = VECTOR('',#498,1.);
#498 = DIRECTION('',(-0.,-0.,-1.));
#499 = ORIENTED_EDGE('',*,*,#321,.F.);
#500 = ORIENTED_EDGE('',*,*,#468,.T.);
#501 = ORIENTED_EDGE('',*,*,#502,.T.);
#502 = EDGE_CURVE('',#469,#493,#503,.T.);
#503 = LINE('',#504,#505);
#504 = CARTESIAN_POINT('',(4.7625,4.582717761693,25.4));
#505 = VECTOR('',#506,1.);
#506 = DIRECTION('',(-0.866025403784,0.5,0.));
#507 = PLANE('',#508);
#508 = AXIS2_PLACEMENT_3D('',#509,#510,#511);
#509 = CARTESIAN_POINT('',(6.35,3.666174209354,50.8));
#510 = DIRECTION('',(0.5,0.866025403784,0.));
#511 = DIRECTION('',(-0.866025403784,0.5,0.));
#512 = ADVANCED_FACE('',(#513),#524,.T.);
#513 = FACE_BOUND('',#514,.T.);
#514 = EDGE_LOOP('',(#515,#516,#517,#518));
#515 = ORIENTED_EDGE('',*,*,#398,.F.);
#516 = ORIENTED_EDGE('',*,*,#312,.F.);
#517 = ORIENTED_EDGE('',*,*,#492,.T.);
#518 = ORIENTED_EDGE('',*,*,#519,.T.);
#519 = EDGE_CURVE('',#493,#399,#520,.T.);
#520 = LINE('',#521,#522);
#521 = CARTESIAN_POINT('',(-1.5875,6.41580486637,25.4));
#522 = VECTOR('',#523,1.);
#523 = DIRECTION('',(-0.866025403784,-0.5,0.));
#524 = PLANE('',#525);
#525 = AXIS2_PLACEMENT_3D('',#526,#527,#528);
#526 = CARTESIAN_POINT('',(5.063E-14,7.332348418708,50.8));
#527 = DIRECTION('',(-0.5,0.866025403784,0.));
#528 = DIRECTION('',(-0.866025403784,-0.5,0.));
#529 = ADVANCED_FACE('',(#530,#586),#589,.F.);
#530 = FACE_BOUND('',#531,.F.);
#531 = EDGE_LOOP('',(#532,#543,#552,#561,#570,#579));
#532 = ORIENTED_EDGE('',*,*,#533,.T.);
#533 = EDGE_CURVE('',#534,#536,#538,.T.);
#534 = VERTEX_POINT('',#535);
#535 = CARTESIAN_POINT('',(-6.096,1.E-15,0.));
#536 = VERTEX_POINT('',#537);
#537 = CARTESIAN_POINT('',(-3.048,-5.27929086147,0.));
#538 = CIRCLE('',#539,6.096);
#539 = AXIS2_PLACEMENT_3D('',#540,#541,#542);
#540 = CARTESIAN_POINT('',(0.,0.,0.));
#541 = DIRECTION('',(0.,0.,1.));
#542 = DIRECTION('',(-1.,1.2E-16,0.));
#543 = ORIENTED_EDGE('',*,*,#544,.T.);
#544 = EDGE_CURVE('',#536,#545,#547,.T.);
#545 = VERTEX_POINT('',#546);
#546 = CARTESIAN_POINT('',(3.048,-5.27929086147,0.));
#547 = CIRCLE('',#548,6.096);
#548 = AXIS2_PLACEMENT_3D('',#549,#550,#551);
#549 = CARTESIAN_POINT('',(0.,0.,0.));
#550 = DIRECTION('',(0.,0.,1.));
#551 = DIRECTION('',(-0.5,-0.866025403784,0.));
#552 = ORIENTED_EDGE('',*,*,#553,.T.);
#553 = EDGE_CURVE('',#545,#554,#556,.T.);
#554 = VERTEX_POINT('',#555);
#555 = CARTESIAN_POINT('',(6.096,-2.E-15,0.));
#556 = CIRCLE('',#557,6.096);
#557 = AXIS2_PLACEMENT_3D('',#558,#559,#560);
#558 = CARTESIAN_POINT('',(0.,0.,0.));
#559 = DIRECTION('',(-0.,0.,1.));
#560 = DIRECTION('',(0.5,-0.866025403784,0.));
#561 = ORIENTED_EDGE('',*,*,#562,.T.);
#562 = EDGE_CURVE('',#554,#563,#565,.T.);
#563 = VERTEX_POINT('',#564);
#564 = CARTESIAN_POINT('',(3.048,5.27929086147,0.));
#565 = CIRCLE('',#566,6.096);
#566 = AXIS2_PLACEMENT_3D('',#567,#568,#569);
#567 = CARTESIAN_POINT('',(0.,0.,0.));
#568 = DIRECTION('',(0.,0.,1.));
#569 = DIRECTION('',(1.,0.,0.));
#570 = ORIENTED_EDGE('',*,*,#571,.T.);
#571 = EDGE_CURVE('',#563,#572,#574,.T.);
#572 = VERTEX_POINT('',#573);
#573 = CARTESIAN_POINT('',(-3.048,5.27929086147,0.));
#574 = CIRCLE('',#575,6.096);
#575 = AXIS2_PLACEMENT_3D('',#576,#577,#578);
#576 = CARTESIAN_POINT('',(0.,0.,0.));
#577 = DIRECTION('',(0.,-0.,1.));
#578 = DIRECTION('',(0.5,0.866025403784,0.));
#579 = ORIENTED_EDGE('',*,*,#580,.T.);
#580 = EDGE_CURVE('',#572,#534,#581,.T.);
#581 = CIRCLE('',#582,6.096);
#582 = AXIS2_PLACEMENT_3D('',#583,#584,#585);
#583 = CARTESIAN_POINT('',(0.,0.,0.));
#584 = DIRECTION('',(0.,0.,1.));
#585 = DIRECTION('',(-0.5,0.866025403784,0.));
#586 = FACE_BOUND('',#587,.F.);
#587 = EDGE_LOOP('',(#588));
#588 = ORIENTED_EDGE('',*,*,#373,.T.);
#589 = PLANE('',#590);
#590 = AXIS2_PLACEMENT_3D('',#591,#592,#593);
#591 = CARTESIAN_POINT('',(0.,6.E-16,0.));
#592 = DIRECTION('',(0.,0.,1.));
#593 = DIRECTION('',(1.,0.,0.));
#594 = ADVANCED_FACE('',(#595,#603),#614,.F.);
#595 = FACE_BOUND('',#596,.T.);
#596 = EDGE_LOOP('',(#597,#598,#599,#600,#601,#602));
#597 = ORIENTED_EDGE('',*,*,#502,.F.);
#598 = ORIENTED_EDGE('',*,*,#478,.F.);
#599 = ORIENTED_EDGE('',*,*,#454,.F.);
#600 = ORIENTED_EDGE('',*,*,#430,.F.);
#601 = ORIENTED_EDGE('',*,*,#406,.F.);
#602 = ORIENTED_EDGE('',*,*,#519,.F.);
#603 = FACE_BOUND('',#604,.F.);
#604 = EDGE_LOOP('',(#605));
#605 = ORIENTED_EDGE('',*,*,#606,.F.);
#606 = EDGE_CURVE('',#607,#607,#609,.T.);
#607 = VERTEX_POINT('',#608);
#608 = CARTESIAN_POINT('',(0.,5.8928,25.4));
#609 = CIRCLE('',#610,5.8928);
#610 = AXIS2_PLACEMENT_3D('',#611,#612,#613);
#611 = CARTESIAN_POINT('',(-5.64E-15,7.05E-15,25.4));
#612 = DIRECTION('',(-2.2E-16,2.8E-16,1.));
#613 = DIRECTION('',(2.2E-16,1.,-2.8E-16));
#614 = PLANE('',#615);
#615 = AXIS2_PLACEMENT_3D('',#616,#617,#618);
#616 = CARTESIAN_POINT('',(0.,8.1E-16,25.4));
#617 = DIRECTION('',(0.,0.,1.));
#618 = DIRECTION('',(1.,0.,0.));
#619 = ADVANCED_FACE('',(#620),#646,.T.);
#620 = FACE_BOUND('',#621,.T.);
#621 = EDGE_LOOP('',(#622,#630,#631,#639));
#622 = ORIENTED_EDGE('',*,*,#623,.F.);
#623 = EDGE_CURVE('',#534,#624,#626,.T.);
#624 = VERTEX_POINT('',#625);
#625 = CARTESIAN_POINT('',(-6.35,1.E-15,0.254));
#626 = LINE('',#627,#628);
#627 = CARTESIAN_POINT('',(-6.35,7.8E-16,0.254));
#628 = VECTOR('',#629,1.);
#629 = DIRECTION('',(-0.707106781187,9.E-17,0.707106781187));
#630 = ORIENTED_EDGE('',*,*,#533,.T.);
#631 = ORIENTED_EDGE('',*,*,#632,.T.);
#632 = EDGE_CURVE('',#536,#633,#635,.T.);
#633 = VERTEX_POINT('',#634);
#634 = CARTESIAN_POINT('',(-3.175,-5.499261314031,0.254));
#635 = LINE('',#636,#637);
#636 = CARTESIAN_POINT('',(-3.175,-5.499261314031,0.254));
#637 = VECTOR('',#638,1.);
#638 = DIRECTION('',(-0.353553390593,-0.612372435696,0.707106781187));
#639 = ORIENTED_EDGE('',*,*,#640,.F.);
#640 = EDGE_CURVE('',#624,#633,#641,.T.);
#641 = CIRCLE('',#642,6.35);
#642 = AXIS2_PLACEMENT_3D('',#643,#644,#645);
#643 = CARTESIAN_POINT('',(0.,0.,0.254));
#644 = DIRECTION('',(0.,0.,1.));
#645 = DIRECTION('',(-1.,1.2E-16,0.));
#646 = CONICAL_SURFACE('',#647,6.35,0.785398163397);
#647 = AXIS2_PLACEMENT_3D('',#648,#649,#650);
#648 = CARTESIAN_POINT('',(0.,0.,0.254));
#649 = DIRECTION('',(0.,0.,1.));
#650 = DIRECTION('',(-1.,1.2E-16,0.));
#651 = ADVANCED_FACE('',(#652),#671,.T.);
#652 = FACE_BOUND('',#653,.T.);
#653 = EDGE_LOOP('',(#654,#662,#663,#664));
#654 = ORIENTED_EDGE('',*,*,#655,.F.);
#655 = EDGE_CURVE('',#572,#656,#658,.T.);
#656 = VERTEX_POINT('',#657);
#657 = CARTESIAN_POINT('',(-3.175,5.499261314031,0.254));
#658 = LINE('',#659,#660);
#659 = CARTESIAN_POINT('',(-3.175,5.499261314031,0.254));
#660 = VECTOR('',#661,1.);
#661 = DIRECTION('',(-0.353553390593,0.612372435696,0.707106781187));
#662 = ORIENTED_EDGE('',*,*,#580,.T.);
#663 = ORIENTED_EDGE('',*,*,#623,.T.);
#664 = ORIENTED_EDGE('',*,*,#665,.F.);
#665 = EDGE_CURVE('',#656,#624,#666,.T.);
#666 = CIRCLE('',#667,6.35);
#667 = AXIS2_PLACEMENT_3D('',#668,#669,#670);
#668 = CARTESIAN_POINT('',(0.,0.,0.254));
#669 = DIRECTION('',(0.,0.,1.));
#670 = DIRECTION('',(-0.5,0.866025403784,0.));
#671 = CONICAL_SURFACE('',#672,6.35,0.785398163397);
#672 = AXIS2_PLACEMENT_3D('',#673,#674,#675);
#673 = CARTESIAN_POINT('',(0.,0.,0.254));
#674 = DIRECTION('',(0.,0.,1.));
#675 = DIRECTION('',(-0.5,0.866025403784,0.));
#676 = ADVANCED_FACE('',(#677),#696,.T.);
#677 = FACE_BOUND('',#678,.T.);
#678 = EDGE_LOOP('',(#679,#680,#681,#689));
#679 = ORIENTED_EDGE('',*,*,#632,.F.);
#680 = ORIENTED_EDGE('',*,*,#544,.T.);
#681 = ORIENTED_EDGE('',*,*,#682,.T.);
#682 = EDGE_CURVE('',#545,#683,#685,.T.);
#683 = VERTEX_POINT('',#684);
#684 = CARTESIAN_POINT('',(3.175,-5.499261314031,0.254));
#685 = LINE('',#686,#687);
#686 = CARTESIAN_POINT('',(3.175,-5.499261314031,0.254));
#687 = VECTOR('',#688,1.);
#688 = DIRECTION('',(0.353553390593,-0.612372435696,0.707106781187));
#689 = ORIENTED_EDGE('',*,*,#690,.F.);
#690 = EDGE_CURVE('',#633,#683,#691,.T.);
#691 = CIRCLE('',#692,6.35);
#692 = AXIS2_PLACEMENT_3D('',#693,#694,#695);
#693 = CARTESIAN_POINT('',(0.,0.,0.254));
#694 = DIRECTION('',(0.,0.,1.));
#695 = DIRECTION('',(-0.5,-0.866025403784,0.));
#696 = CONICAL_SURFACE('',#697,6.35,0.785398163397);
#697 = AXIS2_PLACEMENT_3D('',#698,#699,#700);
#698 = CARTESIAN_POINT('',(0.,0.,0.254));
#699 = DIRECTION('',(0.,0.,1.));
#700 = DIRECTION('',(-0.5,-0.866025403784,0.));
#701 = ADVANCED_FACE('',(#702),#721,.T.);
#702 = FACE_BOUND('',#703,.T.);
#703 = EDGE_LOOP('',(#704,#712,#713,#714));
#704 = ORIENTED_EDGE('',*,*,#705,.F.);
#705 = EDGE_CURVE('',#563,#706,#708,.T.);
#706 = VERTEX_POINT('',#707);
#707 = CARTESIAN_POINT('',(3.175,5.499261314031,0.254));
#708 = LINE('',#709,#710);
#709 = CARTESIAN_POINT('',(3.175,5.499261314031,0.254));
#710 = VECTOR('',#711,1.);
#711 = DIRECTION('',(0.353553390593,0.612372435696,0.707106781187));
#712 = ORIENTED_EDGE('',*,*,#571,.T.);
#713 = ORIENTED_EDGE('',*,*,#655,.T.);
#714 = ORIENTED_EDGE('',*,*,#715,.F.);
#715 = EDGE_CURVE('',#706,#656,#716,.T.);
#716 = CIRCLE('',#717,6.35);
#717 = AXIS2_PLACEMENT_3D('',#718,#719,#720);
#718 = CARTESIAN_POINT('',(0.,0.,0.254));
#719 = DIRECTION('',(0.,-0.,1.));
#720 = DIRECTION('',(0.5,0.866025403784,0.));
#721 = CONICAL_SURFACE('',#722,6.35,0.785398163397);
#722 = AXIS2_PLACEMENT_3D('',#723,#724,#725);
#723 = CARTESIAN_POINT('',(0.,0.,0.254));
#724 = DIRECTION('',(0.,0.,1.));
#725 = DIRECTION('',(0.5,0.866025403784,0.));
#726 = ADVANCED_FACE('',(#727),#746,.T.);
#727 = FACE_BOUND('',#728,.T.);
#728 = EDGE_LOOP('',(#729,#730,#731,#739));
#729 = ORIENTED_EDGE('',*,*,#682,.F.);
#730 = ORIENTED_EDGE('',*,*,#553,.T.);
#731 = ORIENTED_EDGE('',*,*,#732,.T.);
#732 = EDGE_CURVE('',#554,#733,#735,.T.);
#733 = VERTEX_POINT('',#734);
#734 = CARTESIAN_POINT('',(6.35,-2.E-15,0.254));
#735 = LINE('',#736,#737);
#736 = CARTESIAN_POINT('',(6.35,-2.22E-15,0.254));
#737 = VECTOR('',#738,1.);
#738 = DIRECTION('',(0.707106781187,-1.7E-16,0.707106781187));
#739 = ORIENTED_EDGE('',*,*,#740,.F.);
#740 = EDGE_CURVE('',#683,#733,#741,.T.);
#741 = CIRCLE('',#742,6.35);
#742 = AXIS2_PLACEMENT_3D('',#743,#744,#745);
#743 = CARTESIAN_POINT('',(0.,0.,0.254));
#744 = DIRECTION('',(-0.,0.,1.));
#745 = DIRECTION('',(0.5,-0.866025403784,0.));
#746 = CONICAL_SURFACE('',#747,6.35,0.785398163397);
#747 = AXIS2_PLACEMENT_3D('',#748,#749,#750);
#748 = CARTESIAN_POINT('',(0.,0.,0.254));
#749 = DIRECTION('',(0.,0.,1.));
#750 = DIRECTION('',(0.5,-0.866025403784,0.));
#751 = ADVANCED_FACE('',(#752),#764,.T.);
#752 = FACE_BOUND('',#753,.T.);
#753 = EDGE_LOOP('',(#754,#755,#756,#757));
#754 = ORIENTED_EDGE('',*,*,#732,.F.);
#755 = ORIENTED_EDGE('',*,*,#562,.T.);
#756 = ORIENTED_EDGE('',*,*,#705,.T.);
#757 = ORIENTED_EDGE('',*,*,#758,.F.);
#758 = EDGE_CURVE('',#733,#706,#759,.T.);
#759 = CIRCLE('',#760,6.35);
#760 = AXIS2_PLACEMENT_3D('',#761,#762,#763);
#761 = CARTESIAN_POINT('',(0.,0.,0.254));
#762 = DIRECTION('',(0.,0.,1.));
#763 = DIRECTION('',(1.,0.,0.));
#764 = CONICAL_SURFACE('',#765,6.35,0.785398163397);
#765 = AXIS2_PLACEMENT_3D('',#766,#767,#768);
#766 = CARTESIAN_POINT('',(0.,0.,0.254));
#767 = DIRECTION('',(0.,0.,1.));
#768 = DIRECTION('',(1.,0.,0.));
#769 = ADVANCED_FACE('',(#770),#789,.T.);
#770 = FACE_BOUND('',#771,.T.);
#771 = EDGE_LOOP('',(#772,#781,#787,#788));
#772 = ORIENTED_EDGE('',*,*,#773,.T.);
#773 = EDGE_CURVE('',#774,#774,#776,.T.);
#774 = VERTEX_POINT('',#775);
#775 = CARTESIAN_POINT('',(0.,5.8928,23.8252));
#776 = CIRCLE('',#777,5.8928);
#777 = AXIS2_PLACEMENT_3D('',#778,#779,#780);
#778 = CARTESIAN_POINT('',(-5.29E-15,6.61E-15,23.8252));
#779 = DIRECTION('',(-2.2E-16,2.8E-16,1.));
#780 = DIRECTION('',(2.2E-16,1.,-2.8E-16));
#781 = ORIENTED_EDGE('',*,*,#782,.T.);
#782 = EDGE_CURVE('',#774,#607,#783,.T.);
#783 = LINE('',#784,#785);
#784 = CARTESIAN_POINT('',(0.,5.8928,23.8252));
#785 = VECTOR('',#786,1.);
#786 = DIRECTION('',(0.,0.,1.));
#787 = ORIENTED_EDGE('',*,*,#606,.F.);
#788 = ORIENTED_EDGE('',*,*,#782,.F.);
#789 = CYLINDRICAL_SURFACE('',#790,5.8928);
#790 = AXIS2_PLACEMENT_3D('',#791,#792,#793);
#791 = CARTESIAN_POINT('',(-5.29E-15,6.61E-15,23.8252));
#792 = DIRECTION('',(-2.2E-16,2.8E-16,1.));
#793 = DIRECTION('',(2.2E-16,1.,-2.8E-16));
#794 = ADVANCED_FACE('',(#795),#818,.T.);
#795 = FACE_BOUND('',#796,.F.);
#796 = EDGE_LOOP('',(#797,#806,#811,#812,#813,#814,#815,#816,#817));
#797 = ORIENTED_EDGE('',*,*,#798,.F.);
#798 = EDGE_CURVE('',#799,#799,#801,.T.);
#799 = VERTEX_POINT('',#800);
#800 = CARTESIAN_POINT('',(6.35,-2.E-15,23.8252));
#801 = CIRCLE('',#802,6.35);
#802 = AXIS2_PLACEMENT_3D('',#803,#804,#805);
#803 = CARTESIAN_POINT('',(0.,0.,23.8252));
#804 = DIRECTION('',(0.,0.,-1.));
#805 = DIRECTION('',(1.,0.,0.));
#806 = ORIENTED_EDGE('',*,*,#807,.T.);
#807 = EDGE_CURVE('',#799,#733,#808,.T.);
#808 = B_SPLINE_CURVE_WITH_KNOTS('',1,(#809,#810),.UNSPECIFIED.,.F.,.F.,
  (2,2),(-25.4,0.),.PIECEWISE_BEZIER_KNOTS.);
#809 = CARTESIAN_POINT('',(6.35,-1.56E-15,25.4));
#810 = CARTESIAN_POINT('',(6.35,-1.56E-15,0.));
#811 = ORIENTED_EDGE('',*,*,#740,.F.);
#812 = ORIENTED_EDGE('',*,*,#690,.F.);
#813 = ORIENTED_EDGE('',*,*,#640,.F.);
#814 = ORIENTED_EDGE('',*,*,#665,.F.);
#815 = ORIENTED_EDGE('',*,*,#715,.F.);
#816 = ORIENTED_EDGE('',*,*,#758,.F.);
#817 = ORIENTED_EDGE('',*,*,#807,.F.);
#818 = CYLINDRICAL_SURFACE('',#819,6.35);
#819 = AXIS2_PLACEMENT_3D('',#820,#821,#822);
#820 = CARTESIAN_POINT('',(0.,0.,0.));
#821 = DIRECTION('',(-0.,-0.,-1.));
#822 = DIRECTION('',(1.,0.,0.));
#823 = ADVANCED_FACE('',(#824,#827),#830,.F.);
#824 = FACE_BOUND('',#825,.T.);
#825 = EDGE_LOOP('',(#826));
#826 = ORIENTED_EDGE('',*,*,#798,.F.);
#827 = FACE_BOUND('',#828,.T.);
#828 = EDGE_LOOP('',(#829));
#829 = ORIENTED_EDGE('',*,*,#773,.F.);
#830 = PLANE('',#831);
#831 = AXIS2_PLACEMENT_3D('',#832,#833,#834);
#832 = CARTESIAN_POINT('',(-5.29E-15,6.61E-15,23.8252));
#833 = DIRECTION('',(2.2E-16,-2.8E-16,-1.));
#834 = DIRECTION('',(-2.2E-16,-1.,2.8E-16));
#835 = ( GEOMETRIC_REPRESENTATION_CONTEXT(3) 
GLOBAL_UNCERTAINTY_ASSIGNED_CONTEXT((#839)) GLOBAL_UNIT_ASSIGNED_CONTEXT
((#836,#837,#838)) REPRESENTATION_CONTEXT('Context #1',
  '3D Context with UNIT and UNCERTAINTY') );
#836 = ( LENGTH_UNIT() NAMED_UNIT(*) SI_UNIT(.MILLI.,.METRE.) );
#837 = ( NAMED_UNIT(*) PLANE_ANGLE_UNIT() SI_UNIT($,.RADIAN.) );
#838 = ( NAMED_UNIT(*) SI_UNIT($,.STERADIAN.) SOLID_ANGLE_UNIT() );
#839 = UNCERTAINTY_MEASURE_WITH_UNIT(LENGTH_MEASURE(5.E-07),#836,
  'distance_accuracy_value','confusion accuracy');
#840 = PRODUCT_RELATED_PRODUCT_CATEGORY('part',$,(#7));
#841 = MECHANICAL_DESIGN_GEOMETRIC_PRESENTATION_REPRESENTATION('',(#842)
  ,#835);
#842 = STYLED_ITEM('color',(#843),#15);
#843 = PRESENTATION_STYLE_ASSIGNMENT((#844,#850));
#844 = SURFACE_STYLE_USAGE(.BOTH.,#845);
#845 = SURFACE_SIDE_STYLE('',(#846));
#846 = SURFACE_STYLE_FILL_AREA(#847);
#847 = FILL_AREA_STYLE('',(#848));
#848 = FILL_AREA_STYLE_COLOUR('',#849);
#849 = COLOUR_RGB('',0.906331759313,0.906331759313,0.906331759313);
#850 = CURVE_STYLE('',#851,POSITIVE_LENGTH_MEASURE(0.1),#852);
#851 = DRAUGHTING_PRE_DEFINED_CURVE_FONT('continuous');
#852 = COLOUR_RGB('',0.345868924627,0.345868924627,0.345868924627);
ENDSEC;
END-ISO-10303-21;
