EESchema Schematic File Version 4
EELAYER 30 0
EELAYER END
$Descr A4 11693 8268
encoding utf-8
Sheet 1 1
Title "PTH Module"
Date "2021-09-09"
Rev "1.0"
Comp "Designed by Sam Harry Tzavaras"
Comment1 "Licenced under: TAPR Open Hardware"
Comment2 ""
Comment3 ""
Comment4 ""
$EndDescr
$Comp
L Device:C_Small C2
U 1 1 616B6A1E
P 5950 2750
F 0 "C2" H 6042 2796 50  0000 L CNN
F 1 "10uF" H 6042 2705 50  0000 L CNN
F 2 "Capacitor_SMD:C_0805_2012Metric" H 5950 2750 50  0001 C CNN
F 3 "~" H 5950 2750 50  0001 C CNN
	1    5950 2750
	1    0    0    -1  
$EndComp
$Comp
L Device:R_Small_US R5
U 1 1 616B6F13
P 4200 3400
F 0 "R5" H 4132 3354 50  0000 R CNN
F 1 "1K" H 4132 3445 50  0000 R CNN
F 2 "Resistor_SMD:R_1206_3216Metric" H 4200 3400 50  0001 C CNN
F 3 "~" H 4200 3400 50  0001 C CNN
	1    4200 3400
	1    0    0    1   
$EndComp
$Comp
L Ultrasonic_HAT:PCA9614DP,118 IC1
U 1 1 616B91AC
P 5450 3600
F 0 "IC1" H 5100 3950 50  0000 C CNN
F 1 "PCA9614DP,118" H 5350 3250 50  0000 C CNN
F 2 "Ultrasonic_Hat:SOP50P490X110-10N" H 6000 3900 50  0001 L CNN
F 3 "http://www.nxp.com/docs/en/data-sheet/PCA9614.pdf" H 6000 3800 50  0001 L CNN
	1    5450 3600
	1    0    0    -1  
$EndComp
$Comp
L power:Earth #PWR015
U 1 1 616BD9A5
P 4850 3850
F 0 "#PWR015" H 4850 3600 50  0001 C CNN
F 1 "Earth" H 4850 3700 50  0001 C CNN
F 2 "" H 4850 3850 50  0001 C CNN
F 3 "~" H 4850 3850 50  0001 C CNN
	1    4850 3850
	1    0    0    -1  
$EndComp
Wire Wire Line
	4800 3350 4800 3400
Wire Wire Line
	4800 3500 4850 3500
Wire Wire Line
	4850 3400 4800 3400
Connection ~ 4800 3400
Wire Wire Line
	4800 3400 4800 3500
$Comp
L power:+5V #PWR02
U 1 1 616BFE37
P 5950 2650
F 0 "#PWR02" H 5950 2500 50  0001 C CNN
F 1 "+5V" H 5825 2725 50  0000 C CNN
F 2 "" H 5950 2650 50  0001 C CNN
F 3 "" H 5950 2650 50  0001 C CNN
	1    5950 2650
	1    0    0    -1  
$EndComp
$Comp
L power:+5V #PWR013
U 1 1 616C11D8
P 6150 3400
F 0 "#PWR013" H 6150 3250 50  0001 C CNN
F 1 "+5V" H 6165 3573 50  0000 C CNN
F 2 "" H 6150 3400 50  0001 C CNN
F 3 "" H 6150 3400 50  0001 C CNN
	1    6150 3400
	1    0    0    -1  
$EndComp
$Comp
L power:Earth #PWR06
U 1 1 616C1FF5
P 5950 2850
F 0 "#PWR06" H 5950 2600 50  0001 C CNN
F 1 "Earth" H 5950 2700 50  0001 C CNN
F 2 "" H 5950 2850 50  0001 C CNN
F 3 "~" H 5950 2850 50  0001 C CNN
	1    5950 2850
	1    0    0    -1  
$EndComp
$Comp
L Device:R_Small_US R6
U 1 1 616CA0EC
P 4425 3400
F 0 "R6" H 4358 3354 50  0000 R CNN
F 1 "1k" H 4358 3445 50  0000 R CNN
F 2 "Resistor_SMD:R_1206_3216Metric" H 4425 3400 50  0001 C CNN
F 3 "~" H 4425 3400 50  0001 C CNN
	1    4425 3400
	1    0    0    1   
$EndComp
Wire Wire Line
	4200 3500 4200 3650
Wire Wire Line
	4200 3650 4850 3650
Wire Wire Line
	4425 3500 4425 3750
$Comp
L Device:R_Small_US R1
U 1 1 616D09DB
P 6825 2875
F 0 "R1" H 6758 2829 50  0000 R CNN
F 1 "600" H 6758 2920 50  0000 R CNN
F 2 "Resistor_SMD:R_1206_3216Metric" H 6825 2875 50  0001 C CNN
F 3 "~" H 6825 2875 50  0001 C CNN
	1    6825 2875
	1    0    0    1   
$EndComp
$Comp
L Device:R_Small_US R3
U 1 1 616D18C2
P 6825 3175
F 0 "R3" H 6758 3129 50  0000 R CNN
F 1 "120" H 6758 3220 50  0000 R CNN
F 2 "Resistor_SMD:R_1206_3216Metric" H 6825 3175 50  0001 C CNN
F 3 "~" H 6825 3175 50  0001 C CNN
	1    6825 3175
	1    0    0    1   
$EndComp
$Comp
L Device:R_Small_US R7
U 1 1 616D1F24
P 6825 3475
F 0 "R7" H 6758 3429 50  0000 R CNN
F 1 "600" H 6758 3520 50  0000 R CNN
F 2 "Resistor_SMD:R_1206_3216Metric" H 6825 3475 50  0001 C CNN
F 3 "~" H 6825 3475 50  0001 C CNN
	1    6825 3475
	1    0    0    1   
$EndComp
$Comp
L Device:R_Small_US R2
U 1 1 616D39C6
P 7175 2875
F 0 "R2" H 7108 2829 50  0000 R CNN
F 1 "600" H 7108 2920 50  0000 R CNN
F 2 "Resistor_SMD:R_1206_3216Metric" H 7175 2875 50  0001 C CNN
F 3 "~" H 7175 2875 50  0001 C CNN
	1    7175 2875
	1    0    0    1   
$EndComp
$Comp
L Device:R_Small_US R4
U 1 1 616D39CC
P 7175 3175
F 0 "R4" H 7108 3129 50  0000 R CNN
F 1 "120" H 7108 3220 50  0000 R CNN
F 2 "Resistor_SMD:R_1206_3216Metric" H 7175 3175 50  0001 C CNN
F 3 "~" H 7175 3175 50  0001 C CNN
	1    7175 3175
	1    0    0    1   
$EndComp
$Comp
L Device:R_Small_US R8
U 1 1 616D39D2
P 7175 3475
F 0 "R8" H 7108 3429 50  0000 R CNN
F 1 "600" H 7108 3520 50  0000 R CNN
F 2 "Resistor_SMD:R_1206_3216Metric" H 7175 3475 50  0001 C CNN
F 3 "~" H 7175 3475 50  0001 C CNN
	1    7175 3475
	1    0    0    1   
$EndComp
Wire Wire Line
	6825 2975 6825 3000
Wire Wire Line
	6825 3275 6825 3300
Wire Wire Line
	6825 3575 6825 3625
Wire Wire Line
	7175 3625 7175 3575
Wire Wire Line
	7175 3275 7175 3350
Wire Wire Line
	7175 3075 7175 3050
$Comp
L power:+5V #PWR04
U 1 1 616D6550
P 7175 2750
F 0 "#PWR04" H 7175 2600 50  0001 C CNN
F 1 "+5V" H 7190 2923 50  0000 C CNN
F 2 "" H 7175 2750 50  0001 C CNN
F 3 "" H 7175 2750 50  0001 C CNN
	1    7175 2750
	1    0    0    -1  
$EndComp
$Comp
L power:Earth #PWR014
U 1 1 616D7431
P 7175 3625
F 0 "#PWR014" H 7175 3375 50  0001 C CNN
F 1 "Earth" H 7175 3475 50  0001 C CNN
F 2 "" H 7175 3625 50  0001 C CNN
F 3 "~" H 7175 3625 50  0001 C CNN
	1    7175 3625
	1    0    0    -1  
$EndComp
$Comp
L Device:C_Small C1
U 1 1 616D834C
P 3700 3400
F 0 "C1" H 3608 3354 50  0000 R CNN
F 1 "10uF" H 3608 3445 50  0000 R CNN
F 2 "Capacitor_SMD:C_0805_2012Metric" H 3700 3400 50  0001 C CNN
F 3 "~" H 3700 3400 50  0001 C CNN
	1    3700 3400
	0    1    1    0   
$EndComp
Wire Wire Line
	3550 3400 3600 3400
$Comp
L power:Earth #PWR05
U 1 1 616D9E19
P 3800 3400
F 0 "#PWR05" H 3800 3150 50  0001 C CNN
F 1 "Earth" H 3800 3250 50  0001 C CNN
F 2 "" H 3800 3400 50  0001 C CNN
F 3 "~" H 3800 3400 50  0001 C CNN
	1    3800 3400
	0    -1   1    0   
$EndComp
Wire Wire Line
	6150 3500 6325 3500
Wire Wire Line
	6325 3500 6325 3000
Wire Wire Line
	6325 3000 6825 3000
Connection ~ 6825 3000
Wire Wire Line
	6825 3000 6825 3075
Wire Wire Line
	6150 3600 6400 3600
Wire Wire Line
	6400 3600 6400 3300
Wire Wire Line
	6400 3300 6825 3300
Connection ~ 6825 3300
Wire Wire Line
	6825 3300 6825 3375
Wire Wire Line
	6150 3700 6550 3700
Wire Wire Line
	6550 3700 6550 3050
Wire Wire Line
	6550 3050 7175 3050
Connection ~ 7175 3050
Wire Wire Line
	7175 3050 7175 2975
Wire Wire Line
	6150 3800 6600 3800
Wire Wire Line
	6600 3800 6600 3350
Wire Wire Line
	6600 3350 7175 3350
Connection ~ 7175 3350
Wire Wire Line
	7175 3350 7175 3375
Text Label 3725 3650 0    50   ~ 0
SDA
Text Label 3725 3750 0    50   ~ 0
SCL
$Comp
L Connector:Conn_01x06_Female J1
U 1 1 61465AC0
P 8125 3250
F 0 "J1" H 8075 2875 50  0000 L CNN
F 1 "Conn_01x06_Female" H 8153 3135 50  0001 L CNN
F 2 "DP_Module:PADs" H 8125 3250 50  0001 C CNN
F 3 "~" H 8125 3250 50  0001 C CNN
	1    8125 3250
	1    0    0    -1  
$EndComp
Text Label 6875 3050 0    50   ~ 0
DSCL+
Text Label 6875 3350 0    50   ~ 0
DSCL-
Text Label 6400 3000 0    50   ~ 0
DSDA-
Text Label 6450 3300 0    50   ~ 0
DSDA+
Wire Wire Line
	7925 3150 7875 3150
Text GLabel 7875 3250 0    50   Input ~ 0
DSDA+
Wire Wire Line
	7925 3250 7875 3250
Wire Wire Line
	7925 3350 7875 3350
Wire Wire Line
	7925 3450 7875 3450
$Comp
L power:Earth #PWR018
U 1 1 6146F3E4
P 7925 3550
F 0 "#PWR018" H 7925 3300 50  0001 C CNN
F 1 "Earth" H 7925 3400 50  0001 C CNN
F 2 "" H 7925 3550 50  0001 C CNN
F 3 "~" H 7925 3550 50  0001 C CNN
	1    7925 3550
	1    0    0    -1  
$EndComp
Text GLabel 7875 3150 0    50   Input ~ 0
DSDA-
Text GLabel 7875 3350 0    50   Input ~ 0
DSCL+
Text GLabel 7875 3450 0    50   Input ~ 0
DSCL-
$Comp
L power:+5V #PWR017
U 1 1 614708ED
P 7925 3050
F 0 "#PWR017" H 7925 2900 50  0001 C CNN
F 1 "+5V" H 7940 3223 50  0000 C CNN
F 2 "" H 7925 3050 50  0001 C CNN
F 3 "" H 7925 3050 50  0001 C CNN
	1    7925 3050
	1    0    0    -1  
$EndComp
$Comp
L power:+5V #PWR0101
U 1 1 613A6A4C
P 4800 3350
F 0 "#PWR0101" H 4800 3200 50  0001 C CNN
F 1 "+5V" H 4815 3523 50  0000 C CNN
F 2 "" H 4800 3350 50  0001 C CNN
F 3 "" H 4800 3350 50  0001 C CNN
	1    4800 3350
	1    0    0    -1  
$EndComp
$Comp
L power:+5V #PWR0102
U 1 1 613A6F7A
P 4425 3300
F 0 "#PWR0102" H 4425 3150 50  0001 C CNN
F 1 "+5V" H 4440 3473 50  0000 C CNN
F 2 "" H 4425 3300 50  0001 C CNN
F 3 "" H 4425 3300 50  0001 C CNN
	1    4425 3300
	1    0    0    -1  
$EndComp
$Comp
L power:+5V #PWR0103
U 1 1 613A7332
P 4200 3300
F 0 "#PWR0103" H 4200 3150 50  0001 C CNN
F 1 "+5V" H 4215 3473 50  0000 C CNN
F 2 "" H 4200 3300 50  0001 C CNN
F 3 "" H 4200 3300 50  0001 C CNN
	1    4200 3300
	1    0    0    -1  
$EndComp
$Comp
L power:Earth #PWR0104
U 1 1 613AFBC6
P 3600 4050
F 0 "#PWR0104" H 3600 3800 50  0001 C CNN
F 1 "Earth" H 3600 3900 50  0001 C CNN
F 2 "" H 3600 4050 50  0001 C CNN
F 3 "~" H 3600 4050 50  0001 C CNN
	1    3600 4050
	1    0    0    -1  
$EndComp
Wire Wire Line
	3600 4050 3600 3950
$Comp
L power:+5V #PWR0105
U 1 1 613B2DF6
P 3550 3325
F 0 "#PWR0105" H 3550 3175 50  0001 C CNN
F 1 "+5V" H 3565 3498 50  0000 C CNN
F 2 "" H 3550 3325 50  0001 C CNN
F 3 "" H 3550 3325 50  0001 C CNN
	1    3550 3325
	1    0    0    -1  
$EndComp
Wire Wire Line
	3550 3550 3550 3400
Wire Wire Line
	3600 3950 3500 3950
Wire Wire Line
	3500 3550 3550 3550
$Comp
L Connector:Conn_01x05_Male J2
U 1 1 613A8EAF
P 3300 3750
F 0 "J2" H 3225 3750 50  0000 C CNN
F 1 "BMP280_module" H 3250 3475 50  0000 C CNN
F 2 "PTH_Module:BMP280_breakout" H 3300 3750 50  0001 C CNN
F 3 "~" H 3300 3750 50  0001 C CNN
	1    3300 3750
	1    0    0    -1  
$EndComp
Connection ~ 3550 3400
Wire Wire Line
	3550 3400 3550 3325
Wire Wire Line
	3500 3650 4200 3650
Connection ~ 4200 3650
Wire Wire Line
	3500 3750 4425 3750
Connection ~ 4425 3750
Wire Wire Line
	4425 3750 4850 3750
Wire Wire Line
	7175 2750 7175 2775
$Comp
L power:+5V #PWR0106
U 1 1 614146F1
P 6825 3625
F 0 "#PWR0106" H 6825 3475 50  0001 C CNN
F 1 "+5V" H 6840 3798 50  0000 C CNN
F 2 "" H 6825 3625 50  0001 C CNN
F 3 "" H 6825 3625 50  0001 C CNN
	1    6825 3625
	-1   0    0    1   
$EndComp
$Comp
L power:Earth #PWR0107
U 1 1 61415065
P 6825 2725
F 0 "#PWR0107" H 6825 2475 50  0001 C CNN
F 1 "Earth" H 6825 2575 50  0001 C CNN
F 2 "" H 6825 2725 50  0001 C CNN
F 3 "~" H 6825 2725 50  0001 C CNN
	1    6825 2725
	-1   0    0    1   
$EndComp
Wire Wire Line
	6825 2725 6825 2775
$Comp
L Device:C_Small C3
U 1 1 613B4071
P 4550 2750
F 0 "C3" H 4642 2796 50  0000 L CNN
F 1 "100nF" H 4642 2705 50  0000 L CNN
F 2 "Capacitor_SMD:C_0805_2012Metric" H 4550 2750 50  0001 C CNN
F 3 "~" H 4550 2750 50  0001 C CNN
	1    4550 2750
	1    0    0    -1  
$EndComp
$Comp
L power:+5V #PWR01
U 1 1 613B4077
P 4550 2650
F 0 "#PWR01" H 4550 2500 50  0001 C CNN
F 1 "+5V" H 4425 2725 50  0000 C CNN
F 2 "" H 4550 2650 50  0001 C CNN
F 3 "" H 4550 2650 50  0001 C CNN
	1    4550 2650
	1    0    0    -1  
$EndComp
$Comp
L power:Earth #PWR07
U 1 1 613B407D
P 4550 2850
F 0 "#PWR07" H 4550 2600 50  0001 C CNN
F 1 "Earth" H 4550 2700 50  0001 C CNN
F 2 "" H 4550 2850 50  0001 C CNN
F 3 "~" H 4550 2850 50  0001 C CNN
	1    4550 2850
	1    0    0    -1  
$EndComp
$Comp
L Graphic:Logo_Open_Hardware_Small OSH1
U 1 1 61463919
P 10700 6825
F 0 "OSH1" H 10700 7100 50  0001 C CNN
F 1 "Open Source Hardware" H 10700 6600 50  0000 C CNN
F 2 "Symbol:OSHW-Logo2_9.8x8mm_SilkScreen" H 10700 6825 50  0001 C CNN
F 3 "~" H 10700 6825 50  0001 C CNN
	1    10700 6825
	1    0    0    -1  
$EndComp
Wire Wire Line
	5200 2875 5200 2925
Wire Wire Line
	5000 2925 5000 2875
$Comp
L Mechanical:MountingHole_Pad H2
U 1 1 616DB002
P 5200 2775
F 0 "H2" H 5200 2975 50  0000 C CNN
F 1 "MountingHole_Pad" V 5200 3275 50  0001 C CNN
F 2 "MountingHole:MountingHole_3.2mm_M3_Pad_Via" H 5200 2775 50  0001 C CNN
F 3 "~" H 5200 2775 50  0001 C CNN
	1    5200 2775
	1    0    0    -1  
$EndComp
$Comp
L Mechanical:MountingHole_Pad H1
U 1 1 616B4259
P 5000 2775
F 0 "H1" H 5000 2975 50  0000 C CNN
F 1 "MountingHole_Pad" V 5000 3275 50  0001 C CNN
F 2 "MountingHole:MountingHole_3.2mm_M3_Pad_Via" H 5000 2775 50  0001 C CNN
F 3 "~" H 5000 2775 50  0001 C CNN
	1    5000 2775
	1    0    0    -1  
$EndComp
Wire Wire Line
	5000 2925 5100 2925
$Comp
L power:Earth #PWR03
U 1 1 616DBF51
P 5100 2975
F 0 "#PWR03" H 5100 2725 50  0001 C CNN
F 1 "Earth" H 5100 2825 50  0001 C CNN
F 2 "" H 5100 2975 50  0001 C CNN
F 3 "~" H 5100 2975 50  0001 C CNN
	1    5100 2975
	1    0    0    -1  
$EndComp
Wire Wire Line
	5100 2975 5100 2925
Connection ~ 5100 2925
Wire Wire Line
	5100 2925 5200 2925
$EndSCHEMATC
