(export (version D)
  (design
    (source C:\Users\FIL10686-STZ001\Documents\Flow_sensors\HW_Design\PCBs\PTH_Module\PTH_Module.sch)
    (date "9/9/2021 3:10:29 PM")
    (tool "Eeschema (5.1.10)-1")
    (sheet (number 1) (name /) (tstamps /)
      (title_block
        (title)
        (company)
        (rev)
        (date)
        (source PTH_Module.sch)
        (comment (number 1) (value ""))
        (comment (number 2) (value ""))
        (comment (number 3) (value ""))
        (comment (number 4) (value "")))))
  (components
    (comp (ref H1)
      (value MountingHole_Pad)
      (footprint Mounting_Holes:MountingHole_3.2mm_M3_Pad_Via)
      (datasheet ~)
      (libsource (lib Mechanical) (part MountingHole_Pad) (description "Mounting Hole with connection"))
      (sheetpath (names /) (tstamps /))
      (tstamp 616B4259))
    (comp (ref C2)
      (value 10uF)
      (footprint Capacitor_SMD:C_0805_2012Metric)
      (datasheet ~)
      (libsource (lib Device) (part C_Small) (description "Unpolarized capacitor, small symbol"))
      (sheetpath (names /) (tstamps /))
      (tstamp 616B6A1E))
    (comp (ref R5)
      (value 1K)
      (footprint Resistor_SMD:R_1206_3216Metric)
      (datasheet ~)
      (libsource (lib Device) (part R_Small_US) (description "Resistor, small US symbol"))
      (sheetpath (names /) (tstamps /))
      (tstamp 616B6F13))
    (comp (ref IC1)
      (value PCA9614DP,118)
      (footprint Ultrasonic_Hat:SOP50P490X110-10N)
      (datasheet http://www.nxp.com/docs/en/data-sheet/PCA9614.pdf)
      (libsource (lib Ultrasonic_HAT) (part PCA9614DP,118) (description "Interface - Signal Buffers, Repeaters 2-channel multipoint Differential I2C-bus"))
      (sheetpath (names /) (tstamps /))
      (tstamp 616B91AC))
    (comp (ref R6)
      (value 1k)
      (footprint Resistor_SMD:R_1206_3216Metric)
      (datasheet ~)
      (libsource (lib Device) (part R_Small_US) (description "Resistor, small US symbol"))
      (sheetpath (names /) (tstamps /))
      (tstamp 616CA0EC))
    (comp (ref R1)
      (value 600)
      (footprint Resistor_SMD:R_1206_3216Metric)
      (datasheet ~)
      (libsource (lib Device) (part R_Small_US) (description "Resistor, small US symbol"))
      (sheetpath (names /) (tstamps /))
      (tstamp 616D09DB))
    (comp (ref R3)
      (value 120)
      (footprint Resistor_SMD:R_1206_3216Metric)
      (datasheet ~)
      (libsource (lib Device) (part R_Small_US) (description "Resistor, small US symbol"))
      (sheetpath (names /) (tstamps /))
      (tstamp 616D18C2))
    (comp (ref R7)
      (value 600)
      (footprint Resistor_SMD:R_1206_3216Metric)
      (datasheet ~)
      (libsource (lib Device) (part R_Small_US) (description "Resistor, small US symbol"))
      (sheetpath (names /) (tstamps /))
      (tstamp 616D1F24))
    (comp (ref R2)
      (value 600)
      (footprint Resistor_SMD:R_1206_3216Metric)
      (datasheet ~)
      (libsource (lib Device) (part R_Small_US) (description "Resistor, small US symbol"))
      (sheetpath (names /) (tstamps /))
      (tstamp 616D39C6))
    (comp (ref R4)
      (value 120)
      (footprint Resistor_SMD:R_1206_3216Metric)
      (datasheet ~)
      (libsource (lib Device) (part R_Small_US) (description "Resistor, small US symbol"))
      (sheetpath (names /) (tstamps /))
      (tstamp 616D39CC))
    (comp (ref R8)
      (value 600)
      (footprint Resistor_SMD:R_1206_3216Metric)
      (datasheet ~)
      (libsource (lib Device) (part R_Small_US) (description "Resistor, small US symbol"))
      (sheetpath (names /) (tstamps /))
      (tstamp 616D39D2))
    (comp (ref C1)
      (value 10uF)
      (footprint Capacitor_SMD:C_0805_2012Metric)
      (datasheet ~)
      (libsource (lib Device) (part C_Small) (description "Unpolarized capacitor, small symbol"))
      (sheetpath (names /) (tstamps /))
      (tstamp 616D834C))
    (comp (ref H2)
      (value MountingHole_Pad)
      (footprint Mounting_Holes:MountingHole_3.2mm_M3_Pad_Via)
      (datasheet ~)
      (libsource (lib Mechanical) (part MountingHole_Pad) (description "Mounting Hole with connection"))
      (sheetpath (names /) (tstamps /))
      (tstamp 616DB002))
    (comp (ref H3)
      (value MountingHole_Pad)
      (footprint Mounting_Holes:MountingHole_3.2mm_M3_Pad_Via)
      (datasheet ~)
      (libsource (lib Mechanical) (part MountingHole_Pad) (description "Mounting Hole with connection"))
      (sheetpath (names /) (tstamps /))
      (tstamp 616DB363))
    (comp (ref H4)
      (value MountingHole_Pad)
      (footprint Mounting_Holes:MountingHole_3.2mm_M3_Pad_Via)
      (datasheet ~)
      (libsource (lib Mechanical) (part MountingHole_Pad) (description "Mounting Hole with connection"))
      (sheetpath (names /) (tstamps /))
      (tstamp 616DB70E))
    (comp (ref OSH1)
      (value "Open Source Hardware")
      (footprint Symbol:OSHW-Logo2_9.8x8mm_Copper)
      (datasheet ~)
      (libsource (lib Graphic) (part Logo_Open_Hardware_Small) (description "Open Hardware logo, small"))
      (sheetpath (names /) (tstamps /))
      (tstamp 61463919))
    (comp (ref J1)
      (value Conn_01x06_Female)
      (footprint DP_Module:PADs)
      (datasheet ~)
      (libsource (lib Connector) (part Conn_01x06_Female) (description "Generic connector, single row, 01x06, script generated (kicad-library-utils/schlib/autogen/connector/)"))
      (sheetpath (names /) (tstamps /))
      (tstamp 61465AC0))
    (comp (ref J2)
      (value BMP280_module)
      (datasheet ~)
      (libsource (lib Connector) (part Conn_01x05_Male) (description "Generic connector, single row, 01x05, script generated (kicad-library-utils/schlib/autogen/connector/)"))
      (sheetpath (names /) (tstamps /))
      (tstamp 613A8EAF)))
  (libparts
    (libpart (lib Connector) (part Conn_01x05_Male)
      (description "Generic connector, single row, 01x05, script generated (kicad-library-utils/schlib/autogen/connector/)")
      (docs ~)
      (footprints
        (fp Connector*:*_1x??_*))
      (fields
        (field (name Reference) J)
        (field (name Value) Conn_01x05_Male))
      (pins
        (pin (num 1) (name Pin_1) (type passive))
        (pin (num 2) (name Pin_2) (type passive))
        (pin (num 3) (name Pin_3) (type passive))
        (pin (num 4) (name Pin_4) (type passive))
        (pin (num 5) (name Pin_5) (type passive))))
    (libpart (lib Connector) (part Conn_01x06_Female)
      (description "Generic connector, single row, 01x06, script generated (kicad-library-utils/schlib/autogen/connector/)")
      (docs ~)
      (footprints
        (fp Connector*:*_1x??_*))
      (fields
        (field (name Reference) J)
        (field (name Value) Conn_01x06_Female))
      (pins
        (pin (num 1) (name Pin_1) (type passive))
        (pin (num 2) (name Pin_2) (type passive))
        (pin (num 3) (name Pin_3) (type passive))
        (pin (num 4) (name Pin_4) (type passive))
        (pin (num 5) (name Pin_5) (type passive))
        (pin (num 6) (name Pin_6) (type passive))))
    (libpart (lib Device) (part C_Small)
      (description "Unpolarized capacitor, small symbol")
      (docs ~)
      (footprints
        (fp C_*))
      (fields
        (field (name Reference) C)
        (field (name Value) C_Small))
      (pins
        (pin (num 1) (name ~) (type passive))
        (pin (num 2) (name ~) (type passive))))
    (libpart (lib Device) (part R_Small_US)
      (description "Resistor, small US symbol")
      (docs ~)
      (footprints
        (fp R_*))
      (fields
        (field (name Reference) R)
        (field (name Value) R_Small_US))
      (pins
        (pin (num 1) (name ~) (type passive))
        (pin (num 2) (name ~) (type passive))))
    (libpart (lib Graphic) (part Logo_Open_Hardware_Small)
      (description "Open Hardware logo, small")
      (docs ~)
      (fields
        (field (name Reference) "#LOGO")
        (field (name Value) Logo_Open_Hardware_Small)))
    (libpart (lib Mechanical) (part MountingHole_Pad)
      (description "Mounting Hole with connection")
      (docs ~)
      (footprints
        (fp MountingHole*Pad*))
      (fields
        (field (name Reference) H)
        (field (name Value) MountingHole_Pad))
      (pins
        (pin (num 1) (name 1) (type input))))
    (libpart (lib Ultrasonic_HAT) (part PCA9614DP,118)
      (description "Interface - Signal Buffers, Repeaters 2-channel multipoint Differential I2C-bus")
      (docs http://www.nxp.com/docs/en/data-sheet/PCA9614.pdf)
      (fields
        (field (name Reference) IC)
        (field (name Value) PCA9614DP,118)
        (field (name Footprint) Ultrasonic_Hat:SOP50P490X110-10N))
      (pins
        (pin (num 1) (name "VDD(A)") (type passive))
        (pin (num 2) (name SDA) (type passive))
        (pin (num 3) (name EN) (type passive))
        (pin (num 4) (name SCL) (type passive))
        (pin (num 5) (name VSS) (type passive))
        (pin (num 6) (name DSCLM) (type passive))
        (pin (num 7) (name DSCLP) (type passive))
        (pin (num 8) (name DSDAP) (type passive))
        (pin (num 9) (name DSDAM) (type passive))
        (pin (num 10) (name "VDD(B)") (type passive)))))
  (libraries
    (library (logical Connector)
      (uri "C:\\Program Files\\KiCad\\share\\kicad\\library/Connector.lib"))
    (library (logical Device)
      (uri "C:\\Program Files\\KiCad\\share\\kicad\\library/Device.lib"))
    (library (logical Graphic)
      (uri "C:\\Program Files\\KiCad\\share\\kicad\\library/Graphic.lib"))
    (library (logical Mechanical)
      (uri "C:\\Program Files\\KiCad\\share\\kicad\\library/Mechanical.lib"))
    (library (logical Ultrasonic_HAT)
      (uri C:\Users\FIL10686-STZ001\Documents\Flow_sensors\HW_Design\PCBs\PTH_Module/../Ultrasonic_Hat/Libs/Symbol_libs/Ultrasonic_HAT.lib)))
  (nets
    (net (code 1) (name Earth)
      (node (ref J2) (pin 5))
      (node (ref C1) (pin 1))
      (node (ref H2) (pin 1))
      (node (ref H3) (pin 1))
      (node (ref R8) (pin 1))
      (node (ref R7) (pin 1))
      (node (ref H4) (pin 1))
      (node (ref H1) (pin 1))
      (node (ref C2) (pin 2))
      (node (ref J1) (pin 6))
      (node (ref IC1) (pin 5)))
    (net (code 2) (name /SDA)
      (node (ref J2) (pin 2))
      (node (ref IC1) (pin 2))
      (node (ref R5) (pin 1)))
    (net (code 3) (name "Net-(J2-Pad4)")
      (node (ref J2) (pin 4)))
    (net (code 4) (name /SCL)
      (node (ref J2) (pin 3))
      (node (ref R6) (pin 1))
      (node (ref IC1) (pin 4)))
    (net (code 5) (name DSDA-)
      (node (ref J1) (pin 2))
      (node (ref IC1) (pin 9))
      (node (ref R1) (pin 1))
      (node (ref R3) (pin 2)))
    (net (code 6) (name DSDA+)
      (node (ref J1) (pin 3))
      (node (ref R7) (pin 2))
      (node (ref IC1) (pin 8))
      (node (ref R3) (pin 1)))
    (net (code 7) (name +5V)
      (node (ref IC1) (pin 3))
      (node (ref IC1) (pin 10))
      (node (ref C1) (pin 2))
      (node (ref R2) (pin 2))
      (node (ref R5) (pin 2))
      (node (ref J1) (pin 1))
      (node (ref J2) (pin 1))
      (node (ref R6) (pin 2))
      (node (ref C2) (pin 1))
      (node (ref R1) (pin 2))
      (node (ref IC1) (pin 1)))
    (net (code 8) (name DSCL-)
      (node (ref R8) (pin 2))
      (node (ref J1) (pin 5))
      (node (ref IC1) (pin 6))
      (node (ref R4) (pin 1)))
    (net (code 9) (name DSCL+)
      (node (ref J1) (pin 4))
      (node (ref IC1) (pin 7))
      (node (ref R2) (pin 1))
      (node (ref R4) (pin 2)))))