G04 #@! TF.GenerationSoftware,KiCad,Pcbnew,5.99.0+really5.1.10+dfsg1-1*
G04 #@! TF.CreationDate,2021-09-10T22:04:24+03:00*
G04 #@! TF.ProjectId,DP_Module,44505f4d-6f64-4756-9c65-2e6b69636164,0*
G04 #@! TF.SameCoordinates,PX71d9820PY5feca40*
G04 #@! TF.FileFunction,Legend,Top*
G04 #@! TF.FilePolarity,Positive*
%FSLAX46Y46*%
G04 Gerber Fmt 4.6, Leading zero omitted, Abs format (unit mm)*
G04 Created by KiCad (PCBNEW 5.99.0+really5.1.10+dfsg1-1) date 2021-09-10 22:04:24*
%MOMM*%
%LPD*%
G01*
G04 APERTURE LIST*
%ADD10C,0.127000*%
%ADD11C,0.152400*%
%ADD12C,0.010000*%
%ADD13C,0.120000*%
%ADD14C,0.150000*%
%ADD15C,1.800000*%
%ADD16R,1.800000X1.800000*%
%ADD17O,3.810000X1.905000*%
%ADD18O,1.270000X2.540000*%
%ADD19C,6.400000*%
%ADD20C,0.800000*%
%ADD21C,1.016000*%
G04 APERTURE END LIST*
D10*
X20193000Y2476500D02*
X27241500Y2476500D01*
X20193000Y1206500D02*
X20193000Y2476500D01*
X19304000Y2476500D02*
X12255500Y2476500D01*
X19304000Y2476500D02*
X19304000Y1206500D01*
D11*
X24904095Y1551215D02*
X24934333Y1520977D01*
X24904095Y1490739D01*
X24873857Y1520977D01*
X24904095Y1551215D01*
X24904095Y1490739D01*
X24904095Y1883834D02*
X24934333Y1853596D01*
X24904095Y1823358D01*
X24873857Y1853596D01*
X24904095Y1883834D01*
X24904095Y1823358D01*
X25206476Y1490739D02*
X25206476Y2125739D01*
X25357666Y2125739D01*
X25448380Y2095500D01*
X25508857Y2035024D01*
X25539095Y1974548D01*
X25569333Y1853596D01*
X25569333Y1762881D01*
X25539095Y1641929D01*
X25508857Y1581453D01*
X25448380Y1520977D01*
X25357666Y1490739D01*
X25206476Y1490739D01*
X25811238Y1520977D02*
X25901952Y1490739D01*
X26053142Y1490739D01*
X26113619Y1520977D01*
X26143857Y1551215D01*
X26174095Y1611691D01*
X26174095Y1672167D01*
X26143857Y1732643D01*
X26113619Y1762881D01*
X26053142Y1793120D01*
X25932190Y1823358D01*
X25871714Y1853596D01*
X25841476Y1883834D01*
X25811238Y1944310D01*
X25811238Y2004786D01*
X25841476Y2065262D01*
X25871714Y2095500D01*
X25932190Y2125739D01*
X26083380Y2125739D01*
X26174095Y2095500D01*
X26809095Y1551215D02*
X26778857Y1520977D01*
X26688142Y1490739D01*
X26627666Y1490739D01*
X26536952Y1520977D01*
X26476476Y1581453D01*
X26446238Y1641929D01*
X26416000Y1762881D01*
X26416000Y1853596D01*
X26446238Y1974548D01*
X26476476Y2035024D01*
X26536952Y2095500D01*
X26627666Y2125739D01*
X26688142Y2125739D01*
X26778857Y2095500D01*
X26809095Y2065262D01*
X27383619Y1490739D02*
X27081238Y1490739D01*
X27081238Y2125739D01*
X21342047Y1787072D02*
X20567952Y1787072D01*
X20955000Y2174120D02*
X20955000Y1400024D01*
X23882047Y1787072D02*
X23107952Y1787072D01*
X18027952Y1768929D02*
X18802047Y1768929D01*
X18415000Y1381881D02*
X18415000Y2155977D01*
X15487952Y1768929D02*
X16262047Y1768929D01*
X12125476Y1490739D02*
X12125476Y2125739D01*
X12276666Y2125739D01*
X12367380Y2095500D01*
X12427857Y2035024D01*
X12458095Y1974548D01*
X12488333Y1853596D01*
X12488333Y1762881D01*
X12458095Y1641929D01*
X12427857Y1581453D01*
X12367380Y1520977D01*
X12276666Y1490739D01*
X12125476Y1490739D01*
X12730238Y1520977D02*
X12820952Y1490739D01*
X12972142Y1490739D01*
X13032619Y1520977D01*
X13062857Y1551215D01*
X13093095Y1611691D01*
X13093095Y1672167D01*
X13062857Y1732643D01*
X13032619Y1762881D01*
X12972142Y1793120D01*
X12851190Y1823358D01*
X12790714Y1853596D01*
X12760476Y1883834D01*
X12730238Y1944310D01*
X12730238Y2004786D01*
X12760476Y2065262D01*
X12790714Y2095500D01*
X12851190Y2125739D01*
X13002380Y2125739D01*
X13093095Y2095500D01*
X13365238Y1490739D02*
X13365238Y2125739D01*
X13516428Y2125739D01*
X13607142Y2095500D01*
X13667619Y2035024D01*
X13697857Y1974548D01*
X13728095Y1853596D01*
X13728095Y1762881D01*
X13697857Y1641929D01*
X13667619Y1581453D01*
X13607142Y1520977D01*
X13516428Y1490739D01*
X13365238Y1490739D01*
X13970000Y1672167D02*
X14272380Y1672167D01*
X13909523Y1490739D02*
X14121190Y2125739D01*
X14332857Y1490739D01*
X14544523Y1551215D02*
X14574761Y1520977D01*
X14544523Y1490739D01*
X14514285Y1520977D01*
X14544523Y1551215D01*
X14544523Y1490739D01*
X14544523Y1883834D02*
X14574761Y1853596D01*
X14544523Y1823358D01*
X14514285Y1853596D01*
X14544523Y1883834D01*
X14544523Y1823358D01*
X27686000Y3289905D02*
X27637619Y3193143D01*
X27637619Y3048000D01*
X27686000Y2902858D01*
X27782761Y2806096D01*
X27879523Y2757715D01*
X28073047Y2709334D01*
X28218190Y2709334D01*
X28411714Y2757715D01*
X28508476Y2806096D01*
X28605238Y2902858D01*
X28653619Y3048000D01*
X28653619Y3144762D01*
X28605238Y3289905D01*
X28556857Y3338286D01*
X28218190Y3338286D01*
X28218190Y3144762D01*
X28653619Y3773715D02*
X27637619Y3773715D01*
X28653619Y4354286D01*
X27637619Y4354286D01*
X28653619Y4838096D02*
X27637619Y4838096D01*
X27637619Y5080000D01*
X27686000Y5225143D01*
X27782761Y5321905D01*
X27879523Y5370286D01*
X28073047Y5418667D01*
X28218190Y5418667D01*
X28411714Y5370286D01*
X28508476Y5321905D01*
X28605238Y5225143D01*
X28653619Y5080000D01*
X28653619Y4838096D01*
X11312071Y2757715D02*
X11312071Y3531810D01*
X11699119Y3144762D02*
X10925023Y3144762D01*
X10683119Y4499429D02*
X10683119Y4015620D01*
X11166928Y3967239D01*
X11118547Y4015620D01*
X11070166Y4112381D01*
X11070166Y4354286D01*
X11118547Y4451048D01*
X11166928Y4499429D01*
X11263690Y4547810D01*
X11505595Y4547810D01*
X11602357Y4499429D01*
X11650738Y4451048D01*
X11699119Y4354286D01*
X11699119Y4112381D01*
X11650738Y4015620D01*
X11602357Y3967239D01*
X10683119Y4838096D02*
X11699119Y5176762D01*
X10683119Y5515429D01*
X2183190Y10435167D02*
X2667000Y10435167D01*
X2086428Y10144881D02*
X2425095Y11160881D01*
X2763761Y10144881D01*
X3537857Y10193262D02*
X3441095Y10144881D01*
X3247571Y10144881D01*
X3150809Y10193262D01*
X3102428Y10241643D01*
X3054047Y10338405D01*
X3054047Y10628691D01*
X3102428Y10725453D01*
X3150809Y10773834D01*
X3247571Y10822215D01*
X3441095Y10822215D01*
X3537857Y10773834D01*
X3828142Y10822215D02*
X4215190Y10822215D01*
X3973285Y11160881D02*
X3973285Y10290024D01*
X4021666Y10193262D01*
X4118428Y10144881D01*
X4215190Y10144881D01*
X4553857Y10144881D02*
X4553857Y10822215D01*
X4553857Y11160881D02*
X4505476Y11112500D01*
X4553857Y11064120D01*
X4602238Y11112500D01*
X4553857Y11160881D01*
X4553857Y11064120D01*
X4940904Y10822215D02*
X5182809Y10144881D01*
X5424714Y10822215D01*
X5811761Y10144881D02*
X5811761Y10822215D01*
X5811761Y11160881D02*
X5763380Y11112500D01*
X5811761Y11064120D01*
X5860142Y11112500D01*
X5811761Y11160881D01*
X5811761Y11064120D01*
X6150428Y10822215D02*
X6537476Y10822215D01*
X6295571Y11160881D02*
X6295571Y10290024D01*
X6343952Y10193262D01*
X6440714Y10144881D01*
X6537476Y10144881D01*
X6779380Y10822215D02*
X7021285Y10144881D01*
X7263190Y10822215D02*
X7021285Y10144881D01*
X6924523Y9902977D01*
X6876142Y9854596D01*
X6779380Y9806215D01*
D12*
G36*
X30042886Y11004495D02*
G01*
X30117539Y10967273D01*
X30183431Y10898739D01*
X30201577Y10873352D01*
X30221345Y10840134D01*
X30234172Y10804055D01*
X30241510Y10755902D01*
X30244813Y10686464D01*
X30245538Y10594794D01*
X30242263Y10469170D01*
X30230877Y10374846D01*
X30209041Y10304477D01*
X30174419Y10250714D01*
X30124670Y10206212D01*
X30121014Y10203577D01*
X30071985Y10176623D01*
X30012945Y10163288D01*
X29937859Y10160000D01*
X29815795Y10160000D01*
X29815744Y10041503D01*
X29814608Y9975508D01*
X29807686Y9936798D01*
X29789598Y9913581D01*
X29754962Y9894067D01*
X29746645Y9890080D01*
X29707720Y9871397D01*
X29677583Y9859597D01*
X29655174Y9858578D01*
X29639433Y9872239D01*
X29629302Y9904478D01*
X29623723Y9959196D01*
X29621635Y10040289D01*
X29621981Y10151656D01*
X29623700Y10297198D01*
X29624237Y10340731D01*
X29626172Y10490795D01*
X29627904Y10588958D01*
X29815692Y10588958D01*
X29816748Y10505636D01*
X29821438Y10451120D01*
X29832051Y10415163D01*
X29850872Y10387518D01*
X29863650Y10374035D01*
X29915890Y10334583D01*
X29962142Y10331372D01*
X30009867Y10363951D01*
X30011077Y10365154D01*
X30030494Y10390332D01*
X30042307Y10424553D01*
X30048265Y10477252D01*
X30050120Y10557869D01*
X30050154Y10575729D01*
X30045670Y10686825D01*
X30031074Y10763839D01*
X30004650Y10810853D01*
X29964683Y10831950D01*
X29941584Y10834077D01*
X29886762Y10824100D01*
X29849158Y10791248D01*
X29826523Y10731143D01*
X29816606Y10639402D01*
X29815692Y10588958D01*
X29627904Y10588958D01*
X29628222Y10606940D01*
X29630873Y10694321D01*
X29634606Y10758095D01*
X29639907Y10803418D01*
X29647258Y10835445D01*
X29657143Y10859332D01*
X29670046Y10880236D01*
X29675579Y10888102D01*
X29748969Y10962405D01*
X29841760Y11004533D01*
X29949096Y11016278D01*
X30042886Y11004495D01*
G37*
X30042886Y11004495D02*
X30117539Y10967273D01*
X30183431Y10898739D01*
X30201577Y10873352D01*
X30221345Y10840134D01*
X30234172Y10804055D01*
X30241510Y10755902D01*
X30244813Y10686464D01*
X30245538Y10594794D01*
X30242263Y10469170D01*
X30230877Y10374846D01*
X30209041Y10304477D01*
X30174419Y10250714D01*
X30124670Y10206212D01*
X30121014Y10203577D01*
X30071985Y10176623D01*
X30012945Y10163288D01*
X29937859Y10160000D01*
X29815795Y10160000D01*
X29815744Y10041503D01*
X29814608Y9975508D01*
X29807686Y9936798D01*
X29789598Y9913581D01*
X29754962Y9894067D01*
X29746645Y9890080D01*
X29707720Y9871397D01*
X29677583Y9859597D01*
X29655174Y9858578D01*
X29639433Y9872239D01*
X29629302Y9904478D01*
X29623723Y9959196D01*
X29621635Y10040289D01*
X29621981Y10151656D01*
X29623700Y10297198D01*
X29624237Y10340731D01*
X29626172Y10490795D01*
X29627904Y10588958D01*
X29815692Y10588958D01*
X29816748Y10505636D01*
X29821438Y10451120D01*
X29832051Y10415163D01*
X29850872Y10387518D01*
X29863650Y10374035D01*
X29915890Y10334583D01*
X29962142Y10331372D01*
X30009867Y10363951D01*
X30011077Y10365154D01*
X30030494Y10390332D01*
X30042307Y10424553D01*
X30048265Y10477252D01*
X30050120Y10557869D01*
X30050154Y10575729D01*
X30045670Y10686825D01*
X30031074Y10763839D01*
X30004650Y10810853D01*
X29964683Y10831950D01*
X29941584Y10834077D01*
X29886762Y10824100D01*
X29849158Y10791248D01*
X29826523Y10731143D01*
X29816606Y10639402D01*
X29815692Y10588958D01*
X29627904Y10588958D01*
X29628222Y10606940D01*
X29630873Y10694321D01*
X29634606Y10758095D01*
X29639907Y10803418D01*
X29647258Y10835445D01*
X29657143Y10859332D01*
X29670046Y10880236D01*
X29675579Y10888102D01*
X29748969Y10962405D01*
X29841760Y11004533D01*
X29949096Y11016278D01*
X30042886Y11004495D01*
G36*
X31545664Y10993911D02*
G01*
X31608367Y10957642D01*
X31651961Y10921642D01*
X31683845Y10883925D01*
X31705810Y10837801D01*
X31719649Y10776579D01*
X31727153Y10693569D01*
X31730117Y10582081D01*
X31730461Y10501938D01*
X31730461Y10206935D01*
X31564385Y10132485D01*
X31554615Y10455598D01*
X31550579Y10576271D01*
X31546344Y10663859D01*
X31541097Y10724350D01*
X31534025Y10763732D01*
X31524311Y10787993D01*
X31511144Y10803120D01*
X31506919Y10806394D01*
X31442909Y10831966D01*
X31378208Y10821847D01*
X31339692Y10795000D01*
X31324025Y10775976D01*
X31313180Y10751012D01*
X31306288Y10713166D01*
X31302479Y10655498D01*
X31300883Y10571065D01*
X31300615Y10483072D01*
X31300563Y10372677D01*
X31298672Y10294537D01*
X31292345Y10241835D01*
X31278983Y10207758D01*
X31255985Y10185489D01*
X31220754Y10168213D01*
X31173697Y10150262D01*
X31122303Y10130722D01*
X31128421Y10477515D01*
X31130884Y10602532D01*
X31133767Y10694918D01*
X31137898Y10761119D01*
X31144107Y10807580D01*
X31153226Y10840744D01*
X31166083Y10867056D01*
X31181584Y10890271D01*
X31256371Y10964431D01*
X31347628Y11007316D01*
X31446883Y11017588D01*
X31545664Y10993911D01*
G37*
X31545664Y10993911D02*
X31608367Y10957642D01*
X31651961Y10921642D01*
X31683845Y10883925D01*
X31705810Y10837801D01*
X31719649Y10776579D01*
X31727153Y10693569D01*
X31730117Y10582081D01*
X31730461Y10501938D01*
X31730461Y10206935D01*
X31564385Y10132485D01*
X31554615Y10455598D01*
X31550579Y10576271D01*
X31546344Y10663859D01*
X31541097Y10724350D01*
X31534025Y10763732D01*
X31524311Y10787993D01*
X31511144Y10803120D01*
X31506919Y10806394D01*
X31442909Y10831966D01*
X31378208Y10821847D01*
X31339692Y10795000D01*
X31324025Y10775976D01*
X31313180Y10751012D01*
X31306288Y10713166D01*
X31302479Y10655498D01*
X31300883Y10571065D01*
X31300615Y10483072D01*
X31300563Y10372677D01*
X31298672Y10294537D01*
X31292345Y10241835D01*
X31278983Y10207758D01*
X31255985Y10185489D01*
X31220754Y10168213D01*
X31173697Y10150262D01*
X31122303Y10130722D01*
X31128421Y10477515D01*
X31130884Y10602532D01*
X31133767Y10694918D01*
X31137898Y10761119D01*
X31144107Y10807580D01*
X31153226Y10840744D01*
X31166083Y10867056D01*
X31181584Y10890271D01*
X31256371Y10964431D01*
X31347628Y11007316D01*
X31446883Y11017588D01*
X31545664Y10993911D01*
G36*
X29290886Y11001744D02*
G01*
X29382464Y10953591D01*
X29450049Y10876095D01*
X29474057Y10826273D01*
X29492738Y10751467D01*
X29502301Y10656948D01*
X29503208Y10553790D01*
X29495921Y10453065D01*
X29480903Y10365847D01*
X29458615Y10303209D01*
X29451765Y10292421D01*
X29370632Y10211895D01*
X29274266Y10163664D01*
X29169701Y10149550D01*
X29063968Y10171371D01*
X29034543Y10184453D01*
X28977241Y10224769D01*
X28926950Y10278225D01*
X28922197Y10285005D01*
X28902878Y10317679D01*
X28890108Y10352606D01*
X28882564Y10398586D01*
X28878924Y10464416D01*
X28877865Y10558895D01*
X28877846Y10580077D01*
X28877894Y10586818D01*
X29073231Y10586818D01*
X29074368Y10497651D01*
X29078841Y10438480D01*
X29088246Y10400259D01*
X29104176Y10373947D01*
X29112308Y10365154D01*
X29159058Y10331739D01*
X29204447Y10333263D01*
X29250340Y10362248D01*
X29277712Y10393191D01*
X29293923Y10438357D01*
X29303026Y10509580D01*
X29303651Y10517886D01*
X29305204Y10646963D01*
X29288965Y10742828D01*
X29255152Y10804893D01*
X29203984Y10832568D01*
X29185720Y10834077D01*
X29137760Y10826487D01*
X29104953Y10800192D01*
X29084895Y10749905D01*
X29075178Y10670336D01*
X29073231Y10586818D01*
X28877894Y10586818D01*
X28878574Y10680751D01*
X28881629Y10751094D01*
X28888322Y10799837D01*
X28899960Y10835712D01*
X28917853Y10867452D01*
X28921808Y10873352D01*
X28988267Y10952896D01*
X29060685Y10999071D01*
X29148849Y11017401D01*
X29178787Y11018297D01*
X29290886Y11001744D01*
G37*
X29290886Y11001744D02*
X29382464Y10953591D01*
X29450049Y10876095D01*
X29474057Y10826273D01*
X29492738Y10751467D01*
X29502301Y10656948D01*
X29503208Y10553790D01*
X29495921Y10453065D01*
X29480903Y10365847D01*
X29458615Y10303209D01*
X29451765Y10292421D01*
X29370632Y10211895D01*
X29274266Y10163664D01*
X29169701Y10149550D01*
X29063968Y10171371D01*
X29034543Y10184453D01*
X28977241Y10224769D01*
X28926950Y10278225D01*
X28922197Y10285005D01*
X28902878Y10317679D01*
X28890108Y10352606D01*
X28882564Y10398586D01*
X28878924Y10464416D01*
X28877865Y10558895D01*
X28877846Y10580077D01*
X28877894Y10586818D01*
X29073231Y10586818D01*
X29074368Y10497651D01*
X29078841Y10438480D01*
X29088246Y10400259D01*
X29104176Y10373947D01*
X29112308Y10365154D01*
X29159058Y10331739D01*
X29204447Y10333263D01*
X29250340Y10362248D01*
X29277712Y10393191D01*
X29293923Y10438357D01*
X29303026Y10509580D01*
X29303651Y10517886D01*
X29305204Y10646963D01*
X29288965Y10742828D01*
X29255152Y10804893D01*
X29203984Y10832568D01*
X29185720Y10834077D01*
X29137760Y10826487D01*
X29104953Y10800192D01*
X29084895Y10749905D01*
X29075178Y10670336D01*
X29073231Y10586818D01*
X28877894Y10586818D01*
X28878574Y10680751D01*
X28881629Y10751094D01*
X28888322Y10799837D01*
X28899960Y10835712D01*
X28917853Y10867452D01*
X28921808Y10873352D01*
X28988267Y10952896D01*
X29060685Y10999071D01*
X29148849Y11017401D01*
X29178787Y11018297D01*
X29290886Y11001744D01*
G36*
X30808254Y10989255D02*
G01*
X30885286Y10937433D01*
X30944816Y10862588D01*
X30980378Y10767346D01*
X30987571Y10697244D01*
X30986754Y10667991D01*
X30979914Y10645593D01*
X30961112Y10625526D01*
X30924408Y10603267D01*
X30863862Y10574291D01*
X30773534Y10534073D01*
X30773077Y10533871D01*
X30689933Y10495790D01*
X30621753Y10461975D01*
X30575505Y10436067D01*
X30558158Y10421705D01*
X30558154Y10421589D01*
X30573443Y10390315D01*
X30609196Y10355843D01*
X30650242Y10331010D01*
X30671037Y10326077D01*
X30727770Y10343138D01*
X30776627Y10385867D01*
X30800465Y10432845D01*
X30823397Y10467478D01*
X30868318Y10506919D01*
X30921123Y10540991D01*
X30967710Y10559520D01*
X30977452Y10560538D01*
X30988418Y10543785D01*
X30989079Y10500961D01*
X30981020Y10443219D01*
X30965827Y10381711D01*
X30945086Y10327591D01*
X30944038Y10325490D01*
X30881621Y10238340D01*
X30800726Y10179061D01*
X30708856Y10149966D01*
X30613513Y10153366D01*
X30522198Y10191572D01*
X30518138Y10194259D01*
X30446306Y10259358D01*
X30399073Y10344295D01*
X30372934Y10455979D01*
X30369426Y10487357D01*
X30363213Y10635464D01*
X30370661Y10704532D01*
X30558154Y10704532D01*
X30560590Y10661448D01*
X30573914Y10648874D01*
X30607132Y10658281D01*
X30659494Y10680517D01*
X30718024Y10708390D01*
X30719479Y10709128D01*
X30769089Y10735223D01*
X30789000Y10752637D01*
X30784090Y10770893D01*
X30763416Y10794880D01*
X30710819Y10829594D01*
X30654177Y10832144D01*
X30603369Y10806881D01*
X30568276Y10758153D01*
X30558154Y10704532D01*
X30370661Y10704532D01*
X30375992Y10753964D01*
X30408778Y10847945D01*
X30454421Y10913785D01*
X30536802Y10980319D01*
X30627546Y11013324D01*
X30720185Y11015427D01*
X30808254Y10989255D01*
G37*
X30808254Y10989255D02*
X30885286Y10937433D01*
X30944816Y10862588D01*
X30980378Y10767346D01*
X30987571Y10697244D01*
X30986754Y10667991D01*
X30979914Y10645593D01*
X30961112Y10625526D01*
X30924408Y10603267D01*
X30863862Y10574291D01*
X30773534Y10534073D01*
X30773077Y10533871D01*
X30689933Y10495790D01*
X30621753Y10461975D01*
X30575505Y10436067D01*
X30558158Y10421705D01*
X30558154Y10421589D01*
X30573443Y10390315D01*
X30609196Y10355843D01*
X30650242Y10331010D01*
X30671037Y10326077D01*
X30727770Y10343138D01*
X30776627Y10385867D01*
X30800465Y10432845D01*
X30823397Y10467478D01*
X30868318Y10506919D01*
X30921123Y10540991D01*
X30967710Y10559520D01*
X30977452Y10560538D01*
X30988418Y10543785D01*
X30989079Y10500961D01*
X30981020Y10443219D01*
X30965827Y10381711D01*
X30945086Y10327591D01*
X30944038Y10325490D01*
X30881621Y10238340D01*
X30800726Y10179061D01*
X30708856Y10149966D01*
X30613513Y10153366D01*
X30522198Y10191572D01*
X30518138Y10194259D01*
X30446306Y10259358D01*
X30399073Y10344295D01*
X30372934Y10455979D01*
X30369426Y10487357D01*
X30363213Y10635464D01*
X30370661Y10704532D01*
X30558154Y10704532D01*
X30560590Y10661448D01*
X30573914Y10648874D01*
X30607132Y10658281D01*
X30659494Y10680517D01*
X30718024Y10708390D01*
X30719479Y10709128D01*
X30769089Y10735223D01*
X30789000Y10752637D01*
X30784090Y10770893D01*
X30763416Y10794880D01*
X30710819Y10829594D01*
X30654177Y10832144D01*
X30603369Y10806881D01*
X30568276Y10758153D01*
X30558154Y10704532D01*
X30370661Y10704532D01*
X30375992Y10753964D01*
X30408778Y10847945D01*
X30454421Y10913785D01*
X30536802Y10980319D01*
X30627546Y11013324D01*
X30720185Y11015427D01*
X30808254Y10989255D01*
G36*
X32433846Y11096880D02*
G01*
X32439572Y11017020D01*
X32446149Y10969961D01*
X32455262Y10949434D01*
X32468598Y10949171D01*
X32472923Y10951622D01*
X32530444Y10969364D01*
X32605268Y10968328D01*
X32681339Y10950090D01*
X32728918Y10926495D01*
X32777702Y10888802D01*
X32813364Y10846145D01*
X32837845Y10791943D01*
X32853087Y10719616D01*
X32861030Y10622581D01*
X32863616Y10494258D01*
X32863662Y10469642D01*
X32863692Y10193130D01*
X32802161Y10171680D01*
X32758459Y10157088D01*
X32734482Y10150294D01*
X32733777Y10150231D01*
X32731415Y10168655D01*
X32729406Y10219474D01*
X32727901Y10296007D01*
X32727053Y10391570D01*
X32726923Y10449671D01*
X32726651Y10564229D01*
X32725252Y10646333D01*
X32721849Y10702607D01*
X32715567Y10739674D01*
X32705529Y10764156D01*
X32690861Y10782675D01*
X32681702Y10791594D01*
X32618789Y10827534D01*
X32550136Y10830225D01*
X32487848Y10799830D01*
X32476329Y10788856D01*
X32459433Y10768221D01*
X32447714Y10743744D01*
X32440233Y10708353D01*
X32436054Y10654974D01*
X32434237Y10576534D01*
X32433846Y10468383D01*
X32433846Y10193130D01*
X32372315Y10171680D01*
X32328613Y10157088D01*
X32304636Y10150294D01*
X32303930Y10150231D01*
X32302126Y10168931D01*
X32300500Y10221678D01*
X32299117Y10303443D01*
X32298042Y10409195D01*
X32297340Y10533906D01*
X32297077Y10672545D01*
X32297077Y11207194D01*
X32424077Y11260764D01*
X32433846Y11096880D01*
G37*
X32433846Y11096880D02*
X32439572Y11017020D01*
X32446149Y10969961D01*
X32455262Y10949434D01*
X32468598Y10949171D01*
X32472923Y10951622D01*
X32530444Y10969364D01*
X32605268Y10968328D01*
X32681339Y10950090D01*
X32728918Y10926495D01*
X32777702Y10888802D01*
X32813364Y10846145D01*
X32837845Y10791943D01*
X32853087Y10719616D01*
X32861030Y10622581D01*
X32863616Y10494258D01*
X32863662Y10469642D01*
X32863692Y10193130D01*
X32802161Y10171680D01*
X32758459Y10157088D01*
X32734482Y10150294D01*
X32733777Y10150231D01*
X32731415Y10168655D01*
X32729406Y10219474D01*
X32727901Y10296007D01*
X32727053Y10391570D01*
X32726923Y10449671D01*
X32726651Y10564229D01*
X32725252Y10646333D01*
X32721849Y10702607D01*
X32715567Y10739674D01*
X32705529Y10764156D01*
X32690861Y10782675D01*
X32681702Y10791594D01*
X32618789Y10827534D01*
X32550136Y10830225D01*
X32487848Y10799830D01*
X32476329Y10788856D01*
X32459433Y10768221D01*
X32447714Y10743744D01*
X32440233Y10708353D01*
X32436054Y10654974D01*
X32434237Y10576534D01*
X32433846Y10468383D01*
X32433846Y10193130D01*
X32372315Y10171680D01*
X32328613Y10157088D01*
X32304636Y10150294D01*
X32303930Y10150231D01*
X32302126Y10168931D01*
X32300500Y10221678D01*
X32299117Y10303443D01*
X32298042Y10409195D01*
X32297340Y10533906D01*
X32297077Y10672545D01*
X32297077Y11207194D01*
X32424077Y11260764D01*
X32433846Y11096880D01*
G36*
X33327501Y10962697D02*
G01*
X33404060Y10934267D01*
X33404936Y10933721D01*
X33452285Y10898873D01*
X33487241Y10858148D01*
X33511825Y10805075D01*
X33528062Y10733186D01*
X33537975Y10636008D01*
X33543586Y10507072D01*
X33544077Y10488702D01*
X33551141Y10211713D01*
X33491695Y10180972D01*
X33448681Y10160198D01*
X33422710Y10150354D01*
X33421509Y10150231D01*
X33417014Y10168394D01*
X33413444Y10217388D01*
X33411248Y10288969D01*
X33410769Y10346932D01*
X33410758Y10440830D01*
X33406466Y10499797D01*
X33391503Y10527921D01*
X33359482Y10529294D01*
X33304014Y10508002D01*
X33220269Y10468864D01*
X33158689Y10436357D01*
X33127017Y10408155D01*
X33117706Y10377418D01*
X33117692Y10375896D01*
X33133057Y10322946D01*
X33178547Y10294340D01*
X33248166Y10290197D01*
X33298313Y10290916D01*
X33324754Y10276473D01*
X33341243Y10241782D01*
X33350733Y10197584D01*
X33337057Y10172507D01*
X33331907Y10168918D01*
X33283425Y10154504D01*
X33215531Y10152463D01*
X33145612Y10162017D01*
X33096068Y10179478D01*
X33027570Y10237636D01*
X32988634Y10318592D01*
X32980923Y10381840D01*
X32986807Y10438889D01*
X33008101Y10485458D01*
X33050265Y10526819D01*
X33118759Y10568245D01*
X33219044Y10615007D01*
X33225154Y10617650D01*
X33315490Y10659383D01*
X33371235Y10693609D01*
X33395129Y10724365D01*
X33389913Y10755689D01*
X33358328Y10791617D01*
X33348883Y10799884D01*
X33285617Y10831942D01*
X33220064Y10830593D01*
X33162972Y10799162D01*
X33125093Y10740976D01*
X33121574Y10729554D01*
X33087300Y10674163D01*
X33043809Y10647482D01*
X32980923Y10621040D01*
X32980923Y10689452D01*
X33000052Y10788890D01*
X33056831Y10880098D01*
X33086378Y10910611D01*
X33153542Y10949772D01*
X33238956Y10967500D01*
X33327501Y10962697D01*
G37*
X33327501Y10962697D02*
X33404060Y10934267D01*
X33404936Y10933721D01*
X33452285Y10898873D01*
X33487241Y10858148D01*
X33511825Y10805075D01*
X33528062Y10733186D01*
X33537975Y10636008D01*
X33543586Y10507072D01*
X33544077Y10488702D01*
X33551141Y10211713D01*
X33491695Y10180972D01*
X33448681Y10160198D01*
X33422710Y10150354D01*
X33421509Y10150231D01*
X33417014Y10168394D01*
X33413444Y10217388D01*
X33411248Y10288969D01*
X33410769Y10346932D01*
X33410758Y10440830D01*
X33406466Y10499797D01*
X33391503Y10527921D01*
X33359482Y10529294D01*
X33304014Y10508002D01*
X33220269Y10468864D01*
X33158689Y10436357D01*
X33127017Y10408155D01*
X33117706Y10377418D01*
X33117692Y10375896D01*
X33133057Y10322946D01*
X33178547Y10294340D01*
X33248166Y10290197D01*
X33298313Y10290916D01*
X33324754Y10276473D01*
X33341243Y10241782D01*
X33350733Y10197584D01*
X33337057Y10172507D01*
X33331907Y10168918D01*
X33283425Y10154504D01*
X33215531Y10152463D01*
X33145612Y10162017D01*
X33096068Y10179478D01*
X33027570Y10237636D01*
X32988634Y10318592D01*
X32980923Y10381840D01*
X32986807Y10438889D01*
X33008101Y10485458D01*
X33050265Y10526819D01*
X33118759Y10568245D01*
X33219044Y10615007D01*
X33225154Y10617650D01*
X33315490Y10659383D01*
X33371235Y10693609D01*
X33395129Y10724365D01*
X33389913Y10755689D01*
X33358328Y10791617D01*
X33348883Y10799884D01*
X33285617Y10831942D01*
X33220064Y10830593D01*
X33162972Y10799162D01*
X33125093Y10740976D01*
X33121574Y10729554D01*
X33087300Y10674163D01*
X33043809Y10647482D01*
X32980923Y10621040D01*
X32980923Y10689452D01*
X33000052Y10788890D01*
X33056831Y10880098D01*
X33086378Y10910611D01*
X33153542Y10949772D01*
X33238956Y10967500D01*
X33327501Y10962697D01*
G36*
X33987362Y10964330D02*
G01*
X34076117Y10931579D01*
X34148022Y10873650D01*
X34176144Y10832872D01*
X34206802Y10758046D01*
X34206165Y10703942D01*
X34173987Y10667554D01*
X34162081Y10661367D01*
X34110675Y10642075D01*
X34084422Y10647018D01*
X34075530Y10679413D01*
X34075077Y10697308D01*
X34058797Y10763141D01*
X34016365Y10809193D01*
X33957388Y10831436D01*
X33891475Y10825839D01*
X33837895Y10796771D01*
X33819798Y10780190D01*
X33806971Y10760075D01*
X33798306Y10729668D01*
X33792696Y10682212D01*
X33789035Y10610950D01*
X33786215Y10509125D01*
X33785484Y10476885D01*
X33782820Y10366590D01*
X33779792Y10288964D01*
X33775250Y10237604D01*
X33768046Y10206110D01*
X33757033Y10188080D01*
X33741060Y10177112D01*
X33730834Y10172267D01*
X33687406Y10155699D01*
X33661842Y10150231D01*
X33653395Y10168493D01*
X33648239Y10223704D01*
X33646346Y10316501D01*
X33647689Y10447522D01*
X33648107Y10467731D01*
X33651058Y10587267D01*
X33654548Y10674551D01*
X33659514Y10736409D01*
X33666893Y10779664D01*
X33677624Y10811140D01*
X33692645Y10837661D01*
X33700502Y10849025D01*
X33745553Y10899308D01*
X33795940Y10938419D01*
X33802108Y10941833D01*
X33892458Y10968788D01*
X33987362Y10964330D01*
G37*
X33987362Y10964330D02*
X34076117Y10931579D01*
X34148022Y10873650D01*
X34176144Y10832872D01*
X34206802Y10758046D01*
X34206165Y10703942D01*
X34173987Y10667554D01*
X34162081Y10661367D01*
X34110675Y10642075D01*
X34084422Y10647018D01*
X34075530Y10679413D01*
X34075077Y10697308D01*
X34058797Y10763141D01*
X34016365Y10809193D01*
X33957388Y10831436D01*
X33891475Y10825839D01*
X33837895Y10796771D01*
X33819798Y10780190D01*
X33806971Y10760075D01*
X33798306Y10729668D01*
X33792696Y10682212D01*
X33789035Y10610950D01*
X33786215Y10509125D01*
X33785484Y10476885D01*
X33782820Y10366590D01*
X33779792Y10288964D01*
X33775250Y10237604D01*
X33768046Y10206110D01*
X33757033Y10188080D01*
X33741060Y10177112D01*
X33730834Y10172267D01*
X33687406Y10155699D01*
X33661842Y10150231D01*
X33653395Y10168493D01*
X33648239Y10223704D01*
X33646346Y10316501D01*
X33647689Y10447522D01*
X33648107Y10467731D01*
X33651058Y10587267D01*
X33654548Y10674551D01*
X33659514Y10736409D01*
X33666893Y10779664D01*
X33677624Y10811140D01*
X33692645Y10837661D01*
X33700502Y10849025D01*
X33745553Y10899308D01*
X33795940Y10938419D01*
X33802108Y10941833D01*
X33892458Y10968788D01*
X33987362Y10964330D01*
G36*
X34876081Y10808711D02*
G01*
X34875833Y10662680D01*
X34874872Y10550345D01*
X34872794Y10466322D01*
X34869193Y10405231D01*
X34863665Y10361691D01*
X34855804Y10330321D01*
X34845207Y10305738D01*
X34837182Y10291706D01*
X34770728Y10215612D01*
X34686470Y10167916D01*
X34593249Y10150801D01*
X34499900Y10166454D01*
X34444312Y10194582D01*
X34385957Y10243240D01*
X34346186Y10302667D01*
X34322190Y10380493D01*
X34311161Y10484348D01*
X34309599Y10560538D01*
X34309809Y10566014D01*
X34446308Y10566014D01*
X34447141Y10478645D01*
X34450961Y10420808D01*
X34459746Y10382971D01*
X34475474Y10355602D01*
X34494266Y10334958D01*
X34557375Y10295110D01*
X34625137Y10291705D01*
X34689179Y10324975D01*
X34694164Y10329483D01*
X34715439Y10352933D01*
X34728779Y10380834D01*
X34736001Y10422359D01*
X34738923Y10486684D01*
X34739385Y10557800D01*
X34738383Y10647142D01*
X34734238Y10706742D01*
X34725236Y10745911D01*
X34709667Y10773960D01*
X34696902Y10788856D01*
X34637600Y10826425D01*
X34569301Y10830943D01*
X34504110Y10802247D01*
X34491528Y10791594D01*
X34470111Y10767937D01*
X34456744Y10739749D01*
X34449566Y10697755D01*
X34446719Y10632681D01*
X34446308Y10566014D01*
X34309809Y10566014D01*
X34314322Y10683235D01*
X34330362Y10775423D01*
X34360528Y10844731D01*
X34407629Y10898789D01*
X34444312Y10926495D01*
X34510990Y10956428D01*
X34588272Y10970322D01*
X34660110Y10966603D01*
X34700308Y10951600D01*
X34716082Y10947330D01*
X34726550Y10963250D01*
X34733856Y11005911D01*
X34739385Y11070894D01*
X34745437Y11143268D01*
X34753844Y11186813D01*
X34769141Y11211713D01*
X34795864Y11228155D01*
X34812654Y11235436D01*
X34876154Y11262037D01*
X34876081Y10808711D01*
G37*
X34876081Y10808711D02*
X34875833Y10662680D01*
X34874872Y10550345D01*
X34872794Y10466322D01*
X34869193Y10405231D01*
X34863665Y10361691D01*
X34855804Y10330321D01*
X34845207Y10305738D01*
X34837182Y10291706D01*
X34770728Y10215612D01*
X34686470Y10167916D01*
X34593249Y10150801D01*
X34499900Y10166454D01*
X34444312Y10194582D01*
X34385957Y10243240D01*
X34346186Y10302667D01*
X34322190Y10380493D01*
X34311161Y10484348D01*
X34309599Y10560538D01*
X34309809Y10566014D01*
X34446308Y10566014D01*
X34447141Y10478645D01*
X34450961Y10420808D01*
X34459746Y10382971D01*
X34475474Y10355602D01*
X34494266Y10334958D01*
X34557375Y10295110D01*
X34625137Y10291705D01*
X34689179Y10324975D01*
X34694164Y10329483D01*
X34715439Y10352933D01*
X34728779Y10380834D01*
X34736001Y10422359D01*
X34738923Y10486684D01*
X34739385Y10557800D01*
X34738383Y10647142D01*
X34734238Y10706742D01*
X34725236Y10745911D01*
X34709667Y10773960D01*
X34696902Y10788856D01*
X34637600Y10826425D01*
X34569301Y10830943D01*
X34504110Y10802247D01*
X34491528Y10791594D01*
X34470111Y10767937D01*
X34456744Y10739749D01*
X34449566Y10697755D01*
X34446719Y10632681D01*
X34446308Y10566014D01*
X34309809Y10566014D01*
X34314322Y10683235D01*
X34330362Y10775423D01*
X34360528Y10844731D01*
X34407629Y10898789D01*
X34444312Y10926495D01*
X34510990Y10956428D01*
X34588272Y10970322D01*
X34660110Y10966603D01*
X34700308Y10951600D01*
X34716082Y10947330D01*
X34726550Y10963250D01*
X34733856Y11005911D01*
X34739385Y11070894D01*
X34745437Y11143268D01*
X34753844Y11186813D01*
X34769141Y11211713D01*
X34795864Y11228155D01*
X34812654Y11235436D01*
X34876154Y11262037D01*
X34876081Y10808711D01*
G36*
X35669929Y10952338D02*
G01*
X35672911Y10900932D01*
X35675247Y10822808D01*
X35676749Y10724143D01*
X35677231Y10620657D01*
X35677231Y10270467D01*
X35615401Y10208637D01*
X35572793Y10170538D01*
X35535390Y10155105D01*
X35484270Y10156082D01*
X35463978Y10158567D01*
X35400554Y10165800D01*
X35348095Y10169945D01*
X35335308Y10170328D01*
X35292199Y10167824D01*
X35230544Y10161538D01*
X35206638Y10158567D01*
X35147922Y10153972D01*
X35108464Y10163954D01*
X35069338Y10194772D01*
X35055215Y10208637D01*
X34993385Y10270467D01*
X34993385Y10925497D01*
X35043150Y10948171D01*
X35086002Y10964966D01*
X35111073Y10970846D01*
X35117501Y10952264D01*
X35123509Y10900345D01*
X35128697Y10820828D01*
X35132664Y10719454D01*
X35134577Y10633808D01*
X35139923Y10296769D01*
X35186560Y10290175D01*
X35228976Y10294786D01*
X35249760Y10309713D01*
X35255570Y10337623D01*
X35260530Y10397075D01*
X35264246Y10480534D01*
X35266324Y10580468D01*
X35266624Y10631896D01*
X35266923Y10927946D01*
X35328454Y10949396D01*
X35372004Y10963980D01*
X35395694Y10970781D01*
X35396377Y10970846D01*
X35398754Y10952358D01*
X35401366Y10901094D01*
X35403995Y10823351D01*
X35406421Y10725426D01*
X35408115Y10633808D01*
X35413461Y10296769D01*
X35530692Y10296769D01*
X35536072Y10604254D01*
X35541451Y10911739D01*
X35598601Y10941293D01*
X35640797Y10961587D01*
X35665770Y10970796D01*
X35666491Y10970846D01*
X35669929Y10952338D01*
G37*
X35669929Y10952338D02*
X35672911Y10900932D01*
X35675247Y10822808D01*
X35676749Y10724143D01*
X35677231Y10620657D01*
X35677231Y10270467D01*
X35615401Y10208637D01*
X35572793Y10170538D01*
X35535390Y10155105D01*
X35484270Y10156082D01*
X35463978Y10158567D01*
X35400554Y10165800D01*
X35348095Y10169945D01*
X35335308Y10170328D01*
X35292199Y10167824D01*
X35230544Y10161538D01*
X35206638Y10158567D01*
X35147922Y10153972D01*
X35108464Y10163954D01*
X35069338Y10194772D01*
X35055215Y10208637D01*
X34993385Y10270467D01*
X34993385Y10925497D01*
X35043150Y10948171D01*
X35086002Y10964966D01*
X35111073Y10970846D01*
X35117501Y10952264D01*
X35123509Y10900345D01*
X35128697Y10820828D01*
X35132664Y10719454D01*
X35134577Y10633808D01*
X35139923Y10296769D01*
X35186560Y10290175D01*
X35228976Y10294786D01*
X35249760Y10309713D01*
X35255570Y10337623D01*
X35260530Y10397075D01*
X35264246Y10480534D01*
X35266324Y10580468D01*
X35266624Y10631896D01*
X35266923Y10927946D01*
X35328454Y10949396D01*
X35372004Y10963980D01*
X35395694Y10970781D01*
X35396377Y10970846D01*
X35398754Y10952358D01*
X35401366Y10901094D01*
X35403995Y10823351D01*
X35406421Y10725426D01*
X35408115Y10633808D01*
X35413461Y10296769D01*
X35530692Y10296769D01*
X35536072Y10604254D01*
X35541451Y10911739D01*
X35598601Y10941293D01*
X35640797Y10961587D01*
X35665770Y10970796D01*
X35666491Y10970846D01*
X35669929Y10952338D01*
G36*
X36161333Y10955472D02*
G01*
X36217590Y10929883D01*
X36261747Y10898876D01*
X36294101Y10864205D01*
X36316438Y10819480D01*
X36330546Y10758308D01*
X36338211Y10674299D01*
X36341220Y10561060D01*
X36341538Y10486491D01*
X36341538Y10195580D01*
X36291773Y10172905D01*
X36252576Y10156333D01*
X36233157Y10150231D01*
X36229442Y10168390D01*
X36226495Y10217352D01*
X36224691Y10288847D01*
X36224308Y10345615D01*
X36222661Y10427629D01*
X36218222Y10492691D01*
X36211740Y10532533D01*
X36206590Y10541000D01*
X36171977Y10532354D01*
X36117640Y10510177D01*
X36054722Y10480114D01*
X35994368Y10447808D01*
X35947721Y10418902D01*
X35925926Y10399039D01*
X35925839Y10398825D01*
X35927714Y10362065D01*
X35944525Y10326974D01*
X35974039Y10298472D01*
X36017116Y10288939D01*
X36053932Y10290050D01*
X36106074Y10290867D01*
X36133444Y10278651D01*
X36149882Y10246376D01*
X36151955Y10240290D01*
X36159081Y10194261D01*
X36140024Y10166313D01*
X36090353Y10152993D01*
X36036697Y10150530D01*
X35940142Y10168790D01*
X35890159Y10194869D01*
X35828429Y10256132D01*
X35795690Y10331330D01*
X35792753Y10410789D01*
X35820424Y10484833D01*
X35862047Y10531231D01*
X35903604Y10557207D01*
X35968922Y10590093D01*
X36045038Y10623443D01*
X36057726Y10628539D01*
X36141333Y10665435D01*
X36189530Y10697954D01*
X36205030Y10730282D01*
X36190550Y10766606D01*
X36165692Y10795000D01*
X36106939Y10829961D01*
X36042293Y10832583D01*
X35983008Y10805642D01*
X35940339Y10751912D01*
X35934739Y10738050D01*
X35902133Y10687064D01*
X35854530Y10649213D01*
X35794461Y10618150D01*
X35794461Y10706232D01*
X35797997Y10760049D01*
X35813156Y10802466D01*
X35846768Y10847721D01*
X35879035Y10882580D01*
X35929209Y10931938D01*
X35968193Y10958453D01*
X36010064Y10969089D01*
X36057460Y10970846D01*
X36161333Y10955472D01*
G37*
X36161333Y10955472D02*
X36217590Y10929883D01*
X36261747Y10898876D01*
X36294101Y10864205D01*
X36316438Y10819480D01*
X36330546Y10758308D01*
X36338211Y10674299D01*
X36341220Y10561060D01*
X36341538Y10486491D01*
X36341538Y10195580D01*
X36291773Y10172905D01*
X36252576Y10156333D01*
X36233157Y10150231D01*
X36229442Y10168390D01*
X36226495Y10217352D01*
X36224691Y10288847D01*
X36224308Y10345615D01*
X36222661Y10427629D01*
X36218222Y10492691D01*
X36211740Y10532533D01*
X36206590Y10541000D01*
X36171977Y10532354D01*
X36117640Y10510177D01*
X36054722Y10480114D01*
X35994368Y10447808D01*
X35947721Y10418902D01*
X35925926Y10399039D01*
X35925839Y10398825D01*
X35927714Y10362065D01*
X35944525Y10326974D01*
X35974039Y10298472D01*
X36017116Y10288939D01*
X36053932Y10290050D01*
X36106074Y10290867D01*
X36133444Y10278651D01*
X36149882Y10246376D01*
X36151955Y10240290D01*
X36159081Y10194261D01*
X36140024Y10166313D01*
X36090353Y10152993D01*
X36036697Y10150530D01*
X35940142Y10168790D01*
X35890159Y10194869D01*
X35828429Y10256132D01*
X35795690Y10331330D01*
X35792753Y10410789D01*
X35820424Y10484833D01*
X35862047Y10531231D01*
X35903604Y10557207D01*
X35968922Y10590093D01*
X36045038Y10623443D01*
X36057726Y10628539D01*
X36141333Y10665435D01*
X36189530Y10697954D01*
X36205030Y10730282D01*
X36190550Y10766606D01*
X36165692Y10795000D01*
X36106939Y10829961D01*
X36042293Y10832583D01*
X35983008Y10805642D01*
X35940339Y10751912D01*
X35934739Y10738050D01*
X35902133Y10687064D01*
X35854530Y10649213D01*
X35794461Y10618150D01*
X35794461Y10706232D01*
X35797997Y10760049D01*
X35813156Y10802466D01*
X35846768Y10847721D01*
X35879035Y10882580D01*
X35929209Y10931938D01*
X35968193Y10958453D01*
X36010064Y10969089D01*
X36057460Y10970846D01*
X36161333Y10955472D01*
G36*
X36844807Y10952218D02*
G01*
X36868161Y10942012D01*
X36923902Y10897866D01*
X36971569Y10834033D01*
X37001048Y10765913D01*
X37005846Y10732330D01*
X36989760Y10685444D01*
X36954475Y10660635D01*
X36916644Y10645613D01*
X36899321Y10642845D01*
X36890886Y10662934D01*
X36874230Y10706649D01*
X36866923Y10726402D01*
X36825948Y10794729D01*
X36766622Y10828809D01*
X36690552Y10827761D01*
X36684918Y10826419D01*
X36644305Y10807164D01*
X36614448Y10769625D01*
X36594055Y10709191D01*
X36581836Y10621249D01*
X36576500Y10501187D01*
X36576000Y10437302D01*
X36575752Y10336597D01*
X36574126Y10267946D01*
X36569801Y10224327D01*
X36561454Y10198718D01*
X36547765Y10184097D01*
X36527411Y10173442D01*
X36526234Y10172905D01*
X36487038Y10156333D01*
X36467619Y10150231D01*
X36464635Y10168681D01*
X36462081Y10219677D01*
X36460140Y10296692D01*
X36458997Y10393195D01*
X36458769Y10463816D01*
X36459932Y10600475D01*
X36464479Y10704149D01*
X36473999Y10780892D01*
X36490081Y10836754D01*
X36514313Y10877788D01*
X36548286Y10910046D01*
X36581833Y10932560D01*
X36662499Y10962524D01*
X36756381Y10969282D01*
X36844807Y10952218D01*
G37*
X36844807Y10952218D02*
X36868161Y10942012D01*
X36923902Y10897866D01*
X36971569Y10834033D01*
X37001048Y10765913D01*
X37005846Y10732330D01*
X36989760Y10685444D01*
X36954475Y10660635D01*
X36916644Y10645613D01*
X36899321Y10642845D01*
X36890886Y10662934D01*
X36874230Y10706649D01*
X36866923Y10726402D01*
X36825948Y10794729D01*
X36766622Y10828809D01*
X36690552Y10827761D01*
X36684918Y10826419D01*
X36644305Y10807164D01*
X36614448Y10769625D01*
X36594055Y10709191D01*
X36581836Y10621249D01*
X36576500Y10501187D01*
X36576000Y10437302D01*
X36575752Y10336597D01*
X36574126Y10267946D01*
X36569801Y10224327D01*
X36561454Y10198718D01*
X36547765Y10184097D01*
X36527411Y10173442D01*
X36526234Y10172905D01*
X36487038Y10156333D01*
X36467619Y10150231D01*
X36464635Y10168681D01*
X36462081Y10219677D01*
X36460140Y10296692D01*
X36458997Y10393195D01*
X36458769Y10463816D01*
X36459932Y10600475D01*
X36464479Y10704149D01*
X36473999Y10780892D01*
X36490081Y10836754D01*
X36514313Y10877788D01*
X36548286Y10910046D01*
X36581833Y10932560D01*
X36662499Y10962524D01*
X36756381Y10969282D01*
X36844807Y10952218D01*
G36*
X37519224Y10941162D02*
G01*
X37596528Y10890639D01*
X37633814Y10845410D01*
X37663353Y10763337D01*
X37665699Y10698393D01*
X37660385Y10611555D01*
X37460115Y10523897D01*
X37362739Y10479113D01*
X37299113Y10443087D01*
X37266029Y10411883D01*
X37260280Y10381564D01*
X37278658Y10348195D01*
X37298923Y10326077D01*
X37357889Y10290607D01*
X37422024Y10288121D01*
X37480926Y10315765D01*
X37524197Y10370680D01*
X37531936Y10390072D01*
X37569006Y10450636D01*
X37611654Y10476448D01*
X37670154Y10498529D01*
X37670154Y10414816D01*
X37664982Y10357850D01*
X37644723Y10309811D01*
X37602262Y10254654D01*
X37595951Y10247486D01*
X37548720Y10198415D01*
X37508121Y10172080D01*
X37457328Y10159965D01*
X37415220Y10155997D01*
X37339902Y10155009D01*
X37286286Y10167534D01*
X37252838Y10186131D01*
X37200268Y10227025D01*
X37163879Y10271252D01*
X37140850Y10326874D01*
X37128359Y10401953D01*
X37123587Y10504551D01*
X37123206Y10556624D01*
X37124501Y10619052D01*
X37242471Y10619052D01*
X37243839Y10585562D01*
X37247249Y10580077D01*
X37269753Y10587528D01*
X37318182Y10607247D01*
X37382908Y10635282D01*
X37396443Y10641308D01*
X37478244Y10682904D01*
X37523312Y10719462D01*
X37533217Y10753704D01*
X37509526Y10788352D01*
X37489960Y10803661D01*
X37419360Y10834279D01*
X37353280Y10829220D01*
X37297959Y10791849D01*
X37259636Y10725527D01*
X37247349Y10672884D01*
X37242471Y10619052D01*
X37124501Y10619052D01*
X37125730Y10678280D01*
X37135032Y10768290D01*
X37153460Y10833833D01*
X37183360Y10882088D01*
X37227080Y10920233D01*
X37246141Y10932560D01*
X37332726Y10964664D01*
X37427522Y10966684D01*
X37519224Y10941162D01*
G37*
X37519224Y10941162D02*
X37596528Y10890639D01*
X37633814Y10845410D01*
X37663353Y10763337D01*
X37665699Y10698393D01*
X37660385Y10611555D01*
X37460115Y10523897D01*
X37362739Y10479113D01*
X37299113Y10443087D01*
X37266029Y10411883D01*
X37260280Y10381564D01*
X37278658Y10348195D01*
X37298923Y10326077D01*
X37357889Y10290607D01*
X37422024Y10288121D01*
X37480926Y10315765D01*
X37524197Y10370680D01*
X37531936Y10390072D01*
X37569006Y10450636D01*
X37611654Y10476448D01*
X37670154Y10498529D01*
X37670154Y10414816D01*
X37664982Y10357850D01*
X37644723Y10309811D01*
X37602262Y10254654D01*
X37595951Y10247486D01*
X37548720Y10198415D01*
X37508121Y10172080D01*
X37457328Y10159965D01*
X37415220Y10155997D01*
X37339902Y10155009D01*
X37286286Y10167534D01*
X37252838Y10186131D01*
X37200268Y10227025D01*
X37163879Y10271252D01*
X37140850Y10326874D01*
X37128359Y10401953D01*
X37123587Y10504551D01*
X37123206Y10556624D01*
X37124501Y10619052D01*
X37242471Y10619052D01*
X37243839Y10585562D01*
X37247249Y10580077D01*
X37269753Y10587528D01*
X37318182Y10607247D01*
X37382908Y10635282D01*
X37396443Y10641308D01*
X37478244Y10682904D01*
X37523312Y10719462D01*
X37533217Y10753704D01*
X37509526Y10788352D01*
X37489960Y10803661D01*
X37419360Y10834279D01*
X37353280Y10829220D01*
X37297959Y10791849D01*
X37259636Y10725527D01*
X37247349Y10672884D01*
X37242471Y10619052D01*
X37124501Y10619052D01*
X37125730Y10678280D01*
X37135032Y10768290D01*
X37153460Y10833833D01*
X37183360Y10882088D01*
X37227080Y10920233D01*
X37246141Y10932560D01*
X37332726Y10964664D01*
X37427522Y10966684D01*
X37519224Y10941162D01*
G36*
X33413878Y17301224D02*
G01*
X33519612Y17300645D01*
X33596132Y17299078D01*
X33648372Y17296028D01*
X33681263Y17291004D01*
X33699737Y17283511D01*
X33708727Y17273056D01*
X33713163Y17259147D01*
X33713594Y17257346D01*
X33720333Y17224855D01*
X33732808Y17160748D01*
X33749719Y17071849D01*
X33769771Y16964981D01*
X33791664Y16846967D01*
X33792429Y16842822D01*
X33814359Y16727169D01*
X33834877Y16624986D01*
X33852659Y16542402D01*
X33866381Y16485544D01*
X33874718Y16460542D01*
X33875116Y16460099D01*
X33899677Y16447890D01*
X33950315Y16427544D01*
X34016095Y16403455D01*
X34016461Y16403326D01*
X34099317Y16372182D01*
X34197000Y16332509D01*
X34289077Y16292619D01*
X34293434Y16290647D01*
X34443407Y16222580D01*
X34775498Y16449361D01*
X34877374Y16518496D01*
X34969657Y16580303D01*
X35047003Y16631267D01*
X35104064Y16667873D01*
X35135495Y16686606D01*
X35138479Y16687996D01*
X35161321Y16681810D01*
X35203982Y16651965D01*
X35268128Y16597053D01*
X35355421Y16515666D01*
X35444535Y16429078D01*
X35530441Y16343753D01*
X35607327Y16265892D01*
X35670564Y16200303D01*
X35715523Y16151795D01*
X35737576Y16125175D01*
X35738396Y16123805D01*
X35740834Y16105537D01*
X35731650Y16075705D01*
X35708574Y16030279D01*
X35669337Y15965230D01*
X35611670Y15876530D01*
X35534795Y15762343D01*
X35466570Y15661838D01*
X35405582Y15571697D01*
X35355356Y15497151D01*
X35319416Y15443435D01*
X35301287Y15415782D01*
X35300146Y15413905D01*
X35302359Y15387410D01*
X35319138Y15335914D01*
X35347142Y15269149D01*
X35357122Y15247828D01*
X35400672Y15152841D01*
X35447134Y15045063D01*
X35484877Y14951808D01*
X35512073Y14882594D01*
X35533675Y14829994D01*
X35546158Y14802503D01*
X35547709Y14800384D01*
X35570668Y14796876D01*
X35624786Y14787262D01*
X35702868Y14772911D01*
X35797719Y14755193D01*
X35902143Y14735475D01*
X36008944Y14715126D01*
X36110926Y14695514D01*
X36200894Y14678009D01*
X36271653Y14663978D01*
X36316006Y14654791D01*
X36326885Y14652193D01*
X36338122Y14645782D01*
X36346605Y14631303D01*
X36352714Y14603867D01*
X36356832Y14558589D01*
X36359341Y14490580D01*
X36360621Y14394953D01*
X36361054Y14266820D01*
X36361077Y14214299D01*
X36361077Y13787155D01*
X36258500Y13766909D01*
X36201431Y13755930D01*
X36116269Y13739905D01*
X36013372Y13720767D01*
X35903096Y13700449D01*
X35872615Y13694868D01*
X35770855Y13675083D01*
X35682205Y13655627D01*
X35614108Y13638303D01*
X35574004Y13624912D01*
X35567323Y13620921D01*
X35550919Y13592658D01*
X35527399Y13537891D01*
X35501316Y13467412D01*
X35496142Y13452231D01*
X35461956Y13358104D01*
X35419523Y13251899D01*
X35377997Y13156527D01*
X35377792Y13156084D01*
X35308640Y13006475D01*
X35763512Y12337383D01*
X35471500Y12044884D01*
X35383180Y11957830D01*
X35302625Y11881091D01*
X35234360Y11818763D01*
X35182908Y11774944D01*
X35152794Y11753730D01*
X35148474Y11752384D01*
X35123111Y11762984D01*
X35071358Y11792453D01*
X34998868Y11837295D01*
X34911294Y11894016D01*
X34816612Y11957538D01*
X34720516Y12022332D01*
X34634837Y12078713D01*
X34565016Y12123212D01*
X34516494Y12152361D01*
X34494782Y12162692D01*
X34468293Y12153950D01*
X34418062Y12130913D01*
X34354451Y12098369D01*
X34347708Y12094751D01*
X34262046Y12051790D01*
X34203306Y12030721D01*
X34166772Y12030497D01*
X34147731Y12050072D01*
X34147620Y12050346D01*
X34138102Y12073528D01*
X34115403Y12128559D01*
X34081282Y12211178D01*
X34037500Y12317128D01*
X33985816Y12442148D01*
X33927992Y12581980D01*
X33871991Y12717363D01*
X33810447Y12866766D01*
X33753939Y13005168D01*
X33704161Y13128327D01*
X33662806Y13231998D01*
X33631568Y13311941D01*
X33612141Y13363912D01*
X33606154Y13383308D01*
X33621168Y13405557D01*
X33660439Y13441018D01*
X33712807Y13480113D01*
X33861941Y13603755D01*
X33978511Y13745478D01*
X34061118Y13902296D01*
X34108366Y14071225D01*
X34118857Y14249278D01*
X34111231Y14331461D01*
X34069682Y14501969D01*
X33998123Y14652541D01*
X33900995Y14781691D01*
X33782734Y14887936D01*
X33647780Y14969790D01*
X33500571Y15025768D01*
X33345544Y15054385D01*
X33187139Y15054156D01*
X33029794Y15023595D01*
X32877946Y14961218D01*
X32736035Y14865540D01*
X32676803Y14811428D01*
X32563203Y14672480D01*
X32484106Y14520639D01*
X32438986Y14360333D01*
X32427316Y14195988D01*
X32448569Y14032029D01*
X32502220Y13872882D01*
X32587740Y13722975D01*
X32704605Y13586733D01*
X32835193Y13480113D01*
X32889588Y13439358D01*
X32928014Y13404282D01*
X32941846Y13383274D01*
X32934603Y13360365D01*
X32914005Y13305635D01*
X32881746Y13223328D01*
X32839521Y13117685D01*
X32789023Y12992950D01*
X32731948Y12853364D01*
X32675854Y12717330D01*
X32613967Y12567799D01*
X32556644Y12429233D01*
X32505644Y12305893D01*
X32462727Y12202036D01*
X32429653Y12121920D01*
X32408181Y12069805D01*
X32400225Y12050346D01*
X32381429Y12030577D01*
X32345074Y12030635D01*
X32286479Y12051559D01*
X32200968Y12094387D01*
X32200292Y12094751D01*
X32135907Y12127988D01*
X32083861Y12152198D01*
X32054512Y12162596D01*
X32053217Y12162692D01*
X32031124Y12152145D01*
X31982348Y12122816D01*
X31912331Y12078173D01*
X31826514Y12021686D01*
X31731388Y11957538D01*
X31634540Y11892589D01*
X31547253Y11836104D01*
X31475181Y11791579D01*
X31423977Y11762510D01*
X31399526Y11752384D01*
X31377010Y11765693D01*
X31331742Y11802888D01*
X31268244Y11859872D01*
X31191039Y11932551D01*
X31104651Y12016829D01*
X31076399Y12044984D01*
X30784287Y12337584D01*
X31006631Y12663896D01*
X31074202Y12764103D01*
X31133507Y12854037D01*
X31181217Y12928490D01*
X31214007Y12982249D01*
X31228548Y13010106D01*
X31228974Y13012088D01*
X31221308Y13038345D01*
X31200689Y13091163D01*
X31170685Y13161690D01*
X31149625Y13208907D01*
X31110248Y13299306D01*
X31073165Y13390634D01*
X31044415Y13467800D01*
X31036605Y13491308D01*
X31014417Y13554084D01*
X30992727Y13602589D01*
X30980813Y13620921D01*
X30954523Y13632141D01*
X30897142Y13648046D01*
X30816118Y13666833D01*
X30718895Y13686701D01*
X30675385Y13694868D01*
X30564896Y13715171D01*
X30458916Y13734830D01*
X30367801Y13751912D01*
X30301908Y13764482D01*
X30289500Y13766909D01*
X30186923Y13787155D01*
X30186923Y14214299D01*
X30187153Y14354754D01*
X30188099Y14461021D01*
X30190141Y14537987D01*
X30193662Y14590540D01*
X30199043Y14623567D01*
X30206666Y14641955D01*
X30216912Y14650592D01*
X30221115Y14652193D01*
X30246470Y14657873D01*
X30302484Y14669205D01*
X30381964Y14684821D01*
X30477712Y14703353D01*
X30582533Y14723431D01*
X30689232Y14743688D01*
X30790613Y14762754D01*
X30879479Y14779261D01*
X30948637Y14791841D01*
X30990889Y14799125D01*
X31000290Y14800384D01*
X31008807Y14817237D01*
X31027660Y14862130D01*
X31053324Y14926570D01*
X31063123Y14951808D01*
X31102648Y15049314D01*
X31149192Y15157041D01*
X31190877Y15247828D01*
X31221550Y15317247D01*
X31241956Y15374290D01*
X31248768Y15409223D01*
X31247682Y15413905D01*
X31233285Y15436009D01*
X31200412Y15485169D01*
X31152590Y15556152D01*
X31093348Y15643722D01*
X31026215Y15742643D01*
X31012941Y15762170D01*
X30935046Y15877860D01*
X30877787Y15965956D01*
X30838881Y16030514D01*
X30816044Y16075589D01*
X30806994Y16105237D01*
X30809448Y16123515D01*
X30809511Y16123631D01*
X30828827Y16147639D01*
X30871551Y16194053D01*
X30933051Y16258063D01*
X31008698Y16334855D01*
X31093861Y16419618D01*
X31103465Y16429078D01*
X31210790Y16533011D01*
X31293615Y16609325D01*
X31353605Y16659429D01*
X31392423Y16684730D01*
X31409520Y16687996D01*
X31434473Y16673750D01*
X31486255Y16640844D01*
X31559520Y16592792D01*
X31648920Y16533110D01*
X31749111Y16465312D01*
X31772501Y16449361D01*
X32104593Y16222580D01*
X32254565Y16290647D01*
X32345770Y16330315D01*
X32443669Y16370209D01*
X32527831Y16402017D01*
X32531538Y16403326D01*
X32597369Y16427424D01*
X32648116Y16447800D01*
X32672842Y16460064D01*
X32672884Y16460099D01*
X32680729Y16482266D01*
X32694066Y16536783D01*
X32711570Y16617520D01*
X32731917Y16718350D01*
X32753782Y16833144D01*
X32755571Y16842822D01*
X32777504Y16961096D01*
X32797640Y17068458D01*
X32814680Y17158083D01*
X32827328Y17223149D01*
X32834284Y17256832D01*
X32834406Y17257346D01*
X32838639Y17271675D01*
X32846871Y17282493D01*
X32864033Y17290294D01*
X32895058Y17295571D01*
X32944878Y17298818D01*
X33018424Y17300528D01*
X33120629Y17301193D01*
X33256425Y17301307D01*
X33274000Y17301308D01*
X33413878Y17301224D01*
G37*
X33413878Y17301224D02*
X33519612Y17300645D01*
X33596132Y17299078D01*
X33648372Y17296028D01*
X33681263Y17291004D01*
X33699737Y17283511D01*
X33708727Y17273056D01*
X33713163Y17259147D01*
X33713594Y17257346D01*
X33720333Y17224855D01*
X33732808Y17160748D01*
X33749719Y17071849D01*
X33769771Y16964981D01*
X33791664Y16846967D01*
X33792429Y16842822D01*
X33814359Y16727169D01*
X33834877Y16624986D01*
X33852659Y16542402D01*
X33866381Y16485544D01*
X33874718Y16460542D01*
X33875116Y16460099D01*
X33899677Y16447890D01*
X33950315Y16427544D01*
X34016095Y16403455D01*
X34016461Y16403326D01*
X34099317Y16372182D01*
X34197000Y16332509D01*
X34289077Y16292619D01*
X34293434Y16290647D01*
X34443407Y16222580D01*
X34775498Y16449361D01*
X34877374Y16518496D01*
X34969657Y16580303D01*
X35047003Y16631267D01*
X35104064Y16667873D01*
X35135495Y16686606D01*
X35138479Y16687996D01*
X35161321Y16681810D01*
X35203982Y16651965D01*
X35268128Y16597053D01*
X35355421Y16515666D01*
X35444535Y16429078D01*
X35530441Y16343753D01*
X35607327Y16265892D01*
X35670564Y16200303D01*
X35715523Y16151795D01*
X35737576Y16125175D01*
X35738396Y16123805D01*
X35740834Y16105537D01*
X35731650Y16075705D01*
X35708574Y16030279D01*
X35669337Y15965230D01*
X35611670Y15876530D01*
X35534795Y15762343D01*
X35466570Y15661838D01*
X35405582Y15571697D01*
X35355356Y15497151D01*
X35319416Y15443435D01*
X35301287Y15415782D01*
X35300146Y15413905D01*
X35302359Y15387410D01*
X35319138Y15335914D01*
X35347142Y15269149D01*
X35357122Y15247828D01*
X35400672Y15152841D01*
X35447134Y15045063D01*
X35484877Y14951808D01*
X35512073Y14882594D01*
X35533675Y14829994D01*
X35546158Y14802503D01*
X35547709Y14800384D01*
X35570668Y14796876D01*
X35624786Y14787262D01*
X35702868Y14772911D01*
X35797719Y14755193D01*
X35902143Y14735475D01*
X36008944Y14715126D01*
X36110926Y14695514D01*
X36200894Y14678009D01*
X36271653Y14663978D01*
X36316006Y14654791D01*
X36326885Y14652193D01*
X36338122Y14645782D01*
X36346605Y14631303D01*
X36352714Y14603867D01*
X36356832Y14558589D01*
X36359341Y14490580D01*
X36360621Y14394953D01*
X36361054Y14266820D01*
X36361077Y14214299D01*
X36361077Y13787155D01*
X36258500Y13766909D01*
X36201431Y13755930D01*
X36116269Y13739905D01*
X36013372Y13720767D01*
X35903096Y13700449D01*
X35872615Y13694868D01*
X35770855Y13675083D01*
X35682205Y13655627D01*
X35614108Y13638303D01*
X35574004Y13624912D01*
X35567323Y13620921D01*
X35550919Y13592658D01*
X35527399Y13537891D01*
X35501316Y13467412D01*
X35496142Y13452231D01*
X35461956Y13358104D01*
X35419523Y13251899D01*
X35377997Y13156527D01*
X35377792Y13156084D01*
X35308640Y13006475D01*
X35763512Y12337383D01*
X35471500Y12044884D01*
X35383180Y11957830D01*
X35302625Y11881091D01*
X35234360Y11818763D01*
X35182908Y11774944D01*
X35152794Y11753730D01*
X35148474Y11752384D01*
X35123111Y11762984D01*
X35071358Y11792453D01*
X34998868Y11837295D01*
X34911294Y11894016D01*
X34816612Y11957538D01*
X34720516Y12022332D01*
X34634837Y12078713D01*
X34565016Y12123212D01*
X34516494Y12152361D01*
X34494782Y12162692D01*
X34468293Y12153950D01*
X34418062Y12130913D01*
X34354451Y12098369D01*
X34347708Y12094751D01*
X34262046Y12051790D01*
X34203306Y12030721D01*
X34166772Y12030497D01*
X34147731Y12050072D01*
X34147620Y12050346D01*
X34138102Y12073528D01*
X34115403Y12128559D01*
X34081282Y12211178D01*
X34037500Y12317128D01*
X33985816Y12442148D01*
X33927992Y12581980D01*
X33871991Y12717363D01*
X33810447Y12866766D01*
X33753939Y13005168D01*
X33704161Y13128327D01*
X33662806Y13231998D01*
X33631568Y13311941D01*
X33612141Y13363912D01*
X33606154Y13383308D01*
X33621168Y13405557D01*
X33660439Y13441018D01*
X33712807Y13480113D01*
X33861941Y13603755D01*
X33978511Y13745478D01*
X34061118Y13902296D01*
X34108366Y14071225D01*
X34118857Y14249278D01*
X34111231Y14331461D01*
X34069682Y14501969D01*
X33998123Y14652541D01*
X33900995Y14781691D01*
X33782734Y14887936D01*
X33647780Y14969790D01*
X33500571Y15025768D01*
X33345544Y15054385D01*
X33187139Y15054156D01*
X33029794Y15023595D01*
X32877946Y14961218D01*
X32736035Y14865540D01*
X32676803Y14811428D01*
X32563203Y14672480D01*
X32484106Y14520639D01*
X32438986Y14360333D01*
X32427316Y14195988D01*
X32448569Y14032029D01*
X32502220Y13872882D01*
X32587740Y13722975D01*
X32704605Y13586733D01*
X32835193Y13480113D01*
X32889588Y13439358D01*
X32928014Y13404282D01*
X32941846Y13383274D01*
X32934603Y13360365D01*
X32914005Y13305635D01*
X32881746Y13223328D01*
X32839521Y13117685D01*
X32789023Y12992950D01*
X32731948Y12853364D01*
X32675854Y12717330D01*
X32613967Y12567799D01*
X32556644Y12429233D01*
X32505644Y12305893D01*
X32462727Y12202036D01*
X32429653Y12121920D01*
X32408181Y12069805D01*
X32400225Y12050346D01*
X32381429Y12030577D01*
X32345074Y12030635D01*
X32286479Y12051559D01*
X32200968Y12094387D01*
X32200292Y12094751D01*
X32135907Y12127988D01*
X32083861Y12152198D01*
X32054512Y12162596D01*
X32053217Y12162692D01*
X32031124Y12152145D01*
X31982348Y12122816D01*
X31912331Y12078173D01*
X31826514Y12021686D01*
X31731388Y11957538D01*
X31634540Y11892589D01*
X31547253Y11836104D01*
X31475181Y11791579D01*
X31423977Y11762510D01*
X31399526Y11752384D01*
X31377010Y11765693D01*
X31331742Y11802888D01*
X31268244Y11859872D01*
X31191039Y11932551D01*
X31104651Y12016829D01*
X31076399Y12044984D01*
X30784287Y12337584D01*
X31006631Y12663896D01*
X31074202Y12764103D01*
X31133507Y12854037D01*
X31181217Y12928490D01*
X31214007Y12982249D01*
X31228548Y13010106D01*
X31228974Y13012088D01*
X31221308Y13038345D01*
X31200689Y13091163D01*
X31170685Y13161690D01*
X31149625Y13208907D01*
X31110248Y13299306D01*
X31073165Y13390634D01*
X31044415Y13467800D01*
X31036605Y13491308D01*
X31014417Y13554084D01*
X30992727Y13602589D01*
X30980813Y13620921D01*
X30954523Y13632141D01*
X30897142Y13648046D01*
X30816118Y13666833D01*
X30718895Y13686701D01*
X30675385Y13694868D01*
X30564896Y13715171D01*
X30458916Y13734830D01*
X30367801Y13751912D01*
X30301908Y13764482D01*
X30289500Y13766909D01*
X30186923Y13787155D01*
X30186923Y14214299D01*
X30187153Y14354754D01*
X30188099Y14461021D01*
X30190141Y14537987D01*
X30193662Y14590540D01*
X30199043Y14623567D01*
X30206666Y14641955D01*
X30216912Y14650592D01*
X30221115Y14652193D01*
X30246470Y14657873D01*
X30302484Y14669205D01*
X30381964Y14684821D01*
X30477712Y14703353D01*
X30582533Y14723431D01*
X30689232Y14743688D01*
X30790613Y14762754D01*
X30879479Y14779261D01*
X30948637Y14791841D01*
X30990889Y14799125D01*
X31000290Y14800384D01*
X31008807Y14817237D01*
X31027660Y14862130D01*
X31053324Y14926570D01*
X31063123Y14951808D01*
X31102648Y15049314D01*
X31149192Y15157041D01*
X31190877Y15247828D01*
X31221550Y15317247D01*
X31241956Y15374290D01*
X31248768Y15409223D01*
X31247682Y15413905D01*
X31233285Y15436009D01*
X31200412Y15485169D01*
X31152590Y15556152D01*
X31093348Y15643722D01*
X31026215Y15742643D01*
X31012941Y15762170D01*
X30935046Y15877860D01*
X30877787Y15965956D01*
X30838881Y16030514D01*
X30816044Y16075589D01*
X30806994Y16105237D01*
X30809448Y16123515D01*
X30809511Y16123631D01*
X30828827Y16147639D01*
X30871551Y16194053D01*
X30933051Y16258063D01*
X31008698Y16334855D01*
X31093861Y16419618D01*
X31103465Y16429078D01*
X31210790Y16533011D01*
X31293615Y16609325D01*
X31353605Y16659429D01*
X31392423Y16684730D01*
X31409520Y16687996D01*
X31434473Y16673750D01*
X31486255Y16640844D01*
X31559520Y16592792D01*
X31648920Y16533110D01*
X31749111Y16465312D01*
X31772501Y16449361D01*
X32104593Y16222580D01*
X32254565Y16290647D01*
X32345770Y16330315D01*
X32443669Y16370209D01*
X32527831Y16402017D01*
X32531538Y16403326D01*
X32597369Y16427424D01*
X32648116Y16447800D01*
X32672842Y16460064D01*
X32672884Y16460099D01*
X32680729Y16482266D01*
X32694066Y16536783D01*
X32711570Y16617520D01*
X32731917Y16718350D01*
X32753782Y16833144D01*
X32755571Y16842822D01*
X32777504Y16961096D01*
X32797640Y17068458D01*
X32814680Y17158083D01*
X32827328Y17223149D01*
X32834284Y17256832D01*
X32834406Y17257346D01*
X32838639Y17271675D01*
X32846871Y17282493D01*
X32864033Y17290294D01*
X32895058Y17295571D01*
X32944878Y17298818D01*
X33018424Y17300528D01*
X33120629Y17301193D01*
X33256425Y17301307D01*
X33274000Y17301308D01*
X33413878Y17301224D01*
D13*
X3139000Y15015500D02*
X3139000Y14859500D01*
X3139000Y12699500D02*
X3139000Y12543500D01*
X5740130Y12699663D02*
G75*
G02*
X3658039Y12699500I-1041130J1079837D01*
G01*
X5740130Y14859337D02*
G75*
G03*
X3658039Y14859500I-1041130J-1079837D01*
G01*
X6371335Y12700892D02*
G75*
G02*
X3139000Y12543984I-1672335J1078608D01*
G01*
X6371335Y14858108D02*
G75*
G03*
X3139000Y15015016I-1672335J-1078608D01*
G01*
D14*
X29845000Y26352500D02*
X29845000Y13652500D01*
X9525000Y26352500D02*
X29845000Y26352500D01*
X9525000Y13652500D02*
X9525000Y26352500D01*
X29845000Y13652500D02*
X9525000Y13652500D01*
X29188210Y14414500D02*
G75*
G03*
X29188210Y14414500I-179605J0D01*
G01*
X29061210Y14414500D02*
G75*
G03*
X29061210Y14414500I-52605J0D01*
G01*
D13*
X24532000Y11964564D02*
X24532000Y10510436D01*
X22712000Y11964564D02*
X22712000Y10510436D01*
X17632000Y11964564D02*
X17632000Y10510436D01*
X19452000Y11964564D02*
X19452000Y10510436D01*
X22890564Y6837000D02*
X21436436Y6837000D01*
X22890564Y8657000D02*
X21436436Y8657000D01*
X17810564Y6837000D02*
X16356436Y6837000D01*
X17810564Y8657000D02*
X16356436Y8657000D01*
X20172000Y10510436D02*
X20172000Y11964564D01*
X21992000Y10510436D02*
X21992000Y11964564D01*
X15092000Y10514436D02*
X15092000Y11968564D01*
X16912000Y10514436D02*
X16912000Y11968564D01*
D14*
X24074380Y11070834D02*
X23598190Y10737500D01*
X24074380Y10499405D02*
X23074380Y10499405D01*
X23074380Y10880358D01*
X23122000Y10975596D01*
X23169619Y11023215D01*
X23264857Y11070834D01*
X23407714Y11070834D01*
X23502952Y11023215D01*
X23550571Y10975596D01*
X23598190Y10880358D01*
X23598190Y10499405D01*
X23502952Y11642262D02*
X23455333Y11547024D01*
X23407714Y11499405D01*
X23312476Y11451786D01*
X23264857Y11451786D01*
X23169619Y11499405D01*
X23122000Y11547024D01*
X23074380Y11642262D01*
X23074380Y11832739D01*
X23122000Y11927977D01*
X23169619Y11975596D01*
X23264857Y12023215D01*
X23312476Y12023215D01*
X23407714Y11975596D01*
X23455333Y11927977D01*
X23502952Y11832739D01*
X23502952Y11642262D01*
X23550571Y11547024D01*
X23598190Y11499405D01*
X23693428Y11451786D01*
X23883904Y11451786D01*
X23979142Y11499405D01*
X24026761Y11547024D01*
X24074380Y11642262D01*
X24074380Y11832739D01*
X24026761Y11927977D01*
X23979142Y11975596D01*
X23883904Y12023215D01*
X23693428Y12023215D01*
X23598190Y11975596D01*
X23550571Y11927977D01*
X23502952Y11832739D01*
X21661380Y11136334D02*
X21185190Y10803000D01*
X21661380Y10564905D02*
X20661380Y10564905D01*
X20661380Y10945858D01*
X20709000Y11041096D01*
X20756619Y11088715D01*
X20851857Y11136334D01*
X20994714Y11136334D01*
X21089952Y11088715D01*
X21137571Y11041096D01*
X21185190Y10945858D01*
X21185190Y10564905D01*
X20661380Y11469667D02*
X20661380Y12136334D01*
X21661380Y11707762D01*
X21931333Y7294620D02*
X21598000Y7770810D01*
X21359904Y7294620D02*
X21359904Y8294620D01*
X21740857Y8294620D01*
X21836095Y8247000D01*
X21883714Y8199381D01*
X21931333Y8104143D01*
X21931333Y7961286D01*
X21883714Y7866048D01*
X21836095Y7818429D01*
X21740857Y7770810D01*
X21359904Y7770810D01*
X22788476Y7961286D02*
X22788476Y7294620D01*
X22550380Y8342239D02*
X22312285Y7627953D01*
X22931333Y7627953D01*
X16916833Y7167620D02*
X16583500Y7643810D01*
X16345404Y7167620D02*
X16345404Y8167620D01*
X16726357Y8167620D01*
X16821595Y8120000D01*
X16869214Y8072381D01*
X16916833Y7977143D01*
X16916833Y7834286D01*
X16869214Y7739048D01*
X16821595Y7691429D01*
X16726357Y7643810D01*
X16345404Y7643810D01*
X17250166Y8167620D02*
X17869214Y8167620D01*
X17535880Y7786667D01*
X17678738Y7786667D01*
X17773976Y7739048D01*
X17821595Y7691429D01*
X17869214Y7596191D01*
X17869214Y7358096D01*
X17821595Y7262858D01*
X17773976Y7215239D01*
X17678738Y7167620D01*
X17393023Y7167620D01*
X17297785Y7215239D01*
X17250166Y7262858D01*
X18994380Y11070834D02*
X18518190Y10737500D01*
X18994380Y10499405D02*
X17994380Y10499405D01*
X17994380Y10880358D01*
X18042000Y10975596D01*
X18089619Y11023215D01*
X18184857Y11070834D01*
X18327714Y11070834D01*
X18422952Y11023215D01*
X18470571Y10975596D01*
X18518190Y10880358D01*
X18518190Y10499405D01*
X18089619Y11451786D02*
X18042000Y11499405D01*
X17994380Y11594643D01*
X17994380Y11832739D01*
X18042000Y11927977D01*
X18089619Y11975596D01*
X18184857Y12023215D01*
X18280095Y12023215D01*
X18422952Y11975596D01*
X18994380Y11404167D01*
X18994380Y12023215D01*
X16454380Y11074834D02*
X15978190Y10741500D01*
X16454380Y10503405D02*
X15454380Y10503405D01*
X15454380Y10884358D01*
X15502000Y10979596D01*
X15549619Y11027215D01*
X15644857Y11074834D01*
X15787714Y11074834D01*
X15882952Y11027215D01*
X15930571Y10979596D01*
X15978190Y10884358D01*
X15978190Y10503405D01*
X16454380Y12027215D02*
X16454380Y11455786D01*
X16454380Y11741500D02*
X15454380Y11741500D01*
X15597238Y11646262D01*
X15692476Y11551024D01*
X15740095Y11455786D01*
%LPC*%
D15*
X5969000Y13779500D03*
D16*
X3429000Y13779500D03*
D17*
X11684000Y23812500D03*
X27686000Y23812500D03*
X11684000Y21272500D03*
X27686000Y21272500D03*
X11684000Y18732500D03*
X27686000Y18732500D03*
X11684000Y16192500D03*
X27686000Y16192500D03*
D18*
X26035000Y4064000D03*
X23495000Y4064000D03*
X20955000Y4064000D03*
X18415000Y4064000D03*
X15875000Y4064000D03*
X13335000Y4064000D03*
G36*
G01*
X22996997Y10337500D02*
X24247003Y10337500D01*
G75*
G02*
X24497000Y10087503I0J-249997D01*
G01*
X24497000Y9462497D01*
G75*
G02*
X24247003Y9212500I-249997J0D01*
G01*
X22996997Y9212500D01*
G75*
G02*
X22747000Y9462497I0J249997D01*
G01*
X22747000Y10087503D01*
G75*
G02*
X22996997Y10337500I249997J0D01*
G01*
G37*
G36*
G01*
X22996997Y13262500D02*
X24247003Y13262500D01*
G75*
G02*
X24497000Y13012503I0J-249997D01*
G01*
X24497000Y12387497D01*
G75*
G02*
X24247003Y12137500I-249997J0D01*
G01*
X22996997Y12137500D01*
G75*
G02*
X22747000Y12387497I0J249997D01*
G01*
X22747000Y13012503D01*
G75*
G02*
X22996997Y13262500I249997J0D01*
G01*
G37*
G36*
G01*
X17916997Y13262500D02*
X19167003Y13262500D01*
G75*
G02*
X19417000Y13012503I0J-249997D01*
G01*
X19417000Y12387497D01*
G75*
G02*
X19167003Y12137500I-249997J0D01*
G01*
X17916997Y12137500D01*
G75*
G02*
X17667000Y12387497I0J249997D01*
G01*
X17667000Y13012503D01*
G75*
G02*
X17916997Y13262500I249997J0D01*
G01*
G37*
G36*
G01*
X17916997Y10337500D02*
X19167003Y10337500D01*
G75*
G02*
X19417000Y10087503I0J-249997D01*
G01*
X19417000Y9462497D01*
G75*
G02*
X19167003Y9212500I-249997J0D01*
G01*
X17916997Y9212500D01*
G75*
G02*
X17667000Y9462497I0J249997D01*
G01*
X17667000Y10087503D01*
G75*
G02*
X17916997Y10337500I249997J0D01*
G01*
G37*
G36*
G01*
X21263500Y8372003D02*
X21263500Y7121997D01*
G75*
G02*
X21013503Y6872000I-249997J0D01*
G01*
X20388497Y6872000D01*
G75*
G02*
X20138500Y7121997I0J249997D01*
G01*
X20138500Y8372003D01*
G75*
G02*
X20388497Y8622000I249997J0D01*
G01*
X21013503Y8622000D01*
G75*
G02*
X21263500Y8372003I0J-249997D01*
G01*
G37*
G36*
G01*
X24188500Y8372003D02*
X24188500Y7121997D01*
G75*
G02*
X23938503Y6872000I-249997J0D01*
G01*
X23313497Y6872000D01*
G75*
G02*
X23063500Y7121997I0J249997D01*
G01*
X23063500Y8372003D01*
G75*
G02*
X23313497Y8622000I249997J0D01*
G01*
X23938503Y8622000D01*
G75*
G02*
X24188500Y8372003I0J-249997D01*
G01*
G37*
G36*
G01*
X16183500Y8372003D02*
X16183500Y7121997D01*
G75*
G02*
X15933503Y6872000I-249997J0D01*
G01*
X15308497Y6872000D01*
G75*
G02*
X15058500Y7121997I0J249997D01*
G01*
X15058500Y8372003D01*
G75*
G02*
X15308497Y8622000I249997J0D01*
G01*
X15933503Y8622000D01*
G75*
G02*
X16183500Y8372003I0J-249997D01*
G01*
G37*
G36*
G01*
X19108500Y8372003D02*
X19108500Y7121997D01*
G75*
G02*
X18858503Y6872000I-249997J0D01*
G01*
X18233497Y6872000D01*
G75*
G02*
X17983500Y7121997I0J249997D01*
G01*
X17983500Y8372003D01*
G75*
G02*
X18233497Y8622000I249997J0D01*
G01*
X18858503Y8622000D01*
G75*
G02*
X19108500Y8372003I0J-249997D01*
G01*
G37*
G36*
G01*
X21707003Y12137500D02*
X20456997Y12137500D01*
G75*
G02*
X20207000Y12387497I0J249997D01*
G01*
X20207000Y13012503D01*
G75*
G02*
X20456997Y13262500I249997J0D01*
G01*
X21707003Y13262500D01*
G75*
G02*
X21957000Y13012503I0J-249997D01*
G01*
X21957000Y12387497D01*
G75*
G02*
X21707003Y12137500I-249997J0D01*
G01*
G37*
G36*
G01*
X21707003Y9212500D02*
X20456997Y9212500D01*
G75*
G02*
X20207000Y9462497I0J249997D01*
G01*
X20207000Y10087503D01*
G75*
G02*
X20456997Y10337500I249997J0D01*
G01*
X21707003Y10337500D01*
G75*
G02*
X21957000Y10087503I0J-249997D01*
G01*
X21957000Y9462497D01*
G75*
G02*
X21707003Y9212500I-249997J0D01*
G01*
G37*
G36*
G01*
X16627003Y12141500D02*
X15376997Y12141500D01*
G75*
G02*
X15127000Y12391497I0J249997D01*
G01*
X15127000Y13016503D01*
G75*
G02*
X15376997Y13266500I249997J0D01*
G01*
X16627003Y13266500D01*
G75*
G02*
X16877000Y13016503I0J-249997D01*
G01*
X16877000Y12391497D01*
G75*
G02*
X16627003Y12141500I-249997J0D01*
G01*
G37*
G36*
G01*
X16627003Y9216500D02*
X15376997Y9216500D01*
G75*
G02*
X15127000Y9466497I0J249997D01*
G01*
X15127000Y10091503D01*
G75*
G02*
X15376997Y10341500I249997J0D01*
G01*
X16627003Y10341500D01*
G75*
G02*
X16877000Y10091503I0J-249997D01*
G01*
X16877000Y9466497D01*
G75*
G02*
X16627003Y9216500I-249997J0D01*
G01*
G37*
D19*
X4826000Y5207000D03*
D20*
X7226000Y5207000D03*
X6523056Y3509944D03*
X4826000Y2807000D03*
X3128944Y3509944D03*
X2426000Y5207000D03*
X3128944Y6904056D03*
X4826000Y7607000D03*
X6523056Y6904056D03*
D19*
X34544000Y22225000D03*
D20*
X36944000Y22225000D03*
X36241056Y20527944D03*
X34544000Y19825000D03*
X32846944Y20527944D03*
X32144000Y22225000D03*
X32846944Y23922056D03*
X34544000Y24625000D03*
X36241056Y23922056D03*
D19*
X34544000Y5207000D03*
D20*
X36944000Y5207000D03*
X36241056Y3509944D03*
X34544000Y2807000D03*
X32846944Y3509944D03*
X32144000Y5207000D03*
X32846944Y6904056D03*
X34544000Y7607000D03*
X36241056Y6904056D03*
D19*
X4826000Y22225000D03*
D20*
X7226000Y22225000D03*
X6523056Y20527944D03*
X4826000Y19825000D03*
X3128944Y20527944D03*
X2426000Y22225000D03*
X3128944Y23922056D03*
X4826000Y24625000D03*
X6523056Y23922056D03*
D21*
X10668000Y7493000D03*
X11684000Y7493000D03*
X17653000Y21272500D03*
X23495000Y5969000D03*
X20955000Y6096000D03*
X18415000Y6032500D03*
X15875000Y6096000D03*
M02*
