G04 #@! TF.GenerationSoftware,KiCad,Pcbnew,5.99.0+really5.1.10+dfsg1-1*
G04 #@! TF.CreationDate,2021-09-10T22:04:24+03:00*
G04 #@! TF.ProjectId,DP_Module,44505f4d-6f64-4756-9c65-2e6b69636164,0*
G04 #@! TF.SameCoordinates,PX71d9820PY5feca40*
G04 #@! TF.FileFunction,Paste,Bot*
G04 #@! TF.FilePolarity,Positive*
%FSLAX46Y46*%
G04 Gerber Fmt 4.6, Leading zero omitted, Abs format (unit mm)*
G04 Created by KiCad (PCBNEW 5.99.0+really5.1.10+dfsg1-1) date 2021-09-10 22:04:24*
%MOMM*%
%LPD*%
G01*
G04 APERTURE LIST*
%ADD10R,0.650000X1.060000*%
%ADD11R,0.300000X1.400000*%
G04 APERTURE END LIST*
G36*
G01*
X5779000Y16583497D02*
X5779000Y17833503D01*
G75*
G02*
X6028997Y18083500I249997J0D01*
G01*
X6654003Y18083500D01*
G75*
G02*
X6904000Y17833503I0J-249997D01*
G01*
X6904000Y16583497D01*
G75*
G02*
X6654003Y16333500I-249997J0D01*
G01*
X6028997Y16333500D01*
G75*
G02*
X5779000Y16583497I0J249997D01*
G01*
G37*
G36*
G01*
X2854000Y16583497D02*
X2854000Y17833503D01*
G75*
G02*
X3103997Y18083500I249997J0D01*
G01*
X3729003Y18083500D01*
G75*
G02*
X3979000Y17833503I0J-249997D01*
G01*
X3979000Y16583497D01*
G75*
G02*
X3729003Y16333500I-249997J0D01*
G01*
X3103997Y16333500D01*
G75*
G02*
X2854000Y16583497I0J249997D01*
G01*
G37*
D10*
X11745000Y11768000D03*
X9845000Y11768000D03*
X9845000Y9568000D03*
X10795000Y9568000D03*
X11745000Y9568000D03*
G36*
G01*
X22869997Y21454000D02*
X24120003Y21454000D01*
G75*
G02*
X24370000Y21204003I0J-249997D01*
G01*
X24370000Y20578997D01*
G75*
G02*
X24120003Y20329000I-249997J0D01*
G01*
X22869997Y20329000D01*
G75*
G02*
X22620000Y20578997I0J249997D01*
G01*
X22620000Y21204003D01*
G75*
G02*
X22869997Y21454000I249997J0D01*
G01*
G37*
G36*
G01*
X22869997Y24379000D02*
X24120003Y24379000D01*
G75*
G02*
X24370000Y24129003I0J-249997D01*
G01*
X24370000Y23503997D01*
G75*
G02*
X24120003Y23254000I-249997J0D01*
G01*
X22869997Y23254000D01*
G75*
G02*
X22620000Y23503997I0J249997D01*
G01*
X22620000Y24129003D01*
G75*
G02*
X22869997Y24379000I249997J0D01*
G01*
G37*
G36*
G01*
X14868997Y16755000D02*
X16119003Y16755000D01*
G75*
G02*
X16369000Y16505003I0J-249997D01*
G01*
X16369000Y15879997D01*
G75*
G02*
X16119003Y15630000I-249997J0D01*
G01*
X14868997Y15630000D01*
G75*
G02*
X14619000Y15879997I0J249997D01*
G01*
X14619000Y16505003D01*
G75*
G02*
X14868997Y16755000I249997J0D01*
G01*
G37*
G36*
G01*
X14868997Y19680000D02*
X16119003Y19680000D01*
G75*
G02*
X16369000Y19430003I0J-249997D01*
G01*
X16369000Y18804997D01*
G75*
G02*
X16119003Y18555000I-249997J0D01*
G01*
X14868997Y18555000D01*
G75*
G02*
X14619000Y18804997I0J249997D01*
G01*
X14619000Y19430003D01*
G75*
G02*
X14868997Y19680000I249997J0D01*
G01*
G37*
G36*
G01*
X23970000Y18232500D02*
X23020000Y18232500D01*
G75*
G02*
X22770000Y18482500I0J250000D01*
G01*
X22770000Y18982500D01*
G75*
G02*
X23020000Y19232500I250000J0D01*
G01*
X23970000Y19232500D01*
G75*
G02*
X24220000Y18982500I0J-250000D01*
G01*
X24220000Y18482500D01*
G75*
G02*
X23970000Y18232500I-250000J0D01*
G01*
G37*
G36*
G01*
X23970000Y16332500D02*
X23020000Y16332500D01*
G75*
G02*
X22770000Y16582500I0J250000D01*
G01*
X22770000Y17082500D01*
G75*
G02*
X23020000Y17332500I250000J0D01*
G01*
X23970000Y17332500D01*
G75*
G02*
X24220000Y17082500I0J-250000D01*
G01*
X24220000Y16582500D01*
G75*
G02*
X23970000Y16332500I-250000J0D01*
G01*
G37*
G36*
G01*
X8095000Y10930000D02*
X7145000Y10930000D01*
G75*
G02*
X6895000Y11180000I0J250000D01*
G01*
X6895000Y11680000D01*
G75*
G02*
X7145000Y11930000I250000J0D01*
G01*
X8095000Y11930000D01*
G75*
G02*
X8345000Y11680000I0J-250000D01*
G01*
X8345000Y11180000D01*
G75*
G02*
X8095000Y10930000I-250000J0D01*
G01*
G37*
G36*
G01*
X8095000Y9030000D02*
X7145000Y9030000D01*
G75*
G02*
X6895000Y9280000I0J250000D01*
G01*
X6895000Y9780000D01*
G75*
G02*
X7145000Y10030000I250000J0D01*
G01*
X8095000Y10030000D01*
G75*
G02*
X8345000Y9780000I0J-250000D01*
G01*
X8345000Y9280000D01*
G75*
G02*
X8095000Y9030000I-250000J0D01*
G01*
G37*
G36*
G01*
X15080000Y10236500D02*
X14130000Y10236500D01*
G75*
G02*
X13880000Y10486500I0J250000D01*
G01*
X13880000Y10986500D01*
G75*
G02*
X14130000Y11236500I250000J0D01*
G01*
X15080000Y11236500D01*
G75*
G02*
X15330000Y10986500I0J-250000D01*
G01*
X15330000Y10486500D01*
G75*
G02*
X15080000Y10236500I-250000J0D01*
G01*
G37*
G36*
G01*
X15080000Y12136500D02*
X14130000Y12136500D01*
G75*
G02*
X13880000Y12386500I0J250000D01*
G01*
X13880000Y12886500D01*
G75*
G02*
X14130000Y13136500I250000J0D01*
G01*
X15080000Y13136500D01*
G75*
G02*
X15330000Y12886500I0J-250000D01*
G01*
X15330000Y12386500D01*
G75*
G02*
X15080000Y12136500I-250000J0D01*
G01*
G37*
D11*
X18050000Y14011000D03*
X18550000Y14011000D03*
X19050000Y14011000D03*
X19550000Y14011000D03*
X20050000Y14011000D03*
X20050000Y9611000D03*
X19550000Y9611000D03*
X19050000Y9611000D03*
X18550000Y9611000D03*
X18050000Y9611000D03*
M02*
