PCBNEW-LibModule-V1  2021-09-06 05:56:57
# encoding utf-8
Units mm
$INDEX
TYS5040470M10
$EndINDEX
$MODULE TYS5040470M10
Po 0 0 0 15 61359f99 00000000 ~~
Li TYS5040470M10
Cd TYS5040470M-10-3
Kw Inductor
Sc 0
At SMD
AR 
Op 0 0 0
T0 -0.425 -0 1.27 1.27 0 0.254 N V 21 N "L**"
T1 -0.425 -0 1.27 1.27 0 0.254 N I 21 N "TYS5040470M10"
DS -2.5 2.5 2.5 2.5 0.2 24
DS 2.5 2.5 2.5 -2.5 0.2 24
DS 2.5 -2.5 -2.5 -2.5 0.2 24
DS -2.5 -2.5 -2.5 2.5 0.2 24
DS -2.5 -2.5 2.5 -2.5 0.1 21
DS 2.5 -2.5 2.5 -2.5 0.1 21
DS 2.5 -2.5 -2.5 -2.5 0.1 21
DS -2.5 -2.5 -2.5 -2.5 0.1 21
DS -2.5 2.5 2.5 2.5 0.1 21
DS 2.5 2.5 2.5 2.5 0.1 21
DS 2.5 2.5 -2.5 2.5 0.1 21
DS -2.5 2.5 -2.5 2.5 0.1 21
DS -4.4 -3.5 3.55 -3.5 0.1 24
DS 3.55 -3.5 3.55 3.5 0.1 24
DS 3.55 3.5 -4.4 3.5 0.1 24
DS -4.4 3.5 -4.4 -3.5 0.1 24
DS -3.4 -0 -3.4 -0 0.2 21
DS -3.3 -0 -3.3 -0 0.2 21
DS -3.4 -0 -3.4 -0 0.2 21
DA -3.35 -0 -3.400 -0 -1800 0.2 21
DA -3.35 -0 -3.300 -0 -1800 0.2 21
DA -3.35 -0 -3.400 -0 -1800 0.2 21
$PAD
Po -1.850 -0
Sh "1" R 1.400 4.200 0 0 0
At SMD N 00888000
Ne 0 ""
$EndPAD
$PAD
Po 1.850 -0
Sh "2" R 1.400 4.200 0 0 0
At SMD N 00888000
Ne 0 ""
$EndPAD
$EndMODULE TYS5040470M10
$EndLIBRARY
