PCBNEW-LibModule-V1  2021-09-06 06:06:39
# encoding utf-8
Units mm
$INDEX
SOT95P270X145-6N
$EndINDEX
$MODULE SOT95P270X145-6N
Po 0 0 0 15 6135a1df 00000000 ~~
Li SOT95P270X145-6N
Cd (CH) [SOT-23]
Kw Integrated Circuit
Sc 0
At SMD
AR 
Op 0 0 0
T0 0 0 1.27 1.27 0 0.254 N V 21 N "IC**"
T1 0 0 1.27 1.27 0 0.254 N I 21 N "SOT95P270X145-6N"
DS -2.2 -1.8 2.2 -1.8 0.05 24
DS 2.2 -1.8 2.2 1.8 0.05 24
DS 2.2 1.8 -2.2 1.8 0.05 24
DS -2.2 1.8 -2.2 -1.8 0.05 24
DS -0.775 -1.45 0.775 -1.45 0.1 24
DS 0.775 -1.45 0.775 1.45 0.1 24
DS 0.775 1.45 -0.775 1.45 0.1 24
DS -0.775 1.45 -0.775 -1.45 0.1 24
DS -0.775 -0.5 0.175 -1.45 0.1 24
DS -0.2 -1.45 0.2 -1.45 0.2 21
DS 0.2 -1.45 0.2 1.45 0.2 21
DS 0.2 1.45 -0.2 1.45 0.2 21
DS -0.2 1.45 -0.2 -1.45 0.2 21
DS -1.95 -1.6 -0.55 -1.6 0.2 21
$PAD
Po -1.25 -0.95
Sh "1" R 0.6 1.4 0 0 900
At SMD N 00888000
Ne 0 ""
$EndPAD
$PAD
Po -1.25 0
Sh "2" R 0.6 1.4 0 0 900
At SMD N 00888000
Ne 0 ""
$EndPAD
$PAD
Po -1.25 0.95
Sh "3" R 0.6 1.4 0 0 900
At SMD N 00888000
Ne 0 ""
$EndPAD
$PAD
Po 1.25 0.95
Sh "4" R 0.6 1.4 0 0 900
At SMD N 00888000
Ne 0 ""
$EndPAD
$PAD
Po 1.25 0
Sh "5" R 0.6 1.4 0 0 900
At SMD N 00888000
Ne 0 ""
$EndPAD
$PAD
Po 1.25 -0.95
Sh "6" R 0.6 1.4 0 0 900
At SMD N 00888000
Ne 0 ""
$EndPAD
$EndMODULE SOT95P270X145-6N
$EndLIBRARY
