(module DLHR-L02D-E1BD-C-NAV8 (layer F.Cu) (tedit 61386397)
  (fp_text reference IC** (at 0 0 90) (layer F.SilkS)
    (effects (font (size 1 1) (thickness 0.15)))
  )
  (fp_text value DLHR-L02D-E1BD-C-NAV8 (at 0.635 -6.985) (layer F.Fab)
    (effects (font (size 1 1) (thickness 0.15)))
  )
  (fp_circle (center -9.323605 -5.588) (end -9.271 -5.588) (layer F.SilkS) (width 0.15))
  (fp_circle (center -9.323605 -5.588) (end -9.196605 -5.461) (layer F.SilkS) (width 0.15))
  (fp_line (start -10.16 -6.35) (end 10.16 -6.35) (layer F.SilkS) (width 0.15))
  (fp_line (start 10.16 -6.35) (end 10.16 6.35) (layer F.SilkS) (width 0.15))
  (fp_line (start 10.16 6.35) (end -10.16 6.35) (layer F.SilkS) (width 0.15))
  (fp_line (start -10.16 6.35) (end -10.16 -6.35) (layer F.SilkS) (width 0.15))
  (fp_line (start 4.5212 6.35) (end 4.5212 8.4582) (layer Dwgs.User) (width 0.12))
  (fp_line (start 4.5212 8.4582) (end 1.3462 8.4582) (layer Dwgs.User) (width 0.12))
  (fp_line (start 1.3462 8.4582) (end 1.3462 6.35) (layer Dwgs.User) (width 0.12))
  (fp_line (start 1.3462 8.4582) (end 0.7112 7.8232) (layer Dwgs.User) (width 0.12))
  (fp_line (start 0.7112 7.8232) (end 1.3462 7.8232) (layer Dwgs.User) (width 0.12))
  (fp_line (start 1.3462 7.8232) (end 5.1562 7.8232) (layer Dwgs.User) (width 0.12))
  (fp_line (start 5.1562 7.8232) (end 4.5212 8.4582) (layer Dwgs.User) (width 0.12))
  (fp_line (start -1.3208 6.35) (end -1.3208 8.4582) (layer Dwgs.User) (width 0.12))
  (fp_line (start -1.3208 8.4582) (end -4.4958 8.4582) (layer Dwgs.User) (width 0.12))
  (fp_line (start -4.4958 8.4582) (end -4.4958 6.35) (layer Dwgs.User) (width 0.12))
  (fp_line (start -4.4958 8.4582) (end -5.1308 7.8232) (layer Dwgs.User) (width 0.12))
  (fp_line (start -5.1308 7.8232) (end -4.4958 7.8232) (layer Dwgs.User) (width 0.12))
  (fp_line (start -4.4958 7.8232) (end -0.6858 7.8232) (layer Dwgs.User) (width 0.12))
  (fp_line (start -0.6858 7.8232) (end -1.3208 8.4582) (layer Dwgs.User) (width 0.12))
  (pad 1 thru_hole oval (at -8.001 -3.81) (size 3.81 1.905) (drill 0.9906) (layers *.Cu *.Mask))
  (pad 8 thru_hole oval (at 8.001 -3.81) (size 3.81 1.905) (drill 0.9906) (layers *.Cu *.Mask))
  (pad 2 thru_hole oval (at -8.001 -1.27) (size 3.81 1.905) (drill 0.9906) (layers *.Cu *.Mask))
  (pad 7 thru_hole oval (at 8.001 -1.27) (size 3.81 1.905) (drill 0.9906) (layers *.Cu *.Mask))
  (pad 3 thru_hole oval (at -8.001 1.27) (size 3.81 1.905) (drill 0.9906) (layers *.Cu *.Mask))
  (pad 6 thru_hole oval (at 8.001 1.27) (size 3.81 1.905) (drill 0.9906) (layers *.Cu *.Mask))
  (pad 4 thru_hole oval (at -8.001 3.81) (size 3.81 1.905) (drill 0.9906) (layers *.Cu *.Mask))
  (pad 5 thru_hole oval (at 8.001 3.81) (size 3.81 1.905) (drill 0.9906) (layers *.Cu *.Mask))
  (model ${KIPRJMOD}/Libs/E1BD.step
    (offset (xyz -1.1176 -30.2006 -20.0152))
    (scale (xyz 1 1 1))
    (rotate (xyz -90 0 90))
  )
)
