PCBNEW-LibModule-V1  2021-09-06 06:08:01
# encoding utf-8
Units mm
$INDEX
HLE-120-02-XXX-DV-A
$EndINDEX
$MODULE HLE-120-02-XXX-DV-A
Po 0 0 0 15 6135a231 00000000 ~~
Li HLE-120-02-XXX-DV-A
Cd HLE-120-02-XXX-DV-A
Kw Connector
Sc 0
At STD
AR 
Op 0 0 0
T0 0 0 1.27 1.27 0 0.254 N V 21 N "J**"
T1 0 0 1.27 1.27 0 0.254 N I 21 N "HLE-120-02-XXX-DV-A"
DS -25.4 -2.54 25.4 -2.54 0.2 24
DS 25.4 -2.54 25.4 2.54 0.2 24
DS 25.4 2.54 -25.4 2.54 0.2 24
DS -25.4 2.54 -25.4 -2.54 0.2 24
DS 25.4 -2.54 25.4 2.54 0.1 21
DS -25.4 2.54 -25.4 -2.54 0.1 21
DS -26.6 -4.67 26.6 -4.67 0.05 24
DS 26.6 -4.67 26.6 5.375 0.05 24
DS 26.6 5.375 -26.6 5.375 0.05 24
DS -26.6 5.375 -26.6 -4.67 0.05 24
DC 24.18 4.275 24.13 4.275 0.254 21
$PAD
Po 24.13 2.525
Sh "1" R 1.27 2.29 0 0 0
At SMD N 00888000
Ne 0 ""
$EndPAD
$PAD
Po 24.13 -2.525
Sh "2" R 1.27 2.29 0 0 0
At SMD N 00888000
Ne 0 ""
$EndPAD
$PAD
Po 21.59 2.525
Sh "3" R 1.27 2.29 0 0 0
At SMD N 00888000
Ne 0 ""
$EndPAD
$PAD
Po 21.59 -2.525
Sh "4" R 1.27 2.29 0 0 0
At SMD N 00888000
Ne 0 ""
$EndPAD
$PAD
Po 19.05 2.525
Sh "5" R 1.27 2.29 0 0 0
At SMD N 00888000
Ne 0 ""
$EndPAD
$PAD
Po 19.05 -2.525
Sh "6" R 1.27 2.29 0 0 0
At SMD N 00888000
Ne 0 ""
$EndPAD
$PAD
Po 16.51 2.525
Sh "7" R 1.27 2.29 0 0 0
At SMD N 00888000
Ne 0 ""
$EndPAD
$PAD
Po 16.51 -2.525
Sh "8" R 1.27 2.29 0 0 0
At SMD N 00888000
Ne 0 ""
$EndPAD
$PAD
Po 13.97 2.525
Sh "9" R 1.27 2.29 0 0 0
At SMD N 00888000
Ne 0 ""
$EndPAD
$PAD
Po 13.97 -2.525
Sh "10" R 1.27 2.29 0 0 0
At SMD N 00888000
Ne 0 ""
$EndPAD
$PAD
Po 11.43 2.525
Sh "11" R 1.27 2.29 0 0 0
At SMD N 00888000
Ne 0 ""
$EndPAD
$PAD
Po 11.43 -2.525
Sh "12" R 1.27 2.29 0 0 0
At SMD N 00888000
Ne 0 ""
$EndPAD
$PAD
Po 8.89 2.525
Sh "13" R 1.27 2.29 0 0 0
At SMD N 00888000
Ne 0 ""
$EndPAD
$PAD
Po 8.89 -2.525
Sh "14" R 1.27 2.29 0 0 0
At SMD N 00888000
Ne 0 ""
$EndPAD
$PAD
Po 6.35 2.525
Sh "15" R 1.27 2.29 0 0 0
At SMD N 00888000
Ne 0 ""
$EndPAD
$PAD
Po 6.35 -2.525
Sh "16" R 1.27 2.29 0 0 0
At SMD N 00888000
Ne 0 ""
$EndPAD
$PAD
Po 3.81 2.525
Sh "17" R 1.27 2.29 0 0 0
At SMD N 00888000
Ne 0 ""
$EndPAD
$PAD
Po 3.81 -2.525
Sh "18" R 1.27 2.29 0 0 0
At SMD N 00888000
Ne 0 ""
$EndPAD
$PAD
Po 1.27 2.525
Sh "19" R 1.27 2.29 0 0 0
At SMD N 00888000
Ne 0 ""
$EndPAD
$PAD
Po 1.27 -2.525
Sh "20" R 1.27 2.29 0 0 0
At SMD N 00888000
Ne 0 ""
$EndPAD
$PAD
Po -1.27 2.525
Sh "21" R 1.27 2.29 0 0 0
At SMD N 00888000
Ne 0 ""
$EndPAD
$PAD
Po -1.27 -2.525
Sh "22" R 1.27 2.29 0 0 0
At SMD N 00888000
Ne 0 ""
$EndPAD
$PAD
Po -3.81 2.525
Sh "23" R 1.27 2.29 0 0 0
At SMD N 00888000
Ne 0 ""
$EndPAD
$PAD
Po -3.81 -2.525
Sh "24" R 1.27 2.29 0 0 0
At SMD N 00888000
Ne 0 ""
$EndPAD
$PAD
Po -6.35 2.525
Sh "25" R 1.27 2.29 0 0 0
At SMD N 00888000
Ne 0 ""
$EndPAD
$PAD
Po -6.35 -2.525
Sh "26" R 1.27 2.29 0 0 0
At SMD N 00888000
Ne 0 ""
$EndPAD
$PAD
Po -8.89 2.525
Sh "27" R 1.27 2.29 0 0 0
At SMD N 00888000
Ne 0 ""
$EndPAD
$PAD
Po -8.89 -2.525
Sh "28" R 1.27 2.29 0 0 0
At SMD N 00888000
Ne 0 ""
$EndPAD
$PAD
Po -11.43 2.525
Sh "29" R 1.27 2.29 0 0 0
At SMD N 00888000
Ne 0 ""
$EndPAD
$PAD
Po -11.43 -2.525
Sh "30" R 1.27 2.29 0 0 0
At SMD N 00888000
Ne 0 ""
$EndPAD
$PAD
Po -13.97 2.525
Sh "31" R 1.27 2.29 0 0 0
At SMD N 00888000
Ne 0 ""
$EndPAD
$PAD
Po -13.97 -2.525
Sh "32" R 1.27 2.29 0 0 0
At SMD N 00888000
Ne 0 ""
$EndPAD
$PAD
Po -16.51 2.525
Sh "33" R 1.27 2.29 0 0 0
At SMD N 00888000
Ne 0 ""
$EndPAD
$PAD
Po -16.51 -2.525
Sh "34" R 1.27 2.29 0 0 0
At SMD N 00888000
Ne 0 ""
$EndPAD
$PAD
Po -19.05 2.525
Sh "35" R 1.27 2.29 0 0 0
At SMD N 00888000
Ne 0 ""
$EndPAD
$PAD
Po -19.05 -2.525
Sh "36" R 1.27 2.29 0 0 0
At SMD N 00888000
Ne 0 ""
$EndPAD
$PAD
Po -21.59 2.525
Sh "37" R 1.27 2.29 0 0 0
At SMD N 00888000
Ne 0 ""
$EndPAD
$PAD
Po -21.59 -2.525
Sh "38" R 1.27 2.29 0 0 0
At SMD N 00888000
Ne 0 ""
$EndPAD
$PAD
Po -24.13 2.525
Sh "39" R 1.27 2.29 0 0 0
At SMD N 00888000
Ne 0 ""
$EndPAD
$PAD
Po -24.13 -2.525
Sh "40" R 1.27 2.29 0 0 0
At SMD N 00888000
Ne 0 ""
$EndPAD
$PAD
Po 22.86 0
Sh "41" C 0.89 0.89 0 0 900
Dr 1.78 0 0
At STD N 00E0FFFF
Ne 0 ""
$EndPAD
$PAD
Po -22.86 0
Sh "42" C 0.89 0.89 0 0 900
Dr 1.78 0 0
At STD N 00E0FFFF
Ne 0 ""
$EndPAD
$EndMODULE HLE-120-02-XXX-DV-A
$EndLIBRARY
